[
  {
    "id": 401403868,
    "teams": [
      {
        "school": "Texas",
        "conference": "Big 12",
        "homeAway": "home",
        "points": 19,
        "stats": [
          {
            "category": "fumblesRecovered",
            "stat": "0"
          },
          {
            "category": "rushingTDs",
            "stat": "1"
          },
          {
            "category": "puntReturnYards",
            "stat": "10"
          },
          {
            "category": "puntReturnTDs",
            "stat": "0"
          },
          {
            "category": "puntReturns",
            "stat": "3"
          },
          {
            "category": "passingTDs",
            "stat": "0"
          },
          {
            "category": "kickReturnYards",
            "stat": "39"
          },
          {
            "category": "kickReturnTDs",
            "stat": "0"
          },
          {
            "category": "kickReturns",
            "stat": "2"
          },
          {
            "category": "kickingPoints",
            "stat": "13"
          },
          {
            "category": "tacklesForLoss",
            "stat": "6"
          },
          {
            "category": "defensiveTDs",
            "stat": "0"
          },
          {
            "category": "tackles",
            "stat": "33"
          },
          {
            "category": "sacks",
            "stat": "2"
          },
          {
            "category": "qbHurries",
            "stat": "7"
          },
          {
            "category": "passesDeflected",
            "stat": "1"
          },
          {
            "category": "possessionTime",
            "stat": "30:44"
          },
          {
            "category": "interceptions",
            "stat": "0"
          },
          {
            "category": "fumblesLost",
            "stat": "0"
          },
          {
            "category": "turnovers",
            "stat": "0"
          },
          {
            "category": "totalPenaltiesYards",
            "stat": "5-30"
          },
          {
            "category": "yardsPerRushAttempt",
            "stat": "2.4"
          },
          {
            "category": "rushingAttempts",
            "stat": "33"
          },
          {
            "category": "rushingYards",
            "stat": "79"
          },
          {
            "category": "yardsPerPass",
            "stat": "8.6"
          },
          {
            "category": "completionAttempts",
            "stat": "23-34"
          },
          {
            "category": "netPassingYards",
            "stat": "292"
          },
          {
            "category": "totalYards",
            "stat": "371"
          },
          {
            "category": "fourthDownEff",
            "stat": "0-0"
          },
          {
            "category": "thirdDownEff",
            "stat": "3-12"
          },
          {
            "category": "firstDowns",
            "stat": "25"
          }
        ]
      },
      {
        "school": "Alabama",
        "conference": "SEC",
        "homeAway": "away",
        "points": 20,
        "stats": [
          {
            "category": "fumblesRecovered",
            "stat": "0"
          },
          {
            "category": "rushingTDs",
            "stat": "1"
          },
          {
            "category": "puntReturnYards",
            "stat": "-3"
          },
          {
            "category": "puntReturnTDs",
            "stat": "0"
          },
          {
            "category": "puntReturns",
            "stat": "2"
          },
          {
            "category": "passingTDs",
            "stat": "1"
          },
          {
            "category": "kickReturnYards",
            "stat": "36"
          },
          {
            "category": "kickReturnTDs",
            "stat": "0"
          },
          {
            "category": "kickReturns",
            "stat": "2"
          },
          {
            "category": "kickingPoints",
            "stat": "8"
          },
          {
            "category": "tacklesForLoss",
            "stat": "7"
          },
          {
            "category": "defensiveTDs",
            "stat": "0"
          },
          {
            "category": "tackles",
            "stat": "43"
          },
          {
            "category": "sacks",
            "stat": "3"
          },
          {
            "category": "qbHurries",
            "stat": "1"
          },
          {
            "category": "passesDeflected",
            "stat": "3"
          },
          {
            "category": "possessionTime",
            "stat": "29:16"
          },
          {
            "category": "interceptions",
            "stat": "0"
          },
          {
            "category": "fumblesLost",
            "stat": "0"
          },
          {
            "category": "turnovers",
            "stat": "0"
          },
          {
            "category": "totalPenaltiesYards",
            "stat": "15-100"
          },
          {
            "category": "yardsPerRushAttempt",
            "stat": "6.7"
          },
          {
            "category": "rushingAttempts",
            "stat": "24"
          },
          {
            "category": "rushingYards",
            "stat": "161"
          },
          {
            "category": "yardsPerPass",
            "stat": "5.5"
          },
          {
            "category": "completionAttempts",
            "stat": "27-39"
          },
          {
            "category": "netPassingYards",
            "stat": "213"
          },
          {
            "category": "totalYards",
            "stat": "374"
          },
          {
            "category": "fourthDownEff",
            "stat": "1-2"
          },
          {
            "category": "thirdDownEff",
            "stat": "5-15"
          },
          {
            "category": "firstDowns",
            "stat": "16"
          }
        ]
      }
    ]
  }
]