[
  {
    "id": 401281942,
    "season": 2021,
    "week": 1,
    "season_type": "regular",
    "start_date": "2021-09-04T19:30:00.000Z",
    "start_time_tbd": false,
    "neutral_site": true,
    "conference_game": false,
    "attendance": 71829,
    "venue_id": 5348,
    "venue": "Mercedes-Benz Stadium",
    "home_id": 2390,
    "home_team": "Miami",
    "home_conference": "ACC",
    "home_division": "fbs",
    "home_points": 13,
    "home_line_scores": [
      0,
      3,
      10,
      0
    ],
    "home_post_win_prob": "0.01176962249522609",
    "home_pregame_elo": 1607,
    "home_postgame_elo": 1585,
    "away_id": 333,
    "away_team": "Alabama",
    "away_conference": "SEC",
    "away_division": "fbs",
    "away_points": 44,
    "away_line_scores": [
      10,
      17,
      14,
      3
    ],
    "away_post_win_prob": "0.9882303775047739",
    "away_pregame_elo": 2099,
    "away_postgame_elo": 2121,
    "excitement_index": "0.7900699466",
    "highlights": null,
    "notes": null
  },
  {
    "id": 401282056,
    "season": 2021,
    "week": 2,
    "season_type": "regular",
    "start_date": "2021-09-11T20:00:00.000Z",
    "start_time_tbd": false,
    "neutral_site": false,
    "conference_game": false,
    "attendance": 95396,
    "venue_id": 3657,
    "venue": "Bryant Denny Stadium",
    "home_id": 333,
    "home_team": "Alabama",
    "home_conference": "SEC",
    "home_division": "fbs",
    "home_points": 48,
    "home_line_scores": [
      14,
      17,
      14,
      3
    ],
    "home_post_win_prob": "0.9943970698559972",
    "home_pregame_elo": null,
    "home_postgame_elo": null,
    "away_id": 2382,
    "away_team": "Mercer",
    "away_conference": "Southern",
    "away_division": "fcs",
    "away_points": 14,
    "away_line_scores": [
      0,
      0,
      7,
      7
    ],
    "away_post_win_prob": "0.005602930144002816",
    "away_pregame_elo": null,
    "away_postgame_elo": null,
    "excitement_index": "3.0100388599",
    "highlights": null,
    "notes": null
  },
  {
    "id": 401282071,
    "season": 2021,
    "week": 3,
    "season_type": "regular",
    "start_date": "2021-09-18T19:30:00.000Z",
    "start_time_tbd": false,
    "neutral_site": false,
    "conference_game": true,
    "attendance": 90887,
    "venue_id": 3634,
    "venue": "Ben Hill Griffin Stadium",
    "home_id": 57,
    "home_team": "Florida",
    "home_conference": "SEC",
    "home_division": "fbs",
    "home_points": 29,
    "home_line_scores": [
      3,
      6,
      14,
      6
    ],
    "home_post_win_prob": "0.9060914927181443",
    "home_pregame_elo": 1727,
    "home_postgame_elo": 1744,
    "away_id": 333,
    "away_team": "Alabama",
    "away_conference": "SEC",
    "away_division": "fbs",
    "away_points": 31,
    "away_line_scores": [
      21,
      0,
      7,
      3
    ],
    "away_post_win_prob": "0.09390850728185574",
    "away_pregame_elo": 2121,
    "away_postgame_elo": 2104,
    "excitement_index": "3.4162258227",
    "highlights": null,
    "notes": null
  },
  {
    "id": 401282081,
    "season": 2021,
    "week": 4,
    "season_type": "regular",
    "start_date": "2021-09-25T23:30:00.000Z",
    "start_time_tbd": false,
    "neutral_site": false,
    "conference_game": false,
    "attendance": 100077,
    "venue_id": 3657,
    "venue": "Bryant Denny Stadium",
    "home_id": 333,
    "home_team": "Alabama",
    "home_conference": "SEC",
    "home_division": "fbs",
    "home_points": 63,
    "home_line_scores": [
      21,
      21,
      7,
      14
    ],
    "home_post_win_prob": "0.9989619365205381",
    "home_pregame_elo": 2104,
    "home_postgame_elo": 2145,
    "away_id": 2572,
    "away_team": "Southern Mississippi",
    "away_conference": "Conference USA",
    "away_division": "fbs",
    "away_points": 14,
    "away_line_scores": [
      0,
      7,
      0,
      7
    ],
    "away_post_win_prob": "0.0010380634794618926",
    "away_pregame_elo": 1278,
    "away_postgame_elo": 1237,
    "excitement_index": "1.0194790572",
    "highlights": null,
    "notes": null
  },
  {
    "id": 401282089,
    "season": 2021,
    "week": 5,
    "season_type": "regular",
    "start_date": "2021-10-02T19:30:00.000Z",
    "start_time_tbd": false,
    "neutral_site": false,
    "conference_game": true,
    "attendance": 100077,
    "venue_id": 3657,
    "venue": "Bryant Denny Stadium",
    "home_id": 333,
    "home_team": "Alabama",
    "home_conference": "SEC",
    "home_division": "fbs",
    "home_points": 42,
    "home_line_scores": [
      7,
      21,
      7,
      7
    ],
    "home_post_win_prob": "0.99561684084897",
    "home_pregame_elo": 2145,
    "home_postgame_elo": 2155,
    "away_id": 145,
    "away_team": "Ole Miss",
    "away_conference": "SEC",
    "away_division": "fbs",
    "away_points": 21,
    "away_line_scores": [
      0,
      0,
      7,
      14
    ],
    "away_post_win_prob": "0.004383159151030047",
    "away_pregame_elo": 1739,
    "away_postgame_elo": 1729,
    "excitement_index": "2.0841496692",
    "highlights": null,
    "notes": null
  },
  {
    "id": 401282103,
    "season": 2021,
    "week": 6,
    "season_type": "regular",
    "start_date": "2021-10-10T00:00:00.000Z",
    "start_time_tbd": false,
    "neutral_site": false,
    "conference_game": true,
    "attendance": 106815,
    "venue_id": 3795,
    "venue": "Kyle Field",
    "home_id": 245,
    "home_team": "Texas A&M",
    "home_conference": "SEC",
    "home_division": "fbs",
    "home_points": 41,
    "home_line_scores": [
      17,
      7,
      7,
      10
    ],
    "home_post_win_prob": "0.9016155918734152",
    "home_pregame_elo": 1755,
    "home_postgame_elo": 1762,
    "away_id": 333,
    "away_team": "Alabama",
    "away_conference": "SEC",
    "away_division": "fbs",
    "away_points": 38,
    "away_line_scores": [
      7,
      3,
      14,
      14
    ],
    "away_post_win_prob": "0.09838440812658478",
    "away_pregame_elo": 2155,
    "away_postgame_elo": 2148,
    "excitement_index": "9.4116739478",
    "highlights": null,
    "notes": null
  },
  {
    "id": 401282107,
    "season": 2021,
    "week": 7,
    "season_type": "regular",
    "start_date": "2021-10-16T23:00:00.000Z",
    "start_time_tbd": false,
    "neutral_site": false,
    "conference_game": true,
    "attendance": 53796,
    "venue_id": 3693,
    "venue": "Davis Wade Stadium",
    "home_id": 344,
    "home_team": "Mississippi State",
    "home_conference": "SEC",
    "home_division": "fbs",
    "home_points": 9,
    "home_line_scores": [
      3,
      3,
      3,
      0
    ],
    "home_post_win_prob": "0.0003816120427455928",
    "home_pregame_elo": 1568,
    "home_postgame_elo": 1524,
    "away_id": 333,
    "away_team": "Alabama",
    "away_conference": "SEC",
    "away_division": "fbs",
    "away_points": 49,
    "away_line_scores": [
      14,
      7,
      14,
      14
    ],
    "away_post_win_prob": "0.9996183879572544",
    "away_pregame_elo": 2148,
    "away_postgame_elo": 2192,
    "excitement_index": "1.5153267073",
    "highlights": null,
    "notes": null
  },
  {
    "id": 401282111,
    "season": 2021,
    "week": 8,
    "season_type": "regular",
    "start_date": "2021-10-23T23:00:00.000Z",
    "start_time_tbd": false,
    "neutral_site": false,
    "conference_game": true,
    "attendance": 100077,
    "venue_id": 3657,
    "venue": "Bryant Denny Stadium",
    "home_id": 333,
    "home_team": "Alabama",
    "home_conference": "SEC",
    "home_division": "fbs",
    "home_points": 52,
    "home_line_scores": [
      7,
      14,
      3,
      28
    ],
    "home_post_win_prob": "0.961805654085494",
    "home_pregame_elo": 2192,
    "home_postgame_elo": 2205,
    "away_id": 2633,
    "away_team": "Tennessee",
    "away_conference": "SEC",
    "away_division": "fbs",
    "away_points": 24,
    "away_line_scores": [
      14,
      0,
      3,
      7
    ],
    "away_post_win_prob": "0.03819434591450599",
    "away_pregame_elo": 1636,
    "away_postgame_elo": 1623,
    "excitement_index": "3.1607376367",
    "highlights": null,
    "notes": null
  },
  {
    "id": 401282120,
    "season": 2021,
    "week": 10,
    "season_type": "regular",
    "start_date": "2021-11-06T23:00:00.000Z",
    "start_time_tbd": false,
    "neutral_site": false,
    "conference_game": true,
    "attendance": 100077,
    "venue_id": 3657,
    "venue": "Bryant Denny Stadium",
    "home_id": 333,
    "home_team": "Alabama",
    "home_conference": "SEC",
    "home_division": "fbs",
    "home_points": 20,
    "home_line_scores": [
      0,
      14,
      6,
      0
    ],
    "home_post_win_prob": "0.5969592340136527",
    "home_pregame_elo": 2205,
    "home_postgame_elo": 2187,
    "away_id": 99,
    "away_team": "LSU",
    "away_conference": "SEC",
    "away_division": "fbs",
    "away_points": 14,
    "away_line_scores": [
      7,
      0,
      7,
      0
    ],
    "away_post_win_prob": "0.4030407659863473",
    "away_pregame_elo": 1624,
    "away_postgame_elo": 1642,
    "excitement_index": "3.6203234682",
    "highlights": null,
    "notes": null
  },
  {
    "id": 401282127,
    "season": 2021,
    "week": 11,
    "season_type": "regular",
    "start_date": "2021-11-13T17:00:00.000Z",
    "start_time_tbd": false,
    "neutral_site": false,
    "conference_game": false,
    "attendance": 97011,
    "venue_id": 3657,
    "venue": "Bryant Denny Stadium",
    "home_id": 333,
    "home_team": "Alabama",
    "home_conference": "SEC",
    "home_division": "fbs",
    "home_points": 59,
    "home_line_scores": [
      14,
      35,
      0,
      10
    ],
    "home_post_win_prob": "0.9989705564645348",
    "home_pregame_elo": 2187,
    "home_postgame_elo": 2216,
    "away_id": 166,
    "away_team": "New Mexico State",
    "away_conference": "FBS Independents",
    "away_division": "fbs",
    "away_points": 3,
    "away_line_scores": [
      3,
      0,
      0,
      0
    ],
    "away_post_win_prob": "0.001029443535465191",
    "away_pregame_elo": 1081,
    "away_postgame_elo": 1052,
    "excitement_index": "1.0446547507",
    "highlights": null,
    "notes": null
  },
  {
    "id": 401282135,
    "season": 2021,
    "week": 12,
    "season_type": "regular",
    "start_date": "2021-11-20T20:30:00.000Z",
    "start_time_tbd": false,
    "neutral_site": false,
    "conference_game": true,
    "attendance": 98323,
    "venue_id": 3657,
    "venue": "Bryant Denny Stadium",
    "home_id": 333,
    "home_team": "Alabama",
    "home_conference": "SEC",
    "home_division": "fbs",
    "home_points": 42,
    "home_line_scores": [
      3,
      21,
      10,
      8
    ],
    "home_post_win_prob": "0.39890708128945584",
    "home_pregame_elo": 2216,
    "home_postgame_elo": 2195,
    "away_id": 8,
    "away_team": "Arkansas",
    "away_conference": "SEC",
    "away_division": "fbs",
    "away_points": 35,
    "away_line_scores": [
      0,
      14,
      7,
      14
    ],
    "away_post_win_prob": "0.6010929187105442",
    "away_pregame_elo": 1601,
    "away_postgame_elo": 1622,
    "excitement_index": "3.1859708742",
    "highlights": null,
    "notes": null
  },
  {
    "id": 401282146,
    "season": 2021,
    "week": 13,
    "season_type": "regular",
    "start_date": "2021-11-27T20:30:00.000Z",
    "start_time_tbd": false,
    "neutral_site": false,
    "conference_game": true,
    "attendance": 87451,
    "venue_id": 3785,
    "venue": "Jordan-Hare Stadium",
    "home_id": 2,
    "home_team": "Auburn",
    "home_conference": "SEC",
    "home_division": "fbs",
    "home_points": 22,
    "home_line_scores": [
      0,
      7,
      3,
      0,
      7,
      3,
      2,
      0
    ],
    "home_post_win_prob": "0.15923061217548962",
    "home_pregame_elo": 1680,
    "home_postgame_elo": 1702,
    "away_id": 333,
    "away_team": "Alabama",
    "away_conference": "SEC",
    "away_division": "fbs",
    "away_points": 24,
    "away_line_scores": [
      0,
      0,
      0,
      10,
      7,
      3,
      2,
      2
    ],
    "away_post_win_prob": "0.8407693878245104",
    "away_pregame_elo": 2195,
    "away_postgame_elo": 2173,
    "excitement_index": "8.3752444690",
    "highlights": null,
    "notes": null
  },
  {
    "id": 401282154,
    "season": 2021,
    "week": 14,
    "season_type": "regular",
    "start_date": "2021-12-04T21:00:00.000Z",
    "start_time_tbd": false,
    "neutral_site": true,
    "conference_game": true,
    "attendance": 78030,
    "venue_id": 5348,
    "venue": "Mercedes-Benz Stadium",
    "home_id": 333,
    "home_team": "Alabama",
    "home_conference": "SEC",
    "home_division": "fbs",
    "home_points": 41,
    "home_line_scores": [
      0,
      24,
      7,
      10
    ],
    "home_post_win_prob": "0.9948329932117118",
    "home_pregame_elo": 2173,
    "home_postgame_elo": 2220,
    "away_id": 61,
    "away_team": "Georgia",
    "away_conference": "SEC",
    "away_division": "fbs",
    "away_points": 24,
    "away_line_scores": [
      3,
      14,
      0,
      7
    ],
    "away_post_win_prob": "0.0051670067882881865",
    "away_pregame_elo": 2190,
    "away_postgame_elo": 2143,
    "excitement_index": "5.6619496584",
    "highlights": null,
    "notes": null
  }
]