{
    "_type": "Images",
    "instrumentation": {
       "_type": "ResponseInstrumentation"
    },
    "readLink": "images/search?q=Bryce Young ESPN",
    "webSearchUrl": "https://www.bing.com/images/search?q=Bryce Young ESPN&FORM=OIIARP",
    "queryContext": {
       "originalQuery": "Bryce Young ESPN",
       "alterationDisplayQuery": "bryce young espn",
       "alterationOverrideQuery": "+Bryce Young ESPN",
       "alterationMethod": "AM_JustChangeIt",
       "alterationType": "CombinedAlterationsChained"
    },
    "totalEstimatedMatches": 700,
    "nextOffset": 50,
    "currentOffset": 0,
    "value": [
       {
          "webSearchUrl": "https://www.bing.com/images/search?view=detailv2&FORM=OIIRPO&q=Bryce+Young+ESPN&id=B7024FAA854FE9E084B22AEC934D66C3E9674A79&simid=608025107403207039",
          "name": "Bryce Young Stats, News, Bio | ESPN",
          "thumbnailUrl": "https://tse4.mm.bing.net/th?id=OIP.d8LtRdxUhfw4eIBFnf03SAHaFY&pid=Api",
          "datePublished": "2021-05-23T08:31:00.0000000Z",
          "isFamilyFriendly": true,
          "contentUrl": "https://a.espncdn.com/combiner/i?img=/i/headshots/college-football/players/full/4685720.png",
          "hostPageUrl": "https://www.espn.com.au/college-football/player/_/id/4685720/bryce-young",
          "contentSize": "239151 B",
          "encodingFormat": "png",
          "hostPageDisplayUrl": "https://www.espn.com.au/college-football/player/_/id/4685720/bryce-young",
          "width": 600,
          "height": 436,
          "hostPageFavIconUrl": "https://www.bing.com/th?id=ODF.k0p4J8fMiqtGcWVqh6lhoA&pid=Api",
          "hostPageDomainFriendlyName": "ESPN.com",
          "hostPageDiscoveredDate": "2020-10-02T00:00:00.0000000Z",
          "thumbnail": {
             "width": 474,
             "height": 344
          },
          "imageInsightsToken": "ccid_d8LtRdxU*cp_D2391ECC3AECB0FE62CC075E84857B94*mid_B7024FAA854FE9E084B22AEC934D66C3E9674A79*simid_608025107403207039*thid_OIP.d8LtRdxUhfw4eIBFnf03SAHaFY",
          "insightsMetadata": {
             "recipeSourcesCount": 0,
             "pagesIncludingCount": 10,
             "availableSizesCount": 1
          },
          "imageId": "B7024FAA854FE9E084B22AEC934D66C3E9674A79",
          "accentColor": "AD1E29"
       },
       {
          "webSearchUrl": "https://www.bing.com/images/search?view=detailv2&FORM=OIIRPO&q=Bryce+Young+ESPN&id=0D69F4B3780AD1DCBBF1AB268ACD25E4397625B1&simid=608044048201888753",
          "name": "Football Recruiting - Bryce Young - Player Profiles - ESPN",
          "thumbnailUrl": "https://tse2.mm.bing.net/th?id=OIP.xH02NR3t24CKNguFa5GwUQAAAA&pid=Api",
          "datePublished": "2021-07-26T19:39:00.0000000Z",
          "isFamilyFriendly": true,
          "contentUrl": "https://a.espncdn.com/combiner/i?img=/i/headshots/recruiting/ncf/players/190/223841.jpg&w=190&h=254",
          "hostPageUrl": "http://www.espn.com/college-sports/football/recruiting/player/combine/_/id/223841/bryce-young",
          "contentSize": "10983 B",
          "encodingFormat": "jpeg",
          "hostPageDisplayUrl": "www.espn.com/college-sports/football/recruiting/player/combine/_/id/223841/bryce-young",
          "width": 190,
          "height": 254,
          "hostPageFavIconUrl": "https://www.bing.com/th?id=ODF.mkFAHpt8lFNE4AHufyMDHg&pid=Api",
          "hostPageDomainFriendlyName": "ESPN",
          "hostPageDiscoveredDate": "2017-02-23T00:00:00.0000000Z",
          "thumbnail": {
             "width": 190,
             "height": 254
          },
          "imageInsightsToken": "ccid_xH02NR3t*cp_714D2B13E2369B7FE54BE4854E19265D*mid_0D69F4B3780AD1DCBBF1AB268ACD25E4397625B1*simid_608044048201888753*thid_OIP.xH02NR3t24CKNguFa5GwUQAAAA",
          "insightsMetadata": {
             "recipeSourcesCount": 0,
             "pagesIncludingCount": 4,
             "availableSizesCount": 1
          },
          "imageId": "0D69F4B3780AD1DCBBF1AB268ACD25E4397625B1",
          "accentColor": "B61530"
       },
       {
          "webSearchUrl": "https://www.bing.com/images/search?view=detailv2&FORM=OIIRPO&q=Bryce+Young+ESPN&id=36A949D1377F9F24648FB18430F060A2B417D527&simid=608027860474920996",
          "name": "Bryce Young - Football Recruiting - Player Profiles - ESPN",
          "thumbnailUrl": "https://tse2.mm.bing.net/th?id=OIP.Sp_WY1hj0dIaG0W2drLKhgAAAA&pid=Api",
          "datePublished": "2021-06-22T21:46:00.0000000Z",
          "isFamilyFriendly": true,
          "contentUrl": "https://a.espncdn.com/combiner/i?img=/i/headshots/recruiting/ncf/players/190/197453.jpg&w=190&h=254",
          "hostPageUrl": "https://www.espn.com/college-sports/football/recruiting/player/_/id/197453/bryce-young",
          "contentSize": "11066 B",
          "encodingFormat": "jpeg",
          "hostPageDisplayUrl": "https://www.espn.com/college-sports/football/recruiting/player/_/id/197453/bryce-young",
          "width": 190,
          "height": 254,
          "hostPageDiscoveredDate": "2020-12-22T00:00:00.0000000Z",
          "thumbnail": {
             "width": 190,
             "height": 254
          },
          "imageInsightsToken": "ccid_Sp/WY1hj*cp_E961C62B2B86BF8DFAD2020573ACF50D*mid_36A949D1377F9F24648FB18430F060A2B417D527*simid_608027860474920996*thid_OIP.Sp!_WY1hj0dIaG0W2drLKhgAAAA",
          "insightsMetadata": {
             "pagesIncludingCount": 2,
             "availableSizesCount": 1
          },
          "imageId": "36A949D1377F9F24648FB18430F060A2B417D527",
          "accentColor": "696262"
       },
       {
          "webSearchUrl": "https://www.bing.com/images/search?view=detailv2&FORM=OIIRPO&q=Bryce+Young+ESPN&id=5900A3AE466EBEDB97B09EA258256479D9B4C91F&simid=608022710805224859",
          "name": "Alabama QB commit Bryce Young not afraid of big expectations, big names ...",
          "thumbnailUrl": "https://tse3.mm.bing.net/th?id=OIP.LuYt-cvab0N6YDR--p6LXQHaEK&pid=Api",
          "datePublished": "2019-12-06T22:59:00.0000000Z",
          "isFamilyFriendly": true,
          "contentUrl": "https://a3.espncdn.com/combiner/i?img=%2Fphoto%2F2019%2F1206%2Fr636627_2_1296x729_16-9.jpg",
          "hostPageUrl": "https://www.espn.com/college-football/insider/story/_/id/28218549/alabama-qb-commit-bryce-young-not-afraid-big-expectations-big-names-ahead-him",
          "contentSize": "178009 B",
          "encodingFormat": "jpeg",
          "hostPageDisplayUrl": "https://www.espn.com/college-football/insider/story/_/id/28218549/alabama-qb-commit...",
          "width": 1296,
          "height": 729,
          "hostPageFavIconUrl": "https://www.bing.com/th?id=ODF.mkFAHpt8lFNE4AHufyMDHg&pid=Api",
          "hostPageDomainFriendlyName": "ESPN",
          "hostPageDiscoveredDate": "2019-12-06T22:59:00.0000000Z",
          "thumbnail": {
             "width": 474,
             "height": 266
          },
          "imageInsightsToken": "ccid_LuYt+cva*cp_F016A6DD9AD9905D7EA743E41DEC03BD*mid_5900A3AE466EBEDB97B09EA258256479D9B4C91F*simid_608022710805224859*thid_OIP.LuYt-cvab0N6YDR--p6LXQHaEK",
          "insightsMetadata": {
             "pagesIncludingCount": 7,
             "availableSizesCount": 1
          },
          "imageId": "5900A3AE466EBEDB97B09EA258256479D9B4C91F",
          "accentColor": "AE1D24"
       },
       {
          "webSearchUrl": "https://www.bing.com/images/search?view=detailv2&FORM=OIIRPO&q=Bryce+Young+ESPN&id=CF630E62B0B062898383CDE9B6A144178FC38415&simid=607993895864132343",
          "name": "Former 5-star QB recruit Bryce Young impresses in Alabama spring game ...",
          "thumbnailUrl": "https://tse2.mm.bing.net/th?id=OIP.bYdnPvBVoCnLtc0xheQnOAHaD4&pid=Api",
          "datePublished": "2021-07-08T05:06:00.0000000Z",
          "isFamilyFriendly": true,
          "contentUrl": "https://lh5.googleusercontent.com/proxy/lacIsLadSCA3XhTEoUhfgwoKFAvORJH9pLtphVxCufC0rFnM_wikvu1HSKckkNFw96DQ7HMmVJ57zNtsztV3jQ1RzEA9N2g13jT5COuXRWR1lUtN4Odc-yMmVsKK4JrR-pgx2qRTgmsPgSHabi0=w1200-h630-p-k-no-nu",
          "hostPageUrl": "https://salirwiro.blogspot.com/2021/04/former-5-star-qb-recruit-bryce-young.html",
          "contentSize": "100525 B",
          "encodingFormat": "jpeg",
          "hostPageDisplayUrl": "https://salirwiro.blogspot.com/2021/04/former-5-star-qb-recruit-bryce-young.html",
          "width": 1200,
          "height": 630,
          "hostPageDiscoveredDate": "2021-05-02T00:00:00.0000000Z",
          "thumbnail": {
             "width": 474,
             "height": 248
          },
          "imageInsightsToken": "ccid_bYdnPvBV*cp_A0739C6CE80599F7A25059BE4DD88A32*mid_CF630E62B0B062898383CDE9B6A144178FC38415*simid_607993895864132343*thid_OIP.bYdnPvBVoCnLtc0xheQnOAHaD4",
          "insightsMetadata": {
             "pagesIncludingCount": 1,
             "availableSizesCount": 1
          },
          "imageId": "CF630E62B0B062898383CDE9B6A144178FC38415",
          "accentColor": "A6253A"
       },
       {
          "webSearchUrl": "https://www.bing.com/images/search?view=detailv2&FORM=OIIRPO&q=Bryce+Young+ESPN&id=929B23B3365916BAA673B8376E812F2B3EE1815B&simid=608026975710575264",
          "name": "ESPN Spotlights Hosts & Anchors They've Re-Signed, Hired In 2021 ...",
          "thumbnailUrl": "https://tse1.mm.bing.net/th?id=OIP.gRaH5lyXrcK2N4AsHTk2eQHaEK&pid=Api",
          "datePublished": "2021-07-30T12:00:00.0000000Z",
          "isFamilyFriendly": true,
          "contentUrl": "https://www.barrettsportsmedia.com/wp-content/uploads/2021/09/Bryce-Young-ESPN--1536x864.jpeg",
          "hostPageUrl": "https://www.barrettsportsmedia.com/2021/07/30/espn-re-signed-hired/",
          "contentSize": "164316 B",
          "encodingFormat": "jpeg",
          "hostPageDisplayUrl": "https://www.barrettsportsmedia.com/2021/07/30/espn-re-signed-hired",
          "width": 1536,
          "height": 864,
          "hostPageDiscoveredDate": "2021-07-30T12:00:00.0000000Z",
          "thumbnail": {
             "width": 474,
             "height": 266
          },
          "imageInsightsToken": "ccid_gRaH5lyX*cp_06557AB5F33DFB56E001A95588A3AC2D*mid_929B23B3365916BAA673B8376E812F2B3EE1815B*simid_608026975710575264*thid_OIP.gRaH5lyXrcK2N4AsHTk2eQHaEK",
          "insightsMetadata": {
             "pagesIncludingCount": 5,
             "availableSizesCount": 5
          },
          "imageId": "929B23B3365916BAA673B8376E812F2B3EE1815B",
          "accentColor": "A5262C"
       },
       {
          "webSearchUrl": "https://www.bing.com/images/search?view=detailv2&FORM=OIIRPO&q=Bryce+Young+ESPN&id=348CB1BFE5950AE65CED8FD177649E095EFB5ED3&simid=608011148756585109",
          "name": "USC Commit Bryce Young Shines in Workouts on 1st Day of Elite 11 Finals ...",
          "thumbnailUrl": "https://tse1.mm.bing.net/th?id=OIP.W7tYMtfyHBzhuJC-eNTOXQHaE7&pid=Api",
          "datePublished": "2021-01-27T19:24:00.0000000Z",
          "isFamilyFriendly": true,
          "contentUrl": "http://cdn.chatsports.com/thumbnails/4591-99419-original.jpeg",
          "hostPageUrl": "https://www.chatsports.com/ncaa/a/source/usc-commit-bryce-young-shines-in-workouts-on-1st-day-of-elite-11-finals-2019-15395513",
          "contentSize": "42185 B",
          "encodingFormat": "jpeg",
          "hostPageDisplayUrl": "https://www.chatsports.com/ncaa/a/source/usc-commit-bryce-young-shines-in-workouts-on...",
          "width": 800,
          "height": 533,
          "hostPageFavIconUrl": "https://www.bing.com/th?id=ODF.IalrH25p3_9mMwggiN35Eg&pid=Api",
          "hostPageDiscoveredDate": "2019-08-29T00:00:00.0000000Z",
          "thumbnail": {
             "width": 474,
             "height": 315
          },
          "imageInsightsToken": "ccid_W7tYMtfy*cp_B16E79BD192E5697EFF16998F1AC0CCD*mid_348CB1BFE5950AE65CED8FD177649E095EFB5ED3*simid_608011148756585109*thid_OIP.W7tYMtfyHBzhuJC-eNTOXQHaE7",
          "insightsMetadata": {
             "recipeSourcesCount": 0,
             "pagesIncludingCount": 2,
             "availableSizesCount": 2
          },
          "imageId": "348CB1BFE5950AE65CED8FD177649E095EFB5ED3",
          "accentColor": "B11E1A"
       },
       {
          "webSearchUrl": "https://www.bing.com/images/search?view=detailv2&FORM=OIIRPO&q=Bryce+Young+ESPN&id=4AE362ABF426ECAD51374D9797B92CB6F32AED8E&simid=608021486736121418",
          "name": "Sources -- Alabama Crimson Tide QB Bryce Young has already signed more ...",
          "thumbnailUrl": "https://tse3.mm.bing.net/th?id=OIP.x-ipr34wJZ3Tcio9EyQYWwHaEK&pid=Api",
          "datePublished": "2021-08-17T04:40:00.0000000Z",
          "isFamilyFriendly": true,
          "contentUrl": "https://a2.espncdn.com/combiner/i?img=%2Fphoto%2F2021%2F0415%2Fr840972_1296x729_16-9.jpg",
          "hostPageUrl": "https://salirwiro.blogspot.com/2021/07/sources-alabama-crimson-tide-qb-bryce.html",
          "contentSize": "278833 B",
          "encodingFormat": "jpeg",
          "hostPageDisplayUrl": "https://salirwiro.blogspot.com/2021/07/sources-alabama-crimson-tide-qb-bryce.html",
          "width": 1296,
          "height": 729,
          "hostPageDiscoveredDate": "2021-08-10T00:00:00.0000000Z",
          "thumbnail": {
             "width": 474,
             "height": 266
          },
          "imageInsightsToken": "ccid_x+ipr34w*cp_2105CADAFAA022C18ABEEAE5C9DDF117*mid_4AE362ABF426ECAD51374D9797B92CB6F32AED8E*simid_608021486736121418*thid_OIP.x-ipr34wJZ3Tcio9EyQYWwHaEK",
          "insightsMetadata": {
             "pagesIncludingCount": 22,
             "availableSizesCount": 3
          },
          "imageId": "4AE362ABF426ECAD51374D9797B92CB6F32AED8E",
          "accentColor": "A02B3A"
       },
       {
          "webSearchUrl": "https://www.bing.com/images/search?view=detailv2&FORM=OIIRPO&q=Bryce+Young+ESPN&id=090BBDC7547EABD2AF55D17728BEF8D00BC2A81F&simid=608030708044863177",
          "name": "Social media buzzing about Alabama 5-star QB Bryce Young after ...",
          "thumbnailUrl": "https://tse4.mm.bing.net/th?id=OIP.5CwqXLSeUCQ1TK_DnV73cwHaD4&pid=Api",
          "datePublished": "2021-09-09T15:33:00.0000000Z",
          "isFamilyFriendly": true,
          "contentUrl": "https://www.saturdaydownsouth.com/wp-content/uploads/2021/04/Screen-Shot-2021-04-17-at-1.19.17-PM-1200x628.png",
          "hostPageUrl": "https://www.saturdaydownsouth.com/alabama-football/bryce-young-has-twitter-buzzing-with-highlight-throws-in-alabama-spring-game/",
          "contentSize": "731722 B",
          "encodingFormat": "png",
          "hostPageDisplayUrl": "https://www.saturdaydownsouth.com/alabama-football/bryce-young-has-twitter-buzzing-with...",
          "width": 1200,
          "height": 628,
          "hostPageDiscoveredDate": "2021-04-29T00:00:00.0000000Z",
          "thumbnail": {
             "width": 474,
             "height": 248
          },
          "imageInsightsToken": "ccid_5CwqXLSe*cp_5E8BFAF43C2ED76BA7C56F189296D880*mid_090BBDC7547EABD2AF55D17728BEF8D00BC2A81F*simid_608030708044863177*thid_OIP.5CwqXLSeUCQ1TK!_DnV73cwHaD4",
          "insightsMetadata": {
             "pagesIncludingCount": 1,
             "availableSizesCount": 1
          },
          "imageId": "090BBDC7547EABD2AF55D17728BEF8D00BC2A81F",
          "accentColor": "894250"
       },
       {
          "webSearchUrl": "https://www.bing.com/images/search?view=detailv2&FORM=OIIRPO&q=Bryce+Young+ESPN&id=890FCDFCADEA5DB32A3690FE6688D380987B85DA&simid=607999397722076581",
          "name": "Alabama QB Bryce Young's NIL deals are in the $800K range, per ESPN",
          "thumbnailUrl": "https://tse3.mm.bing.net/th?id=OIP.QiowgpwcUBLZkfd90D8pVwHaEc&pid=Api",
          "datePublished": "2021-07-29T12:00:00.0000000Z",
          "isFamilyFriendly": true,
          "contentUrl": "https://i1.wp.com/tdalabamamag.com/wp-content/uploads/2021/03/Bryce-Young-throws-a-pass-versus-Arkansas.jpg?w=1000&ssl=1",
          "hostPageUrl": "https://tdalabamamag.com/2021/07/29/alabama-bryce-young-nil-deals-800k-range-espn/",
          "contentSize": "670155 B",
          "encodingFormat": "jpeg",
          "hostPageDisplayUrl": "https://tdalabamamag.com/2021/07/29/alabama-bryce-young-nil-deals-800k-range-espn",
          "width": 1000,
          "height": 600,
          "hostPageDiscoveredDate": "2021-07-29T12:00:00.0000000Z",
          "thumbnail": {
             "width": 474,
             "height": 284
          },
          "imageInsightsToken": "ccid_Qiowgpwc*cp_B1C388B6E607E2CA99093C8BF2A933DF*mid_890FCDFCADEA5DB32A3690FE6688D380987B85DA*simid_607999397722076581*thid_OIP.QiowgpwcUBLZkfd90D8pVwHaEc",
          "insightsMetadata": {
             "pagesIncludingCount": 1,
             "availableSizesCount": 1
          },
          "imageId": "890FCDFCADEA5DB32A3690FE6688D380987B85DA",
          "accentColor": "A27C29"
       },
       {
          "webSearchUrl": "https://www.bing.com/images/search?view=detailv2&FORM=OIIRPO&q=Bryce+Young+ESPN&id=348177B96FF1B6D90683E734E22A8080227A1C46&simid=608025717286900403",
          "name": "Mac Jones vs. Bryce Young - Two emerging QB legends, another major ...",
          "thumbnailUrl": "https://tse3.mm.bing.net/th?id=OIP.nWnWcf99eW0o1_6OQf3mbgHaEK&pid=Api",
          "datePublished": "2020-09-20T13:17:00.0000000Z",
          "isFamilyFriendly": true,
          "contentUrl": "https://a.espncdn.com/combiner/i?img=%2Fphoto%2F2020%2F0917%2Fr746929_1296x729_16-9.jpg",
          "hostPageUrl": "https://www.espn.com/college-football/story/_/id/29891656/two-emerging-qb-legends-another-major-alabama-decision",
          "contentSize": "94370 B",
          "encodingFormat": "jpeg",
          "hostPageDisplayUrl": "https://www.espn.com/college-football/story/_/id/29891656/two-emerging-qb-legends...",
          "width": 1296,
          "height": 729,
          "hostPageFavIconUrl": "https://www.bing.com/th?id=ODF.mkFAHpt8lFNE4AHufyMDHg&pid=Api",
          "hostPageDomainFriendlyName": "ESPN",
          "hostPageDiscoveredDate": "2020-09-20T13:17:00.0000000Z",
          "thumbnail": {
             "width": 474,
             "height": 266
          },
          "imageInsightsToken": "ccid_nWnWcf99*cp_B84286260F598AF33D6557962111A7B0*mid_348177B96FF1B6D90683E734E22A8080227A1C46*simid_608025717286900403*thid_OIP.nWnWcf99eW0o1!_6OQf3mbgHaEK",
          "insightsMetadata": {
             "pagesIncludingCount": 8,
             "availableSizesCount": 2
          },
          "imageId": "348177B96FF1B6D90683E734E22A8080227A1C46",
          "accentColor": "7B2C24"
       },
       {
          "webSearchUrl": "https://www.bing.com/images/search?view=detailv2&FORM=OIIRPO&q=Bryce+Young+ESPN&id=C29706F1946766564AD63B03BA398F971C6C7C22&simid=607998633217178605",
          "name": "Alabama QB Bryce Young Has Signed Over $800K In NIL Deals - uSports.org",
          "thumbnailUrl": "https://tse1.mm.bing.net/th?id=OIP.mMkM4Lcpg-ZFMZmTqX0ACwHaEc&pid=Api",
          "datePublished": "2021-09-01T04:29:00.0000000Z",
          "isFamilyFriendly": true,
          "contentUrl": "https://usports.org/wp-content/uploads/Bryce-Young.jpg",
          "hostPageUrl": "https://usports.org/alabama-qb-bryce-young-has-signed-over-800k-in-nil-deals/",
          "contentSize": "20938 B",
          "encodingFormat": "jpeg",
          "hostPageDisplayUrl": "https://usports.org/alabama-qb-bryce-young-has-signed-over-800k-in-nil-deals",
          "width": 1000,
          "height": 600,
          "hostPageDiscoveredDate": "2021-08-13T00:00:00.0000000Z",
          "thumbnail": {
             "width": 474,
             "height": 284
          },
          "imageInsightsToken": "ccid_mMkM4Lcp*cp_9CB8A4D9F5125D4B139B8CA30FC1B169*mid_C29706F1946766564AD63B03BA398F971C6C7C22*simid_607998633217178605*thid_OIP.mMkM4Lcpg-ZFMZmTqX0ACwHaEc",
          "insightsMetadata": {
             "pagesIncludingCount": 6,
             "availableSizesCount": 3
          },
          "imageId": "C29706F1946766564AD63B03BA398F971C6C7C22",
          "accentColor": "BA5611"
       },
       {
          "webSearchUrl": "https://www.bing.com/images/search?view=detailv2&FORM=OIIRPO&q=Bryce+Young+ESPN&id=D13CA009DDB338D70CEE972765BACA804D606C33&simid=608006913917345909",
          "name": "Alabama QB commit, Bryce Young, shows passing ability on national stage",
          "thumbnailUrl": "https://tse4.mm.bing.net/th?id=OIP.iSYkRz8oJzc0XrCqDqgb5AHaE7&pid=Api",
          "datePublished": "2020-05-06T20:29:00.0000000Z",
          "isFamilyFriendly": true,
          "contentUrl": "http://cdn.chatsports.com/thumbnails/6779-13952-original.jpeg",
          "hostPageUrl": "https://www.chatsports.com/alabama-crimson-tide/a/source/alabama-qb-commit-bryce-young-shows-passing-ability-on-national-stage-15566517",
          "contentSize": "98211 B",
          "encodingFormat": "jpeg",
          "hostPageDisplayUrl": "https://www.chatsports.com/alabama-crimson-tide/a/source/alabama-qb-commit-bryce-young...",
          "width": 1000,
          "height": 666,
          "hostPageFavIconUrl": "https://www.bing.com/th?id=ODF.IalrH25p3_9mMwggiN35Eg&pid=Api",
          "hostPageDiscoveredDate": "2019-10-11T00:00:00.0000000Z",
          "thumbnail": {
             "width": 474,
             "height": 315
          },
          "imageInsightsToken": "ccid_iSYkRz8o*cp_193191970D6BDF3E2909C3CA652C8008*mid_D13CA009DDB338D70CEE972765BACA804D606C33*simid_608006913917345909*thid_OIP.iSYkRz8oJzc0XrCqDqgb5AHaE7",
          "insightsMetadata": {
             "pagesIncludingCount": 4,
             "availableSizesCount": 2
          },
          "imageId": "D13CA009DDB338D70CEE972765BACA804D606C33",
          "accentColor": "888707"
       },
       {
          "webSearchUrl": "https://www.bing.com/images/search?view=detailv2&FORM=OIIRPO&q=Bryce+Young+ESPN&id=DAD85A72EFD7179F9EB38D81E0FD06EF894EF45D&simid=608020232617537827",
          "name": "Bryce Young: Will enter the draft| Is eligible for nfl draft| Year in ...",
          "thumbnailUrl": "https://tse2.mm.bing.net/th?id=OIP.aieudgDlUywnXT5kg4QmRQHaEc&pid=Api",
          "datePublished": "2022-01-11T21:12:00.0000000Z",
          "isFamilyFriendly": true,
          "contentUrl": "https://sportsjone.com/wp-content/uploads/2021/12/images-2021-12-10T173306.038.jpeg",
          "hostPageUrl": "https://sportsjone.com/bryce-young-will-enter-the-draft-is-eligible-for-nfl-draft-year-in-school/",
          "contentSize": "31404 B",
          "encodingFormat": "jpeg",
          "hostPageDisplayUrl": "https://sportsjone.com/bryce-young-will-enter-the-draft-is-eligible-for-nfl-draft-year...",
          "width": 715,
          "height": 429,
          "hostPageDiscoveredDate": "2021-12-25T00:00:00.0000000Z",
          "thumbnail": {
             "width": 474,
             "height": 284
          },
          "imageInsightsToken": "ccid_aieudgDl*cp_E7F269C72F7610CE41C2137EB76DAB55*mid_DAD85A72EFD7179F9EB38D81E0FD06EF894EF45D*simid_608020232617537827*thid_OIP.aieudgDlUywnXT5kg4QmRQHaEc",
          "insightsMetadata": {
             "recipeSourcesCount": 0,
             "pagesIncludingCount": 1,
             "availableSizesCount": 1
          },
          "imageId": "DAD85A72EFD7179F9EB38D81E0FD06EF894EF45D",
          "accentColor": "A5262E"
       },
       {
          "webSearchUrl": "https://www.bing.com/images/search?view=detailv2&FORM=OIIRPO&q=Bryce+Young+ESPN&id=CF64FD72E2B9FAE4C6B8C69866F64BF34659D887&simid=608033796118940407",
          "name": "Alabama Officially Names Bryce Young The Starting Quarterback Of The ...",
          "thumbnailUrl": "https://tse3.mm.bing.net/th?id=OIP.gyjkiilRV5naAtIq_09qGQHaDL&pid=Api",
          "datePublished": "2021-08-30T12:00:00.0000000Z",
          "isFamilyFriendly": true,
          "contentUrl": "https://cdn01.dailycaller.com/wp-content/uploads/2021/04/Bryce_Young_1-e1618779158621.jpg",
          "hostPageUrl": "https://dailycaller.com/2021/08/30/alabama-bryce-young-named-starting-quarterback/",
          "contentSize": "103239 B",
          "encodingFormat": "jpeg",
          "hostPageDisplayUrl": "https://dailycaller.com/2021/08/30/alabama-bryce-young-named-starting-quarterback",
          "width": 1199,
          "height": 516,
          "hostPageDiscoveredDate": "2021-08-30T18:34:00.0000000Z",
          "thumbnail": {
             "width": 474,
             "height": 203
          },
          "imageInsightsToken": "ccid_gyjkiilR*cp_40B81E51C1074CEA940D9CB3EFA3EFB0*mid_CF64FD72E2B9FAE4C6B8C69866F64BF34659D887*simid_608033796118940407*thid_OIP.gyjkiilRV5naAtIq!_09qGQHaDL",
          "insightsMetadata": {
             "pagesIncludingCount": 4,
             "availableSizesCount": 1
          },
          "imageId": "CF64FD72E2B9FAE4C6B8C69866F64BF34659D887",
          "accentColor": "9F2C3D"
       },
       {
          "webSearchUrl": "https://www.bing.com/images/search?view=detailv2&FORM=OIIRPO&q=Bryce+Young+ESPN&id=9F814BAB816FD962E6D867038A8C123262863B83&simid=181286801284",
          "name": "Alabama QB Bryce Young Leaves Game With Shoulder Injury - ESPN",
          "thumbnailUrl": "https://tse3.mm.bing.net/th?id=OIF.tNtdCiDx0yo3SrX8T8W1kw&pid=Api",
          "datePublished": "2022-10-01T22:28:00.0000000Z",
          "isFamilyFriendly": true,
          "contentUrl": "https://www.thetimes.com.ng/wp-content/uploads/2022/10/r1054863_2_1296x729_16-9.jpg",
          "hostPageUrl": "https://www.thetimes.com.ng/2022/10/alabama-qb-bryce-young-leaves-game-with-shoulder-injury-espn/",
          "contentSize": "110483 B",
          "encodingFormat": "jpeg",
          "hostPageDisplayUrl": "https://www.thetimes.com.ng/2022/10/alabama-qb-bryce-young-leaves-game-with-shoulder...",
          "width": 1296,
          "height": 729,
          "thumbnail": {
             "width": 300,
             "height": 300
          },
          "imageInsightsToken": "ccid_KjPZk7FC*cp_B4DB5D0A20F1D32A374AB5FC4FC5B593*mid_9F814BAB816FD962E6D867038A8C123262863B83*simid_181286801284*thid_OIF.tNtdCiDx0yo3SrX8T8W1kw",
          "insightsMetadata": {
             "pagesIncludingCount": 1,
             "availableSizesCount": 1
          },
          "imageId": "9F814BAB816FD962E6D867038A8C123262863B83",
          "accentColor": "AA2132",
          "isFresh": true
       },
       {
          "webSearchUrl": "https://www.bing.com/images/search?view=detailv2&FORM=OIIRPO&q=Bryce+Young+ESPN&id=A92406385F4820483D2F0D8D9F21F9C4C18D8AA5&simid=608026348642704375",
          "name": "USC Trojans News, Articles, Stories & Trends for Today",
          "thumbnailUrl": "https://tse1.mm.bing.net/th?id=OIP.CaapsyVLDwFq2_LDEZ43iwHaE8&pid=Api",
          "datePublished": "2019-09-23T04:25:00.0000000Z",
          "isFamilyFriendly": true,
          "contentUrl": "https://cdn.vox-cdn.com/thumbor/yx_GOQIdGk31te89CcKL6lx-yck=/0x0:335x504/1200x800/filters:focal(111x137:163x189)/cdn.vox-cdn.com/uploads/chorus_image/image/65297291/Screen_Shot_2019_09_22_at_6.28.21_PM.0.png",
          "hostPageUrl": "https://flipboard.com/topic/usctrojans",
          "contentSize": "142287 B",
          "encodingFormat": "jpeg",
          "hostPageDisplayUrl": "https://flipboard.com/topic/usctrojans",
          "width": 1200,
          "height": 800,
          "hostPageFavIconUrl": "https://www.bing.com/th?id=ODF.5T1ZwMN3oTpGvoxrku4ZgQ&pid=Api",
          "hostPageDomainFriendlyName": "Flipboard",
          "hostPageDiscoveredDate": "2015-04-29T00:00:00.0000000Z",
          "thumbnail": {
             "width": 474,
             "height": 316
          },
          "imageInsightsToken": "ccid_CaapsyVL*cp_EB4B367FC3F664599C5E30132C8B3C3F*mid_A92406385F4820483D2F0D8D9F21F9C4C18D8AA5*simid_608026348642704375*thid_OIP.CaapsyVLDwFq2!_LDEZ43iwHaE8",
          "insightsMetadata": {
             "recipeSourcesCount": 0,
             "pagesIncludingCount": 2,
             "availableSizesCount": 1
          },
          "imageId": "A92406385F4820483D2F0D8D9F21F9C4C18D8AA5",
          "accentColor": "3A4491"
       },
       {
          "webSearchUrl": "https://www.bing.com/images/search?view=detailv2&FORM=OIIRPO&q=Bryce+Young+ESPN&id=4ED57FA676D5D079CD4827A37418117BC4636F8F&simid=608012819503855943",
          "name": "College football recruiting: Where were local players ranked? - Chicago ...",
          "thumbnailUrl": "https://tse3.mm.bing.net/th?id=OIP.mq_f6cVloY2HREESSJ862wHaE7&pid=Api",
          "datePublished": "2020-01-29T12:00:00.0000000Z",
          "isFamilyFriendly": true,
          "contentUrl": "https://www.chicagotribune.com/resizer/hRSRQjmXcswoGvlEgGZfh1Gjxn0=/1400x0/top/arc-anglerfish-arc2-prod-tronc.s3.amazonaws.com/public/BBENPMVKK5DJBGU4UXH3RMBUX4.jpg",
          "hostPageUrl": "https://www.chicagotribune.com/sports/college/ct-college-football-recruiting-rankings-20200129-6ftmbgvnyjgileaoxheslas3pm-story.html",
          "contentSize": "184305 B",
          "encodingFormat": "jpeg",
          "hostPageDisplayUrl": "https://www.chicagotribune.com/sports/college/ct-college-football-recruiting-rankings...",
          "width": 1400,
          "height": 933,
          "hostPageFavIconUrl": "https://www.bing.com/th?id=ODF.g4nkrAVSzVCp8H-G4jRi5w&pid=Api",
          "hostPageDomainFriendlyName": "Chicago Tribune",
          "hostPageDiscoveredDate": "2020-01-29T12:00:00.0000000Z",
          "thumbnail": {
             "width": 474,
             "height": 315
          },
          "imageInsightsToken": "ccid_mq/f6cVl*cp_0C8795CF1383A5E0999FECDADF0F81F7*mid_4ED57FA676D5D079CD4827A37418117BC4636F8F*simid_608012819503855943*thid_OIP.mq!_f6cVloY2HREESSJ862wHaE7",
          "insightsMetadata": {
             "pagesIncludingCount": 16,
             "availableSizesCount": 5
          },
          "imageId": "4ED57FA676D5D079CD4827A37418117BC4636F8F",
          "accentColor": "AA4F21"
       },
       {
          "webSearchUrl": "https://www.bing.com/images/search?view=detailv2&FORM=OIIRPO&q=Bryce+Young+ESPN&id=899CB4D53DA6952D8882CC52641AAA93C65C1943&simid=608056288861427615",
          "name": "'20 CA QB Bryce Young (Verbal to USC) | AllBuffs | Unofficial fan site ...",
          "thumbnailUrl": "https://tse2.mm.bing.net/th?id=OIP.Sij69T_ACiI0DOJaU82kWQHaFj&pid=Api",
          "datePublished": "2018-11-09T15:00:00.0000000Z",
          "isFamilyFriendly": true,
          "contentUrl": "https://pbs.twimg.com/media/DHxQ9aAV0AA1Nd9.jpg",
          "hostPageUrl": "https://www.allbuffs.com/threads/20-ca-qb-bryce-young.127173/",
          "contentSize": "58129 B",
          "encodingFormat": "jpeg",
          "hostPageDisplayUrl": "https://www.allbuffs.com/threads/20-ca-qb-bryce-young.127173",
          "width": 660,
          "height": 495,
          "hostPageDiscoveredDate": "2018-11-09T15:00:00.0000000Z",
          "thumbnail": {
             "width": 474,
             "height": 355
          },
          "imageInsightsToken": "ccid_Sij69T/A*cp_9EFF8BF9889269982B5193576F7747A2*mid_899CB4D53DA6952D8882CC52641AAA93C65C1943*simid_608056288861427615*thid_OIP.Sij69T!_ACiI0DOJaU82kWQHaFj",
          "insightsMetadata": {
             "recipeSourcesCount": 0,
             "pagesIncludingCount": 3,
             "availableSizesCount": 1
          },
          "imageId": "899CB4D53DA6952D8882CC52641AAA93C65C1943",
          "accentColor": "2457A7"
       },
       {
          "webSearchUrl": "https://www.bing.com/images/search?view=detailv2&FORM=OIIRPO&q=Bryce+Young+ESPN&id=21FE754917D2842EB3119CEB33E204516C81D7BF&simid=608011771523330172",
          "name": "Bryce Young's clutch run leads to Alabama's winning field goal - ESPN Video",
          "thumbnailUrl": "https://tse2.mm.bing.net/th?id=OIP.tZz5FSTNSw5oK-Fz9ZJJJQHaEK&pid=Api",
          "datePublished": "2022-09-10T20:12:00.0000000Z",
          "isFamilyFriendly": true,
          "contentUrl": "https://a3.espncdn.com/combiner/i?img=%2Fmedia%2Fmotion%2F2022%2F0910%2Fdm_220910_ncf_bama972%2Fdm_220910_ncf_bama972.jpg",
          "hostPageUrl": "https://www.espn.com.au/video/clip/_/id/34562969",
          "contentSize": "180497 B",
          "encodingFormat": "jpeg",
          "hostPageDisplayUrl": "https://www.espn.com.au/video/clip/_/id/34562969",
          "width": 1920,
          "height": 1080,
          "hostPageDiscoveredDate": "2022-09-10T20:12:00.0000000Z",
          "thumbnail": {
             "width": 474,
             "height": 266
          },
          "imageInsightsToken": "ccid_tZz5FSTN*cp_C47799DBA9BE63011A6F1F6CA68AFFA5*mid_21FE754917D2842EB3119CEB33E204516C81D7BF*simid_608011771523330172*thid_OIP.tZz5FSTNSw5oK-Fz9ZJJJQHaEK",
          "insightsMetadata": {
             "pagesIncludingCount": 1,
             "availableSizesCount": 1
          },
          "imageId": "21FE754917D2842EB3119CEB33E204516C81D7BF",
          "accentColor": "6D4039"
       },
       {
          "webSearchUrl": "https://www.bing.com/images/search?view=detailv2&FORM=OIIRPO&q=Bryce+Young+ESPN&id=8FB492E963D7DA15BBEE00638873F90F2A951066&simid=608024248413346079",
          "name": "Alabama QB commit, Bryce Young, to play on ESPN - Touchdown Alabama ...",
          "thumbnailUrl": "https://tse1.mm.bing.net/th?id=OIP.wCTbQap6ECxlTukHecsjaQHaEc&pid=Api",
          "datePublished": "2019-09-25T20:20:00.0000000Z",
          "isFamilyFriendly": true,
          "contentUrl": "https://tdalabamamag.com/wp-content/uploads/2019/09/by.jpg",
          "hostPageUrl": "https://tdalabamamag.com/2019/09/25/alabama-qb-commit-bryce-young-to-play-on-espn/",
          "contentSize": "123394 B",
          "encodingFormat": "jpeg",
          "hostPageDisplayUrl": "https://tdalabamamag.com/2019/09/25/alabama-qb-commit-bryce-young-to-play-on-espn",
          "width": 1000,
          "height": 600,
          "hostPageDiscoveredDate": "2019-09-25T20:20:00.0000000Z",
          "thumbnail": {
             "width": 474,
             "height": 284
          },
          "imageInsightsToken": "ccid_wCTbQap6*cp_562D9641C33B864972BBC998C1510C87*mid_8FB492E963D7DA15BBEE00638873F90F2A951066*simid_608024248413346079*thid_OIP.wCTbQap6ECxlTukHecsjaQHaEc",
          "insightsMetadata": {
             "recipeSourcesCount": 0,
             "pagesIncludingCount": 3,
             "availableSizesCount": 2
          },
          "imageId": "8FB492E963D7DA15BBEE00638873F90F2A951066",
          "accentColor": "63402E"
       },
       {
          "webSearchUrl": "https://www.bing.com/images/search?view=detailv2&FORM=OIIRPO&q=Bryce+Young+ESPN&id=8DC0CEF3EA468D445B2F44D248CC29610DEB3F01&simid=608053303865340669",
          "name": "Details of Bryce Young's lucrative NIL deals released",
          "thumbnailUrl": "https://tse4.mm.bing.net/th?id=OIP.gpvuOA0p519lpWRgpVo5vQHaD4&pid=Api",
          "datePublished": "2021-08-31T14:53:00.0000000Z",
          "isFamilyFriendly": true,
          "contentUrl": "https://www.saturdaydownsouth.com/wp-content/uploads/2020/12/USATSI_15109338-1200x628.jpg",
          "hostPageUrl": "https://www.saturdaydownsouth.com/alabama-football/bryce-young-nil-deals-alabama-crimson-tide-800000-million/",
          "contentSize": "84668 B",
          "encodingFormat": "jpeg",
          "hostPageDisplayUrl": "https://www.saturdaydownsouth.com/alabama-football/bryce-young-nil-deals-alabama...",
          "width": 1200,
          "height": 628,
          "hostPageDiscoveredDate": "2021-08-05T00:00:00.0000000Z",
          "thumbnail": {
             "width": 474,
             "height": 248
          },
          "imageInsightsToken": "ccid_gpvuOA0p*cp_2DD487556C07663DF2EA4301F0BF69EF*mid_8DC0CEF3EA468D445B2F44D248CC29610DEB3F01*simid_608053303865340669*thid_OIP.gpvuOA0p519lpWRgpVo5vQHaD4",
          "insightsMetadata": {
             "pagesIncludingCount": 56,
             "availableSizesCount": 21
          },
          "imageId": "8DC0CEF3EA468D445B2F44D248CC29610DEB3F01",
          "accentColor": "9B5F30"
       },
       {
          "webSearchUrl": "https://www.bing.com/images/search?view=detailv2&FORM=OIIRPO&q=Bryce+Young+ESPN&id=FB3EDF21C9C39CA8FD3E58A028EFE00EB5C90E0E&simid=608030918505015177",
          "name": "Heisman 2021 - Making the cases for and against C.J. Stroud, Bryce ...",
          "thumbnailUrl": "https://tse2.mm.bing.net/th?id=OIP.wHoqohHpSda0uUDVDSAD1AHaEK&pid=Api",
          "datePublished": "2021-12-14T06:08:00.0000000Z",
          "isFamilyFriendly": true,
          "contentUrl": "https://24ssports.com/wp-content/uploads/2021/11/1637612108_r940125_1296x729_16-9.jpg",
          "hostPageUrl": "https://24ssports.com/heisman-2021-making-the-cases-for-and-against-c-j-stroud-bryce-young-and-other-contenders/",
          "contentSize": "144319 B",
          "encodingFormat": "jpeg",
          "hostPageDisplayUrl": "https://24ssports.com/heisman-2021-making-the-cases-for-and-against-c-j-stroud-bryce...",
          "width": 1296,
          "height": 729,
          "hostPageDiscoveredDate": "2021-12-07T00:00:00.0000000Z",
          "thumbnail": {
             "width": 474,
             "height": 266
          },
          "imageInsightsToken": "ccid_wHoqohHp*cp_698E86A56D3A0FBAD326FAA82300106E*mid_FB3EDF21C9C39CA8FD3E58A028EFE00EB5C90E0E*simid_608030918505015177*thid_OIP.wHoqohHpSda0uUDVDSAD1AHaEK",
          "insightsMetadata": {
             "pagesIncludingCount": 26,
             "availableSizesCount": 1
          },
          "imageId": "FB3EDF21C9C39CA8FD3E58A028EFE00EB5C90E0E",
          "accentColor": "AC1F23"
       },
       {
          "webSearchUrl": "https://www.bing.com/images/search?view=detailv2&FORM=OIIRPO&q=Bryce+Young+ESPN&id=E6267D0C3E0F56E72EBDFF7E6C6A87C2F1E332F8&simid=112562316007",
          "name": "Alabama QB Bryce Young exits with apparent shoulder injury – ESPN 690",
          "thumbnailUrl": "https://tse2.mm.bing.net/th?id=OIF.lrv5n9hKhICSdMUz0Cs%2fIQ&pid=Api",
          "datePublished": "2022-10-01T21:42:00.0000000Z",
          "isFamilyFriendly": true,
          "contentUrl": "https://www.espn690.com/resizer/CMoJigwGmzERtBKHiXbn8GKDAqY=/1600x0/filters:format(jpg):quality(70)/cloudfront-us-east-1.images.arcpublishing.com/cmg/W643AX4AIL774KMO6Y4HXYFM6M.jpg",
          "hostPageUrl": "https://www.espn690.com/sports/alabama-qb-bryce/4N6FUEYU2FIKCVYK3XG4WIEQZE/",
          "contentSize": "189491 B",
          "encodingFormat": "jpeg",
          "hostPageDisplayUrl": "https://www.espn690.com/sports/alabama-qb-bryce/4N6FUEYU2FIKCVYK3XG4WIEQZE",
          "width": 1600,
          "height": 1067,
          "thumbnail": {
             "width": 300,
             "height": 300
          },
          "imageInsightsToken": "ccid_IMnA9W4n*cp_96BBF99FD84A84809274C533D02B3F21*mid_E6267D0C3E0F56E72EBDFF7E6C6A87C2F1E332F8*simid_112562316007*thid_OIF.lrv5n9hKhICSdMUz0Cs/IQ",
          "insightsMetadata": {
             "pagesIncludingCount": 1,
             "availableSizesCount": 1
          },
          "imageId": "E6267D0C3E0F56E72EBDFF7E6C6A87C2F1E332F8",
          "accentColor": "758A41",
          "isFresh": true
       },
       {
          "webSearchUrl": "https://www.bing.com/images/search?view=detailv2&FORM=OIIRPO&q=Bryce+Young+ESPN&id=463E6DB05C1DB089D7A1E60D10251296295B167E&simid=608017483836500008",
          "name": "Bryce Young's clutch run leads to Alabama's winning field goal - ESPN Video",
          "thumbnailUrl": "https://tse2.mm.bing.net/th?id=OIP.VJu2fH25P23qz8d8k4ZW3wHaEK&pid=Api",
          "datePublished": "2022-09-10T19:46:00.0000000Z",
          "isFamilyFriendly": true,
          "contentUrl": "https://a4.espncdn.com/combiner/i?img=%2Fmedia%2Fmotion%2F2022%2F0910%2Fdm_220910_ncf_bama%2Fdm_220910_ncf_bama.jpg",
          "hostPageUrl": "https://africa.espn.com/video/clip/_/id/34562969",
          "contentSize": "74699 B",
          "encodingFormat": "jpeg",
          "hostPageDisplayUrl": "https://africa.espn.com/video/clip/_/id/34562969",
          "width": 1043,
          "height": 587,
          "hostPageDiscoveredDate": "2022-09-10T19:46:00.0000000Z",
          "thumbnail": {
             "width": 474,
             "height": 266
          },
          "imageInsightsToken": "ccid_VJu2fH25*cp_E5CA99367DF9AAE1C49DBEB690D9F496*mid_463E6DB05C1DB089D7A1E60D10251296295B167E*simid_608017483836500008*thid_OIP.VJu2fH25P23qz8d8k4ZW3wHaEK",
          "insightsMetadata": {
             "pagesIncludingCount": 1,
             "availableSizesCount": 1
          },
          "imageId": "463E6DB05C1DB089D7A1E60D10251296295B167E",
          "accentColor": "6E293D"
       },
       {
          "webSearchUrl": "https://www.bing.com/images/search?view=detailv2&FORM=OIIRPO&q=Bryce+Young+ESPN&id=B1D0718DA612B8859B9FFD1455BB7B0B47BEA307&simid=250002714326",
          "name": "Bryce Young slams helmet on way to medical tent - ESPN Video",
          "thumbnailUrl": "https://tse3.mm.bing.net/th?id=OIF.oMJDJ4giFrNvP2p2Qe%2fttg&pid=Api",
          "datePublished": "2022-10-01T21:03:00.0000000Z",
          "isFamilyFriendly": true,
          "contentUrl": "https://a.espncdn.com/combiner/i?img=%2Fmedia%2Fmotion%2F2022%2F1001%2Fdm_221001_Bryce_Young_Injury%2Fdm_221001_Bryce_Young_Injury.jpg",
          "hostPageUrl": "https://www.espn.com/video/clip/_/id/34703918",
          "contentSize": "122672 B",
          "encodingFormat": "jpeg",
          "hostPageDisplayUrl": "https://www.espn.com/video/clip/_/id/34703918",
          "width": 1296,
          "height": 728,
          "thumbnail": {
             "width": 300,
             "height": 300
          },
          "imageInsightsToken": "ccid_s83pC22c*cp_A0C24327882216B36F3F6A7641EFEDB6*mid_B1D0718DA612B8859B9FFD1455BB7B0B47BEA307*simid_250002714326*thid_OIF.oMJDJ4giFrNvP2p2Qe/ttg",
          "insightsMetadata": {
             "pagesIncludingCount": 1,
             "availableSizesCount": 1
          },
          "imageId": "B1D0718DA612B8859B9FFD1455BB7B0B47BEA307",
          "accentColor": "943741",
          "isFresh": true
       },
       {
          "webSearchUrl": "https://www.bing.com/images/search?view=detailv2&FORM=OIIRPO&q=Bryce+Young+ESPN&id=AD28E85CC48D35E29A56C0CFA94277E861B93EE2&simid=608026297102268763",
          "name": "Paul Finebaum says Bryce Young is a front-runner for the Heisman Trophy ...",
          "thumbnailUrl": "https://tse2.mm.bing.net/th?id=OIP.Fd2F_YkiRs2JutyyamfReAHaFj&pid=Api",
          "datePublished": "2021-12-14T07:05:00.0000000Z",
          "isFamilyFriendly": true,
          "contentUrl": "http://watchfootballfree.com/wp-content/uploads/2021/09/Paul-Finebaum-says-Bryce-Young-is-a-front-runner-for-the.jpg",
          "hostPageUrl": "http://watchfootballfree.com/2021/09/05/paul-finebaum-says-bryce-young-is-a-front-runner-for-the-heisman-trophy-after-debut-vs-miami-sc/",
          "contentSize": "29347 B",
          "encodingFormat": "jpeg",
          "hostPageDisplayUrl": "watchfootballfree.com/2021/09/05/paul-finebaum-says-bryce-young-is-a-front-runner-for...",
          "width": 480,
          "height": 360,
          "hostPageDiscoveredDate": "2021-09-30T00:00:00.0000000Z",
          "thumbnail": {
             "width": 474,
             "height": 355
          },
          "imageInsightsToken": "ccid_Fd2F/Yki*cp_274B061F80FED64EBBA032D0518C35B0*mid_AD28E85CC48D35E29A56C0CFA94277E861B93EE2*simid_608026297102268763*thid_OIP.Fd2F!_YkiRs2JutyyamfReAHaFj",
          "insightsMetadata": {
             "pagesIncludingCount": 1,
             "availableSizesCount": 1
          },
          "imageId": "AD28E85CC48D35E29A56C0CFA94277E861B93EE2",
          "accentColor": "B01E11"
       },
       {
          "webSearchUrl": "https://www.bing.com/images/search?view=detailv2&FORM=OIIRPO&q=Bryce+Young+ESPN&id=7873A2949230A1EEC8890B4932BC75E130595424&simid=608053467073311435",
          "name": "Bryce Young's dad says Alabama OC Bill O'Brien 'is that dude!'",
          "thumbnailUrl": "https://tse1.mm.bing.net/th?id=OIP._FJNA6R0vpeUGWm18E9yKgHaEc&pid=Api",
          "datePublished": "2021-04-22T12:00:00.0000000Z",
          "isFamilyFriendly": true,
          "contentUrl": "https://tdalabamamag.com/wp-content/uploads/2021/03/031921_MFB_OBrienBi_SprPractice1_KG8363-e1619142056502.jpg",
          "hostPageUrl": "https://tdalabamamag.com/2021/04/22/bryce-young-dad-bill-o-brien-alabama/",
          "contentSize": "112241 B",
          "encodingFormat": "jpeg",
          "hostPageDisplayUrl": "https://tdalabamamag.com/2021/04/22/bryce-young-dad-bill-o-brien-alabama",
          "width": 1000,
          "height": 600,
          "hostPageDiscoveredDate": "2021-04-22T12:00:00.0000000Z",
          "thumbnail": {
             "width": 474,
             "height": 284
          },
          "imageInsightsToken": "ccid_/FJNA6R0*cp_8FD63768763B45B8A96B2C4087DBEA62*mid_7873A2949230A1EEC8890B4932BC75E130595424*simid_608053467073311435*thid_OIP.!_FJNA6R0vpeUGWm18E9yKgHaEc",
          "insightsMetadata": {
             "pagesIncludingCount": 5,
             "availableSizesCount": 2
          },
          "imageId": "7873A2949230A1EEC8890B4932BC75E130595424",
          "accentColor": "723831"
       },
       {
          "webSearchUrl": "https://www.bing.com/images/search?view=detailv2&FORM=OIIRPO&q=Bryce+Young+ESPN&id=00AE402FC3FB68939E8B14AF86BAD3EE8F3A67F5&simid=608052693981014620",
          "name": "Nick Saban provides update on freshman QB Bryce Young - al.com",
          "thumbnailUrl": "https://tse1.mm.bing.net/th?id=OIP.8B_nGd2yrAhbPVRutmapwQHaEw&pid=Api",
          "datePublished": "2020-08-30T18:38:00.0000000Z",
          "isFamilyFriendly": true,
          "contentUrl": "https://www.al.com/resizer/msyL_7ymPKX7JnFlehMxlDgK2t4=/1280x0/smart/cloudfront-us-east-1.images.arcpublishing.com/advancelocal/QEDCVUYYYNHIVDGRJRKAF2TKD4.jpg",
          "hostPageUrl": "https://www.al.com/alabamafootball/2020/08/nick-saban-provides-update-on-freshman-qb-bryce-young.html",
          "contentSize": "152675 B",
          "encodingFormat": "jpeg",
          "hostPageDisplayUrl": "https://www.al.com/alabamafootball/2020/08/nick-saban-provides-update-on-freshman-qb...",
          "width": 1280,
          "height": 821,
          "hostPageFavIconUrl": "https://www.bing.com/th?id=ODF.a72b2bGcawiU7lhhGMK4lw&pid=Api",
          "hostPageDomainFriendlyName": "al.com",
          "hostPageDiscoveredDate": "2020-08-30T18:38:00.0000000Z",
          "thumbnail": {
             "width": 474,
             "height": 304
          },
          "imageInsightsToken": "ccid_8B/nGd2y*cp_43CBDF68C7B1247BF24927FB9C88DB8B*mid_00AE402FC3FB68939E8B14AF86BAD3EE8F3A67F5*simid_608052693981014620*thid_OIP.8B!_nGd2yrAhbPVRutmapwQHaEw",
          "insightsMetadata": {
             "pagesIncludingCount": 1,
             "availableSizesCount": 2
          },
          "imageId": "00AE402FC3FB68939E8B14AF86BAD3EE8F3A67F5",
          "accentColor": "A52639"
       },
       {
          "webSearchUrl": "https://www.bing.com/images/search?view=detailv2&FORM=OIIRPO&q=Bryce+Young+ESPN&id=CE999DC92481EC30998E3478DF312775C029BA7E&simid=608019090148429314",
          "name": "Paul Finebaum is not sold on Alabama QB Bryce Young | The Paul Finebaum ...",
          "thumbnailUrl": "https://tse2.mm.bing.net/th?id=OIP.JER0ZlgA8eU7ucHVDzhG0AHaEK&pid=Api",
          "datePublished": "2021-07-21T03:39:00.0000000Z",
          "isFamilyFriendly": true,
          "contentUrl": "https://theglobalherald.com/wp-content/uploads/2021/06/XFUvUY1l6vs-768x432.jpg",
          "hostPageUrl": "https://theglobalherald.com/sport/american-football/paul-finebaum-is-not-sold-on-alabama-qb-bryce-young-the-paul-finebaum-show/",
          "contentSize": "51448 B",
          "encodingFormat": "jpeg",
          "hostPageDisplayUrl": "https://theglobalherald.com/sport/american-football/paul-finebaum-is-not-sold-on...",
          "width": 768,
          "height": 432,
          "hostPageDiscoveredDate": "2021-07-01T00:00:00.0000000Z",
          "thumbnail": {
             "width": 474,
             "height": 266
          },
          "imageInsightsToken": "ccid_JER0ZlgA*cp_49E229537F05908302FA0716C97D968E*mid_CE999DC92481EC30998E3478DF312775C029BA7E*simid_608019090148429314*thid_OIP.JER0ZlgA8eU7ucHVDzhG0AHaEK",
          "insightsMetadata": {
             "recipeSourcesCount": 0,
             "pagesIncludingCount": 1,
             "availableSizesCount": 2
          },
          "imageId": "CE999DC92481EC30998E3478DF312775C029BA7E",
          "accentColor": "057CC6"
       },
       {
          "webSearchUrl": "https://www.bing.com/images/search?view=detailv2&FORM=OIIRPO&q=Bryce+Young+ESPN&id=42A67046D6B0F55C01706D3F01AB0B83C102D501&simid=608028710878128129",
          "name": "Bryce Young throws deep downfield but is picked off - ESPN Video",
          "thumbnailUrl": "https://tse1.mm.bing.net/th?id=OIP.EKwGppwMScc4OjxyDln8OAHaEK&pid=Api",
          "datePublished": "2022-09-17T20:59:00.0000000Z",
          "isFamilyFriendly": true,
          "contentUrl": "https://a.espncdn.com/combiner/i?img=%2Fmedia%2Fmotion%2F2022%2F0917%2Fss_20220917_162203962_2048528%2Fss_20220917_162203962_2048528.jpg",
          "hostPageUrl": "https://www.espn.com/video/clip/_/id/34610815",
          "contentSize": "76140 B",
          "encodingFormat": "jpeg",
          "hostPageDisplayUrl": "https://www.espn.com/video/clip/_/id/34610815",
          "width": 1280,
          "height": 720,
          "hostPageDiscoveredDate": "2022-09-17T20:59:00.0000000Z",
          "thumbnail": {
             "width": 474,
             "height": 266
          },
          "imageInsightsToken": "ccid_EKwGppwM*cp_416EA685C976A348B9EA5A1F5D45853F*mid_42A67046D6B0F55C01706D3F01AB0B83C102D501*simid_608028710878128129*thid_OIP.EKwGppwMScc4OjxyDln8OAHaEK",
          "insightsMetadata": {
             "pagesIncludingCount": 1,
             "availableSizesCount": 1
          },
          "imageId": "42A67046D6B0F55C01706D3F01AB0B83C102D501",
          "accentColor": "793C32"
       },
       {
          "webSearchUrl": "https://www.bing.com/images/search?view=detailv2&FORM=OIIRPO&q=Bryce+Young+ESPN&id=F7D69681D27910BFA96832EA43123D98DB390750&simid=608026529026413592",
          "name": "The Manning camp, the Heisman House and Alabama QB Bryce Young's star ...",
          "thumbnailUrl": "https://tse1.mm.bing.net/th?id=OIP.pw7tPeo7ecb_O09YpNwCqAHaEK&pid=Api",
          "datePublished": "2022-09-07T11:57:00.0000000Z",
          "isFamilyFriendly": true,
          "contentUrl": "https://a4.espncdn.com/combiner/i?img=/photo/2022/0906/ncf_bryce-young-offseason_16x9.jpg",
          "hostPageUrl": "https://www.espn.ph/college-football/story/_/id/34524555/the-manning-camp-heisman-house-alabama-qb-bryce-young-star-filled-nil-fueled-offseason",
          "contentSize": "233851 B",
          "encodingFormat": "jpeg",
          "hostPageDisplayUrl": "https://www.espn.ph/college-football/story/_/id/34524555/the-manning-camp-heisman-house...",
          "width": 1296,
          "height": 729,
          "hostPageDiscoveredDate": "2022-09-07T11:57:00.0000000Z",
          "thumbnail": {
             "width": 474,
             "height": 266
          },
          "imageInsightsToken": "ccid_pw7tPeo7*cp_874E2AEC3AC9AA600082167726682A99*mid_F7D69681D27910BFA96832EA43123D98DB390750*simid_608026529026413592*thid_OIP.pw7tPeo7ecb!_O09YpNwCqAHaEK",
          "insightsMetadata": {
             "pagesIncludingCount": 1,
             "availableSizesCount": 1
          },
          "imageId": "F7D69681D27910BFA96832EA43123D98DB390750",
          "accentColor": "9E2F2D"
       },
       {
          "webSearchUrl": "https://www.bing.com/images/search?view=detailv2&FORM=OIIRPO&q=Bryce+Young+ESPN&id=5136A14E2C5A92D2730314CD1B3B7E589D3DE974&simid=608012046410666343",
          "name": "Pin on bryce young",
          "thumbnailUrl": "https://tse3.mm.bing.net/th?id=OIP.UnVerpXZvtpZTu4iGozdNAHaG3&pid=Api",
          "datePublished": "2021-06-05T20:33:00.0000000Z",
          "isFamilyFriendly": true,
          "contentUrl": "https://i.pinimg.com/originals/c1/48/19/c148195bf33cc63ab89e2b102520f195.jpg",
          "hostPageUrl": "https://www.pinterest.com/pin/778348748102148823/",
          "contentSize": "100115 B",
          "encodingFormat": "jpeg",
          "hostPageDisplayUrl": "https://www.pinterest.com/pin/778348748102148823",
          "width": 828,
          "height": 768,
          "hostPageDiscoveredDate": "2021-05-29T00:00:00.0000000Z",
          "thumbnail": {
             "width": 474,
             "height": 439
          },
          "imageInsightsToken": "ccid_UnVerpXZ*cp_C67B01245892922254E3DF0C4C07DF40*mid_5136A14E2C5A92D2730314CD1B3B7E589D3DE974*simid_608012046410666343*thid_OIP.UnVerpXZvtpZTu4iGozdNAHaG3",
          "insightsMetadata": {
             "pagesIncludingCount": 1,
             "availableSizesCount": 1
          },
          "imageId": "5136A14E2C5A92D2730314CD1B3B7E589D3DE974",
          "accentColor": "AB2023"
       },
       {
          "webSearchUrl": "https://www.bing.com/images/search?view=detailv2&FORM=OIIRPO&q=Bryce+Young+ESPN&id=442EDE937C0523B219CAC4DD471EB3C9426E159F&simid=608013781573325566",
          "name": "Bryce Harper with strong hate towards BYU on College Gameday",
          "thumbnailUrl": "https://tse4.mm.bing.net/th?id=OIP.DoIOxSQkShoRS3R-2_XABQHaD0&pid=Api",
          "datePublished": "2021-04-18T14:49:00.0000000Z",
          "isFamilyFriendly": true,
          "contentUrl": "https://s3media.247sports.com/Uploads/Assets/25/839/8839025.jpg?fit=bounds&crop=620:320",
          "hostPageUrl": "https://247sports.com/college/byu/Article/ESPN-College-Gameday-BYU-vs-Utah-Picks-Bryce-Harper-125209540/",
          "contentSize": "75656 B",
          "encodingFormat": "jpeg",
          "hostPageDisplayUrl": "https://247sports.com/college/byu/Article/ESPN-College-Gameday-BYU-vs-Utah-Picks-Bryce...",
          "width": 1000,
          "height": 516,
          "hostPageFavIconUrl": "https://www.bing.com/th?id=ODF.WptknRtl6HTwJQ2VYLyMtw&pid=Api",
          "hostPageDomainFriendlyName": "247Sports",
          "hostPageDiscoveredDate": "2018-11-24T00:00:00.0000000Z",
          "thumbnail": {
             "width": 474,
             "height": 244
          },
          "imageInsightsToken": "ccid_DoIOxSQk*cp_02955D599693D5CD51B43C85214BEB1F*mid_442EDE937C0523B219CAC4DD471EB3C9426E159F*simid_608013781573325566*thid_OIP.DoIOxSQkShoRS3R-2!_XABQHaD0",
          "insightsMetadata": {
             "recipeSourcesCount": 0,
             "pagesIncludingCount": 1,
             "availableSizesCount": 1
          },
          "imageId": "442EDE937C0523B219CAC4DD471EB3C9426E159F",
          "accentColor": "B0201B"
       },
       {
          "webSearchUrl": "https://www.bing.com/images/search?view=detailv2&FORM=OIIRPO&q=Bryce+Young+ESPN&id=9B472DBEB1E87BFCBEED80EE5F6342B4E3B09A7D&simid=607986040382310455",
          "name": "Bryce Young rushes in for 7-yard touchdown - ESPN Video",
          "thumbnailUrl": "https://tse4.mm.bing.net/th?id=OIP.ibT-pMyPDTyizfoVsdpYFwHaEK&pid=Api",
          "datePublished": "2022-09-17T20:54:00.0000000Z",
          "isFamilyFriendly": true,
          "contentUrl": "https://a3.espncdn.com/combiner/i?img=%2Fmedia%2Fmotion%2F2022%2F0917%2Fss_20220917_163810021_2048576%2Fss_20220917_163810021_2048576.jpg",
          "hostPageUrl": "https://www.espn.com/video/clip/_/id/34610910",
          "contentSize": "121328 B",
          "encodingFormat": "jpeg",
          "hostPageDisplayUrl": "https://www.espn.com/video/clip/_/id/34610910",
          "width": 1280,
          "height": 720,
          "hostPageDiscoveredDate": "2022-09-17T20:54:00.0000000Z",
          "thumbnail": {
             "width": 474,
             "height": 266
          },
          "imageInsightsToken": "ccid_ibT+pMyP*cp_55014C1D63E018EF6EDFB067EAC689D5*mid_9B472DBEB1E87BFCBEED80EE5F6342B4E3B09A7D*simid_607986040382310455*thid_OIP.ibT-pMyPDTyizfoVsdpYFwHaEK",
          "insightsMetadata": {
             "pagesIncludingCount": 1,
             "availableSizesCount": 1
          },
          "imageId": "9B472DBEB1E87BFCBEED80EE5F6342B4E3B09A7D",
          "accentColor": "1954B2"
       }
    ],
    "pivotSuggestions": [
       {
          "pivot": "Bryce",
          "suggestions": []
       },
       {
          "pivot": "Young",
          "suggestions": []
       },
       {
          "pivot": "ESPN",
          "suggestions": []
       }
    ],
    "relatedSearches": [
       {
          "text": "Bryce Young Quarterback",
          "displayText": "Bryce Young Quarterback",
          "webSearchUrl": "https://www.bing.com/images/search?q=Bryce+Young+Quarterback&FORM=IRPATC",
          "searchLink": "https://api.bing.microsoft.com/api/v7/images/search?q=Bryce+Young+Quarterback",
          "thumbnail": {
             "thumbnailUrl": "https://tse3.mm.bing.net/th?q=Bryce+Young+Quarterback&pid=Api&mkt=en-US&cc=US&setlang=en&adlt=moderate&t=1"
          }
       },
       {
          "text": "Bryce Young Parents",
          "displayText": "Bryce Young Parents",
          "webSearchUrl": "https://www.bing.com/images/search?q=Bryce+Young+Parents&FORM=IRPATC",
          "searchLink": "https://api.bing.microsoft.com/api/v7/images/search?q=Bryce+Young+Parents",
          "thumbnail": {
             "thumbnailUrl": "https://tse1.mm.bing.net/th?q=Bryce+Young+Parents&pid=Api&mkt=en-US&cc=US&setlang=en&adlt=moderate&t=1"
          }
       },
       {
          "text": "Nick Saban Alabama",
          "displayText": "Nick Saban Alabama",
          "webSearchUrl": "https://www.bing.com/images/search?q=Nick+Saban+Alabama&FORM=IRPATC",
          "searchLink": "https://api.bing.microsoft.com/api/v7/images/search?q=Nick+Saban+Alabama",
          "thumbnail": {
             "thumbnailUrl": "https://tse2.mm.bing.net/th?q=Nick+Saban+Alabama&pid=Api&mkt=en-US&cc=US&setlang=en&adlt=moderate&t=1"
          }
       },
       {
          "text": "Bryce Young Alabama",
          "displayText": "Bryce Young Alabama",
          "webSearchUrl": "https://www.bing.com/images/search?q=Bryce+Young+Alabama&FORM=IRPATC",
          "searchLink": "https://api.bing.microsoft.com/api/v7/images/search?q=Bryce+Young+Alabama",
          "thumbnail": {
             "thumbnailUrl": "https://tse3.mm.bing.net/th?q=Bryce+Young+Alabama&pid=Api&mkt=en-US&cc=US&setlang=en&adlt=moderate&t=1"
          }
       },
       {
          "text": "CJ Stroud",
          "displayText": "CJ Stroud",
          "webSearchUrl": "https://www.bing.com/images/search?q=CJ+Stroud&FORM=IRPATC",
          "searchLink": "https://api.bing.microsoft.com/api/v7/images/search?q=CJ+Stroud",
          "thumbnail": {
             "thumbnailUrl": "https://tse1.mm.bing.net/th?q=CJ+Stroud&pid=Api&mkt=en-US&cc=US&setlang=en&adlt=moderate&t=1"
          }
       },
       {
          "text": "Bryce Young Surfing",
          "displayText": "Bryce Young Surfing",
          "webSearchUrl": "https://www.bing.com/images/search?q=Bryce+Young+Surfing&FORM=IRPATC",
          "searchLink": "https://api.bing.microsoft.com/api/v7/images/search?q=Bryce+Young+Surfing",
          "thumbnail": {
             "thumbnailUrl": "https://tse4.mm.bing.net/th?q=Bryce+Young+Surfing&pid=Api&mkt=en-US&cc=US&setlang=en&adlt=moderate&t=1"
          }
       },
       {
          "text": "Russell Westbrook",
          "displayText": "Russell Westbrook",
          "webSearchUrl": "https://www.bing.com/images/search?q=Russell+Westbrook&FORM=IRPATC",
          "searchLink": "https://api.bing.microsoft.com/api/v7/images/search?q=Russell+Westbrook",
          "thumbnail": {
             "thumbnailUrl": "https://tse3.mm.bing.net/th?q=Russell+Westbrook&pid=Api&mkt=en-US&cc=US&setlang=en&adlt=moderate&t=1"
          }
       },
       {
          "text": "Bryce Harper",
          "displayText": "Bryce Harper",
          "webSearchUrl": "https://www.bing.com/images/search?q=Bryce+Harper&FORM=IRPATC",
          "searchLink": "https://api.bing.microsoft.com/api/v7/images/search?q=Bryce+Harper",
          "thumbnail": {
             "thumbnailUrl": "https://tse4.mm.bing.net/th?q=Bryce+Harper&pid=Api&mkt=en-US&cc=US&setlang=en&adlt=moderate&t=1"
          }
       },
       {
          "text": "Bryce Young Mother",
          "displayText": "Bryce Young Mother",
          "webSearchUrl": "https://www.bing.com/images/search?q=Bryce+Young+Mother&FORM=IRPATC",
          "searchLink": "https://api.bing.microsoft.com/api/v7/images/search?q=Bryce+Young+Mother",
          "thumbnail": {
             "thumbnailUrl": "https://tse1.mm.bing.net/th?q=Bryce+Young+Mother&pid=Api&mkt=en-US&cc=US&setlang=en&adlt=moderate&t=1"
          }
       },
       {
          "text": "Bryce Canyon National Park",
          "displayText": "Bryce Canyon National Park",
          "webSearchUrl": "https://www.bing.com/images/search?q=Bryce+Canyon+National+Park&FORM=IRPATC",
          "searchLink": "https://api.bing.microsoft.com/api/v7/images/search?q=Bryce+Canyon+National+Park",
          "thumbnail": {
             "thumbnailUrl": "https://tse4.mm.bing.net/th?q=Bryce+Canyon+National+Park&pid=Api&mkt=en-US&cc=US&setlang=en&adlt=moderate&t=1"
          }
       },
       {
          "text": "Scott Bryce Young",
          "displayText": "Scott Bryce Young",
          "webSearchUrl": "https://www.bing.com/images/search?q=Scott+Bryce+Young&FORM=IRPATC",
          "searchLink": "https://api.bing.microsoft.com/api/v7/images/search?q=Scott+Bryce+Young",
          "thumbnail": {
             "thumbnailUrl": "https://tse3.mm.bing.net/th?q=Scott+Bryce+Young&pid=Api&mkt=en-US&cc=US&setlang=en&adlt=moderate&t=1"
          }
       },
       {
          "text": "Bryce Young 247",
          "displayText": "Bryce Young 247",
          "webSearchUrl": "https://www.bing.com/images/search?q=Bryce+Young+247&FORM=IRPATC",
          "searchLink": "https://api.bing.microsoft.com/api/v7/images/search?q=Bryce+Young+247",
          "thumbnail": {
             "thumbnailUrl": "https://tse3.mm.bing.net/th?q=Bryce+Young+247&pid=Api&mkt=en-US&cc=US&setlang=en&adlt=moderate&t=1"
          }
       },
       {
          "text": "Utah Amerika",
          "displayText": "Utah Amerika",
          "webSearchUrl": "https://www.bing.com/images/search?q=Utah+Amerika&FORM=IRPATC",
          "searchLink": "https://api.bing.microsoft.com/api/v7/images/search?q=Utah+Amerika",
          "thumbnail": {
             "thumbnailUrl": "https://tse3.mm.bing.net/th?q=Utah+Amerika&pid=Api&mkt=en-US&cc=US&setlang=en&adlt=moderate&t=1"
          }
       },
       {
          "text": "Bryce Papenbrook Voices",
          "displayText": "Bryce Papenbrook Voices",
          "webSearchUrl": "https://www.bing.com/images/search?q=Bryce+Papenbrook+Voices&FORM=IRPATC",
          "searchLink": "https://api.bing.microsoft.com/api/v7/images/search?q=Bryce+Papenbrook+Voices",
          "thumbnail": {
             "thumbnailUrl": "https://tse2.mm.bing.net/th?q=Bryce+Papenbrook+Voices&pid=Api&mkt=en-US&cc=US&setlang=en&adlt=moderate&t=1"
          }
       },
       {
          "text": "Bryce Young Lacrosse",
          "displayText": "Bryce Young Lacrosse",
          "webSearchUrl": "https://www.bing.com/images/search?q=Bryce+Young+Lacrosse&FORM=IRPATC",
          "searchLink": "https://api.bing.microsoft.com/api/v7/images/search?q=Bryce+Young+Lacrosse",
          "thumbnail": {
             "thumbnailUrl": "https://tse2.mm.bing.net/th?q=Bryce+Young+Lacrosse&pid=Api&mkt=en-US&cc=US&setlang=en&adlt=moderate&t=1"
          }
       },
       {
          "text": "Mater Dei Football",
          "displayText": "Mater Dei Football",
          "webSearchUrl": "https://www.bing.com/images/search?q=Mater+Dei+Football&FORM=IRPATC",
          "searchLink": "https://api.bing.microsoft.com/api/v7/images/search?q=Mater+Dei+Football",
          "thumbnail": {
             "thumbnailUrl": "https://tse3.mm.bing.net/th?q=Mater+Dei+Football&pid=Api&mkt=en-US&cc=US&setlang=en&adlt=moderate&t=1"
          }
       },
       {
          "text": "Alabama Football Quarterback",
          "displayText": "Alabama Football Quarterback",
          "webSearchUrl": "https://www.bing.com/images/search?q=Alabama+Football+Quarterback&FORM=IRPATC",
          "searchLink": "https://api.bing.microsoft.com/api/v7/images/search?q=Alabama+Football+Quarterback",
          "thumbnail": {
             "thumbnailUrl": "https://tse4.mm.bing.net/th?q=Alabama+Football+Quarterback&pid=Api&mkt=en-US&cc=US&setlang=en&adlt=moderate&t=1"
          }
       },
       {
          "text": "Bryce Young CA Parents",
          "displayText": "Bryce Young CA Parents",
          "webSearchUrl": "https://www.bing.com/images/search?q=Bryce+Young+CA+Parents&FORM=IRPATC",
          "searchLink": "https://api.bing.microsoft.com/api/v7/images/search?q=Bryce+Young+CA+Parents",
          "thumbnail": {
             "thumbnailUrl": "https://tse3.mm.bing.net/th?q=Bryce+Young+CA+Parents&pid=Api&mkt=en-US&cc=US&setlang=en&adlt=moderate&t=1"
          }
       },
       {
          "text": "Bryce Young Quarterback 40",
          "displayText": "Bryce Young Quarterback 40",
          "webSearchUrl": "https://www.bing.com/images/search?q=Bryce+Young+Quarterback+40&FORM=IRPATC",
          "searchLink": "https://api.bing.microsoft.com/api/v7/images/search?q=Bryce+Young+Quarterback+40",
          "thumbnail": {
             "thumbnailUrl": "https://tse3.mm.bing.net/th?q=Bryce+Young+Quarterback+40&pid=Api&mkt=en-US&cc=US&setlang=en&adlt=moderate&t=1"
          }
       },
       {
          "text": "Bo Nix",
          "displayText": "Bo Nix",
          "webSearchUrl": "https://www.bing.com/images/search?q=Bo+Nix&FORM=IRPATC",
          "searchLink": "https://api.bing.microsoft.com/api/v7/images/search?q=Bo+Nix",
          "thumbnail": {
             "thumbnailUrl": "https://tse3.mm.bing.net/th?q=Bo+Nix&pid=Api&mkt=en-US&cc=US&setlang=en&adlt=moderate&t=1"
          }
       },
       {
          "text": "Bryce Young Under Game",
          "displayText": "Bryce Young Under Game",
          "webSearchUrl": "https://www.bing.com/images/search?q=Bryce+Young+Under+Game&FORM=IRPATC",
          "searchLink": "https://api.bing.microsoft.com/api/v7/images/search?q=Bryce+Young+Under+Game",
          "thumbnail": {
             "thumbnailUrl": "https://tse4.mm.bing.net/th?q=Bryce+Young+Under+Game&pid=Api&mkt=en-US&cc=US&setlang=en&adlt=moderate&t=1"
          }
       },
       {
          "text": "Bryce Young Height",
          "displayText": "Bryce Young Height",
          "webSearchUrl": "https://www.bing.com/images/search?q=Bryce+Young+Height&FORM=IRPATC",
          "searchLink": "https://api.bing.microsoft.com/api/v7/images/search?q=Bryce+Young+Height",
          "thumbnail": {
             "thumbnailUrl": "https://tse1.mm.bing.net/th?q=Bryce+Young+Height&pid=Api&mkt=en-US&cc=US&setlang=en&adlt=moderate&t=1"
          }
       },
       {
          "text": "Bishop Gorman High School Football",
          "displayText": "Bishop Gorman High School Football",
          "webSearchUrl": "https://www.bing.com/images/search?q=Bishop+Gorman+High+School+Football&FORM=IRPATC",
          "searchLink": "https://api.bing.microsoft.com/api/v7/images/search?q=Bishop+Gorman+High+School+Football",
          "thumbnail": {
             "thumbnailUrl": "https://tse3.mm.bing.net/th?q=Bishop+Gorman+High+School+Football&pid=Api&mkt=en-US&cc=US&setlang=en&adlt=moderate&t=1"
          }
       },
       {
          "text": "Bryce Young Farther",
          "displayText": "Bryce Young Farther",
          "webSearchUrl": "https://www.bing.com/images/search?q=Bryce+Young+Farther&FORM=IRPATC",
          "searchLink": "https://api.bing.microsoft.com/api/v7/images/search?q=Bryce+Young+Farther",
          "thumbnail": {
             "thumbnailUrl": "https://tse2.mm.bing.net/th?q=Bryce+Young+Farther&pid=Api&mkt=en-US&cc=US&setlang=en&adlt=moderate&t=1"
          }
       },
       {
          "text": "Bryce Young All American Bowl",
          "displayText": "Bryce Young All American Bowl",
          "webSearchUrl": "https://www.bing.com/images/search?q=Bryce+Young+All+American+Bowl&FORM=IRPATC",
          "searchLink": "https://api.bing.microsoft.com/api/v7/images/search?q=Bryce+Young+All+American+Bowl",
          "thumbnail": {
             "thumbnailUrl": "https://tse1.mm.bing.net/th?q=Bryce+Young+All+American+Bowl&pid=Api&mkt=en-US&cc=US&setlang=en&adlt=moderate&t=1"
          }
       },
       {
          "text": "Bryce Young Senior",
          "displayText": "Bryce Young Senior",
          "webSearchUrl": "https://www.bing.com/images/search?q=Bryce+Young+Senior&FORM=IRPATC",
          "searchLink": "https://api.bing.microsoft.com/api/v7/images/search?q=Bryce+Young+Senior",
          "thumbnail": {
             "thumbnailUrl": "https://tse4.mm.bing.net/th?q=Bryce+Young+Senior&pid=Api&mkt=en-US&cc=US&setlang=en&adlt=moderate&t=1"
          }
       },
       {
          "text": "Bryce Young Highlights",
          "displayText": "Bryce Young Highlights",
          "webSearchUrl": "https://www.bing.com/images/search?q=Bryce+Young+Highlights&FORM=IRPATC",
          "searchLink": "https://api.bing.microsoft.com/api/v7/images/search?q=Bryce+Young+Highlights",
          "thumbnail": {
             "thumbnailUrl": "https://tse3.mm.bing.net/th?q=Bryce+Young+Highlights&pid=Api&mkt=en-US&cc=US&setlang=en&adlt=moderate&t=1"
          }
       },
       {
          "text": "Bryce Young Weight",
          "displayText": "Bryce Young Weight",
          "webSearchUrl": "https://www.bing.com/images/search?q=Bryce+Young+Weight&FORM=IRPATC",
          "searchLink": "https://api.bing.microsoft.com/api/v7/images/search?q=Bryce+Young+Weight",
          "thumbnail": {
             "thumbnailUrl": "https://tse2.mm.bing.net/th?q=Bryce+Young+Weight&pid=Api&mkt=en-US&cc=US&setlang=en&adlt=moderate&t=1"
          }
       },
       {
          "text": "Bryce Young Before and After",
          "displayText": "Bryce Young Before and After",
          "webSearchUrl": "https://www.bing.com/images/search?q=Bryce+Young+Before+and+After&FORM=IRPATC",
          "searchLink": "https://api.bing.microsoft.com/api/v7/images/search?q=Bryce+Young+Before+and+After",
          "thumbnail": {
             "thumbnailUrl": "https://tse4.mm.bing.net/th?q=Bryce+Young+Before+and+After&pid=Api&mkt=en-US&cc=US&setlang=en&adlt=moderate&t=1"
          }
       },
       {
          "text": "Bryce Young USC",
          "displayText": "Bryce Young USC",
          "webSearchUrl": "https://www.bing.com/images/search?q=Bryce+Young+USC&FORM=IRPATC",
          "searchLink": "https://api.bing.microsoft.com/api/v7/images/search?q=Bryce+Young+USC",
          "thumbnail": {
             "thumbnailUrl": "https://tse1.mm.bing.net/th?q=Bryce+Young+USC&pid=Api&mkt=en-US&cc=US&setlang=en&adlt=moderate&t=1"
          }
       },
       {
          "text": "Bryce Young and DJ",
          "displayText": "Bryce Young and DJ",
          "webSearchUrl": "https://www.bing.com/images/search?q=Bryce+Young+and+DJ&FORM=IRPATC",
          "searchLink": "https://api.bing.microsoft.com/api/v7/images/search?q=Bryce+Young+and+DJ",
          "thumbnail": {
             "thumbnailUrl": "https://tse3.mm.bing.net/th?q=Bryce+Young+and+DJ&pid=Api&mkt=en-US&cc=US&setlang=en&adlt=moderate&t=1"
          }
       },
       {
          "text": "Bryce Young Signing Day",
          "displayText": "Bryce Young Signing Day",
          "webSearchUrl": "https://www.bing.com/images/search?q=Bryce+Young+Signing+Day&FORM=IRPATC",
          "searchLink": "https://api.bing.microsoft.com/api/v7/images/search?q=Bryce+Young+Signing+Day",
          "thumbnail": {
             "thumbnailUrl": "https://tse1.mm.bing.net/th?q=Bryce+Young+Signing+Day&pid=Api&mkt=en-US&cc=US&setlang=en&adlt=moderate&t=1"
          }
       },
       {
          "text": "Bryce Young Jersey",
          "displayText": "Bryce Young Jersey",
          "webSearchUrl": "https://www.bing.com/images/search?q=Bryce+Young+Jersey&FORM=IRPATC",
          "searchLink": "https://api.bing.microsoft.com/api/v7/images/search?q=Bryce+Young+Jersey",
          "thumbnail": {
             "thumbnailUrl": "https://tse4.mm.bing.net/th?q=Bryce+Young+Jersey&pid=Api&mkt=en-US&cc=US&setlang=en&adlt=moderate&t=1"
          }
       },
       {
          "text": "Bryce Young Wallpaper",
          "displayText": "Bryce Young Wallpaper",
          "webSearchUrl": "https://www.bing.com/images/search?q=Bryce+Young+Wallpaper&FORM=IRPATC",
          "searchLink": "https://api.bing.microsoft.com/api/v7/images/search?q=Bryce+Young+Wallpaper",
          "thumbnail": {
             "thumbnailUrl": "https://tse4.mm.bing.net/th?q=Bryce+Young+Wallpaper&pid=Api&mkt=en-US&cc=US&setlang=en&adlt=moderate&t=1"
          }
       },
       {
          "text": "Young Cowboy Bryce",
          "displayText": "Young Cowboy Bryce",
          "webSearchUrl": "https://www.bing.com/images/search?q=Young+Cowboy+Bryce&FORM=IRPATC",
          "searchLink": "https://api.bing.microsoft.com/api/v7/images/search?q=Young+Cowboy+Bryce",
          "thumbnail": {
             "thumbnailUrl": "https://tse3.mm.bing.net/th?q=Young+Cowboy+Bryce&pid=Api&mkt=en-US&cc=US&setlang=en&adlt=moderate&t=1"
          }
       },
       {
          "text": "Bryce Young Basketball Highlights",
          "displayText": "Bryce Young Basketball Highlights",
          "webSearchUrl": "https://www.bing.com/images/search?q=Bryce+Young+Basketball+Highlights&FORM=IRPATC",
          "searchLink": "https://api.bing.microsoft.com/api/v7/images/search?q=Bryce+Young+Basketball+Highlights",
          "thumbnail": {
             "thumbnailUrl": "https://tse4.mm.bing.net/th?q=Bryce+Young+Basketball+Highlights&pid=Api&mkt=en-US&cc=US&setlang=en&adlt=moderate&t=1"
          }
       },
       {
          "text": "Bryce Young and Tua Picture",
          "displayText": "Bryce Young and Tua Picture",
          "webSearchUrl": "https://www.bing.com/images/search?q=Bryce+Young+and+Tua+Picture&FORM=IRPATC",
          "searchLink": "https://api.bing.microsoft.com/api/v7/images/search?q=Bryce+Young+and+Tua+Picture",
          "thumbnail": {
             "thumbnailUrl": "https://tse1.mm.bing.net/th?q=Bryce+Young+and+Tua+Picture&pid=Api&mkt=en-US&cc=US&setlang=en&adlt=moderate&t=1"
          }
       },
       {
          "text": "Bryce Young Facts",
          "displayText": "Bryce Young Facts",
          "webSearchUrl": "https://www.bing.com/images/search?q=Bryce+Young+Facts&FORM=IRPATC",
          "searchLink": "https://api.bing.microsoft.com/api/v7/images/search?q=Bryce+Young+Facts",
          "thumbnail": {
             "thumbnailUrl": "https://tse3.mm.bing.net/th?q=Bryce+Young+Facts&pid=Api&mkt=en-US&cc=US&setlang=en&adlt=moderate&t=1"
          }
       },
       {
          "text": "Bryce Young Signs with Alabama",
          "displayText": "Bryce Young Signs with Alabama",
          "webSearchUrl": "https://www.bing.com/images/search?q=Bryce+Young+Signs+with+Alabama&FORM=IRPATC",
          "searchLink": "https://api.bing.microsoft.com/api/v7/images/search?q=Bryce+Young+Signs+with+Alabama",
          "thumbnail": {
             "thumbnailUrl": "https://tse3.mm.bing.net/th?q=Bryce+Young+Signs+with+Alabama&pid=Api&mkt=en-US&cc=US&setlang=en&adlt=moderate&t=1"
          }
       },
       {
          "text": "Bryce Young Father",
          "displayText": "Bryce Young Father",
          "webSearchUrl": "https://www.bing.com/images/search?q=Bryce+Young+Father&FORM=IRPATC",
          "searchLink": "https://api.bing.microsoft.com/api/v7/images/search?q=Bryce+Young+Father",
          "thumbnail": {
             "thumbnailUrl": "https://tse2.mm.bing.net/th?q=Bryce+Young+Father&pid=Api&mkt=en-US&cc=US&setlang=en&adlt=moderate&t=1"
          }
       },
       {
          "text": "Young QB",
          "displayText": "Young QB",
          "webSearchUrl": "https://www.bing.com/images/search?q=Young+QB&FORM=IRPATC",
          "searchLink": "https://api.bing.microsoft.com/api/v7/images/search?q=Young+QB",
          "thumbnail": {
             "thumbnailUrl": "https://tse4.mm.bing.net/th?q=Young+QB&pid=Api&mkt=en-US&cc=US&setlang=en&adlt=moderate&t=1"
          }
       },
       {
          "text": "Bryce Young Size",
          "displayText": "Bryce Young Size",
          "webSearchUrl": "https://www.bing.com/images/search?q=Bryce+Young+Size&FORM=IRPATC",
          "searchLink": "https://api.bing.microsoft.com/api/v7/images/search?q=Bryce+Young+Size",
          "thumbnail": {
             "thumbnailUrl": "https://tse3.mm.bing.net/th?q=Bryce+Young+Size&pid=Api&mkt=en-US&cc=US&setlang=en&adlt=moderate&t=1"
          }
       },
       {
          "text": "Bryce Young Instagram",
          "displayText": "Bryce Young Instagram",
          "webSearchUrl": "https://www.bing.com/images/search?q=Bryce+Young+Instagram&FORM=IRPATC",
          "searchLink": "https://api.bing.microsoft.com/api/v7/images/search?q=Bryce+Young+Instagram",
          "thumbnail": {
             "thumbnailUrl": "https://tse4.mm.bing.net/th?q=Bryce+Young+Instagram&pid=Api&mkt=en-US&cc=US&setlang=en&adlt=moderate&t=1"
          }
       },
       {
          "text": "Bryce Young Alabama Visit",
          "displayText": "Bryce Young Alabama Visit",
          "webSearchUrl": "https://www.bing.com/images/search?q=Bryce+Young+Alabama+Visit&FORM=IRPATC",
          "searchLink": "https://api.bing.microsoft.com/api/v7/images/search?q=Bryce+Young+Alabama+Visit",
          "thumbnail": {
             "thumbnailUrl": "https://tse2.mm.bing.net/th?q=Bryce+Young+Alabama+Visit&pid=Api&mkt=en-US&cc=US&setlang=en&adlt=moderate&t=1"
          }
       },
       {
          "text": "College Football Bryce Young",
          "displayText": "College Football Bryce Young",
          "webSearchUrl": "https://www.bing.com/images/search?q=College+Football+Bryce+Young&FORM=IRPATC",
          "searchLink": "https://api.bing.microsoft.com/api/v7/images/search?q=College+Football+Bryce+Young",
          "thumbnail": {
             "thumbnailUrl": "https://tse2.mm.bing.net/th?q=College+Football+Bryce+Young&pid=Api&mkt=en-US&cc=US&setlang=en&adlt=moderate&t=1"
          }
       },
       {
          "text": "Bryce Young King",
          "displayText": "Bryce Young King",
          "webSearchUrl": "https://www.bing.com/images/search?q=Bryce+Young+King&FORM=IRPATC",
          "searchLink": "https://api.bing.microsoft.com/api/v7/images/search?q=Bryce+Young+King",
          "thumbnail": {
             "thumbnailUrl": "https://tse1.mm.bing.net/th?q=Bryce+Young+King&pid=Api&mkt=en-US&cc=US&setlang=en&adlt=moderate&t=1"
          }
       },
       {
          "text": "Bryce Young Detroit MI",
          "displayText": "Bryce Young Detroit MI",
          "webSearchUrl": "https://www.bing.com/images/search?q=Bryce+Young+Detroit+MI&FORM=IRPATC",
          "searchLink": "https://api.bing.microsoft.com/api/v7/images/search?q=Bryce+Young+Detroit+MI",
          "thumbnail": {
             "thumbnailUrl": "https://tse1.mm.bing.net/th?q=Bryce+Young+Detroit+MI&pid=Api&mkt=en-US&cc=US&setlang=en&adlt=moderate&t=1"
          }
       },
       {
          "text": "Bryce Young Name",
          "displayText": "Bryce Young Name",
          "webSearchUrl": "https://www.bing.com/images/search?q=Bryce+Young+Name&FORM=IRPATC",
          "searchLink": "https://api.bing.microsoft.com/api/v7/images/search?q=Bryce+Young+Name",
          "thumbnail": {
             "thumbnailUrl": "https://tse1.mm.bing.net/th?q=Bryce+Young+Name&pid=Api&mkt=en-US&cc=US&setlang=en&adlt=moderate&t=1"
          }
       },
       {
          "text": "Bryce Young Awards",
          "displayText": "Bryce Young Awards",
          "webSearchUrl": "https://www.bing.com/images/search?q=Bryce+Young+Awards&FORM=IRPATC",
          "searchLink": "https://api.bing.microsoft.com/api/v7/images/search?q=Bryce+Young+Awards",
          "thumbnail": {
             "thumbnailUrl": "https://tse4.mm.bing.net/th?q=Bryce+Young+Awards&pid=Api&mkt=en-US&cc=US&setlang=en&adlt=moderate&t=1"
          }
       }
    ]
 }