[
  {
    "id": 401426541,
    "season": 2022,
    "week": 1,
    "season_type": "regular",
    "start_date": "2022-09-03T19:30:00.000Z",
    "start_time_tbd": false,
    "neutral_site": false,
    "conference_game": false,
    "attendance": null,
    "venue_id": 3835,
    "venue": "Gaylord Family Oklahoma Memorial Stadium",
    "home_id": 201,
    "home_team": "Oklahoma",
    "home_conference": "Big 12",
    "home_division": "fbs",
    "home_points": 45,
    "home_line_scores": [
      21,
      7,
      14,
      3
    ],
    "home_post_win_prob": "0.9989338092980733",
    "home_pregame_elo": 1749,
    "home_postgame_elo": 1786,
    "away_id": 2638,
    "away_team": "UTEP",
    "away_conference": "Conference USA",
    "away_division": "fbs",
    "away_points": 13,
    "away_line_scores": [
      0,
      10,
      0,
      3
    ],
    "away_post_win_prob": "0.0010661907019267058",
    "away_pregame_elo": 1323,
    "away_postgame_elo": 1286,
    "excitement_index": "1.1939397110",
    "highlights": null,
    "notes": null
  },
  {
    "id": 401404066,
    "season": 2022,
    "week": 2,
    "season_type": "regular",
    "start_date": "2022-09-10T23:00:00.000Z",
    "start_time_tbd": false,
    "neutral_site": false,
    "conference_game": false,
    "attendance": null,
    "venue_id": 3835,
    "venue": "Gaylord Family Oklahoma Memorial Stadium",
    "home_id": 201,
    "home_team": "Oklahoma",
    "home_conference": "Big 12",
    "home_division": "fbs",
    "home_points": 33,
    "home_line_scores": [
      0,
      7,
      24,
      2
    ],
    "home_post_win_prob": "0.9981406881979185",
    "home_pregame_elo": 1786,
    "home_postgame_elo": 1811,
    "away_id": 2309,
    "away_team": "Kent State",
    "away_conference": "Mid-American",
    "away_division": "fbs",
    "away_points": 3,
    "away_line_scores": [
      0,
      3,
      0,
      0
    ],
    "away_post_win_prob": "0.0018593118020815425",
    "away_pregame_elo": 1299,
    "away_postgame_elo": 1274,
    "excitement_index": "5.8002904353",
    "highlights": null,
    "notes": null
  },
  {
    "id": 401404070,
    "season": 2022,
    "week": 3,
    "season_type": "regular",
    "start_date": "2022-09-17T16:00:00.000Z",
    "start_time_tbd": false,
    "neutral_site": false,
    "conference_game": false,
    "attendance": null,
    "venue_id": 3834,
    "venue": "Memorial Stadium",
    "home_id": 158,
    "home_team": "Nebraska",
    "home_conference": "Big Ten",
    "home_division": "fbs",
    "home_points": 14,
    "home_line_scores": [
      7,
      0,
      0,
      7
    ],
    "home_post_win_prob": "0.003362262379736915",
    "home_pregame_elo": 1596,
    "home_postgame_elo": 1523,
    "away_id": 201,
    "away_team": "Oklahoma",
    "away_conference": "Big 12",
    "away_division": "fbs",
    "away_points": 49,
    "away_line_scores": [
      14,
      21,
      14,
      0
    ],
    "away_post_win_prob": "0.9966377376202631",
    "away_pregame_elo": 1811,
    "away_postgame_elo": 1884,
    "excitement_index": "2.0421235130",
    "highlights": null,
    "notes": null
  },
  {
    "id": 401404081,
    "season": 2022,
    "week": 4,
    "season_type": "regular",
    "start_date": "2022-09-25T00:00:00.000Z",
    "start_time_tbd": false,
    "neutral_site": false,
    "conference_game": true,
    "attendance": null,
    "venue_id": 3835,
    "venue": "Gaylord Family Oklahoma Memorial Stadium",
    "home_id": 201,
    "home_team": "Oklahoma",
    "home_conference": "Big 12",
    "home_division": "fbs",
    "home_points": 34,
    "home_line_scores": [
      7,
      10,
      3,
      14
    ],
    "home_post_win_prob": "0.266134406576611",
    "home_pregame_elo": 1884,
    "home_postgame_elo": 1851,
    "away_id": 2306,
    "away_team": "Kansas State",
    "away_conference": "Big 12",
    "away_division": "fbs",
    "away_points": 41,
    "away_line_scores": [
      14,
      10,
      3,
      14
    ],
    "away_post_win_prob": "0.733865593423389",
    "away_pregame_elo": 1642,
    "away_postgame_elo": 1675,
    "excitement_index": "6.6028729485",
    "highlights": null,
    "notes": null
  },
  {
    "id": 401404086,
    "season": 2022,
    "week": 5,
    "season_type": "regular",
    "start_date": "2022-10-01T16:00:00.000Z",
    "start_time_tbd": false,
    "neutral_site": false,
    "conference_game": true,
    "attendance": null,
    "venue_id": 3616,
    "venue": "Amon G. Carter Stadium",
    "home_id": 2628,
    "home_team": "TCU",
    "home_conference": "Big 12",
    "home_division": "fbs",
    "home_points": null,
    "home_line_scores": null,
    "home_post_win_prob": null,
    "home_pregame_elo": 1526,
    "home_postgame_elo": null,
    "away_id": 201,
    "away_team": "Oklahoma",
    "away_conference": "Big 12",
    "away_division": "fbs",
    "away_points": null,
    "away_line_scores": null,
    "away_post_win_prob": null,
    "away_pregame_elo": 1851,
    "away_postgame_elo": null,
    "excitement_index": null,
    "highlights": null,
    "notes": null
  },
  {
    "id": 401404090,
    "season": 2022,
    "week": 6,
    "season_type": "regular",
    "start_date": "2022-10-08T16:00:00.000Z",
    "start_time_tbd": false,
    "neutral_site": true,
    "conference_game": true,
    "attendance": null,
    "venue_id": 499,
    "venue": "Cotton Bowl",
    "home_id": 201,
    "home_team": "Oklahoma",
    "home_conference": "Big 12",
    "home_division": "fbs",
    "home_points": null,
    "home_line_scores": null,
    "home_post_win_prob": null,
    "home_pregame_elo": 1858,
    "home_postgame_elo": null,
    "away_id": 251,
    "away_team": "Texas",
    "away_conference": "Big 12",
    "away_division": "fbs",
    "away_points": null,
    "away_line_scores": null,
    "away_post_win_prob": null,
    "away_pregame_elo": 1737,
    "away_postgame_elo": null,
    "excitement_index": null,
    "highlights": null,
    "notes": null
  },
  {
    "id": 401404094,
    "season": 2022,
    "week": 7,
    "season_type": "regular",
    "start_date": "2022-10-15T04:00:00.000Z",
    "start_time_tbd": true,
    "neutral_site": false,
    "conference_game": true,
    "attendance": null,
    "venue_id": 3835,
    "venue": "Gaylord Family Oklahoma Memorial Stadium",
    "home_id": 201,
    "home_team": "Oklahoma",
    "home_conference": "Big 12",
    "home_division": "fbs",
    "home_points": null,
    "home_line_scores": null,
    "home_post_win_prob": null,
    "home_pregame_elo": 1858,
    "home_postgame_elo": null,
    "away_id": 2305,
    "away_team": "Kansas",
    "away_conference": "Big 12",
    "away_division": "fbs",
    "away_points": null,
    "away_line_scores": null,
    "away_post_win_prob": null,
    "away_pregame_elo": 1350,
    "away_postgame_elo": null,
    "excitement_index": null,
    "highlights": null,
    "notes": null
  },
  {
    "id": 401404100,
    "season": 2022,
    "week": 9,
    "season_type": "regular",
    "start_date": "2022-10-29T04:00:00.000Z",
    "start_time_tbd": true,
    "neutral_site": false,
    "conference_game": true,
    "attendance": null,
    "venue_id": 3772,
    "venue": "Jack Trice Stadium",
    "home_id": 66,
    "home_team": "Iowa State",
    "home_conference": "Big 12",
    "home_division": "fbs",
    "home_points": null,
    "home_line_scores": null,
    "home_post_win_prob": null,
    "home_pregame_elo": 1790,
    "home_postgame_elo": null,
    "away_id": 201,
    "away_team": "Oklahoma",
    "away_conference": "Big 12",
    "away_division": "fbs",
    "away_points": null,
    "away_line_scores": null,
    "away_post_win_prob": null,
    "away_pregame_elo": 1858,
    "away_postgame_elo": null,
    "excitement_index": null,
    "highlights": null,
    "notes": null
  },
  {
    "id": 401404104,
    "season": 2022,
    "week": 10,
    "season_type": "regular",
    "start_date": "2022-11-05T04:00:00.000Z",
    "start_time_tbd": true,
    "neutral_site": false,
    "conference_game": true,
    "attendance": null,
    "venue_id": 3835,
    "venue": "Gaylord Family Oklahoma Memorial Stadium",
    "home_id": 201,
    "home_team": "Oklahoma",
    "home_conference": "Big 12",
    "home_division": "fbs",
    "home_points": null,
    "home_line_scores": null,
    "home_post_win_prob": null,
    "home_pregame_elo": 1858,
    "home_postgame_elo": null,
    "away_id": 239,
    "away_team": "Baylor",
    "away_conference": "Big 12",
    "away_division": "fbs",
    "away_points": null,
    "away_line_scores": null,
    "away_post_win_prob": null,
    "away_pregame_elo": 1752,
    "away_postgame_elo": null,
    "excitement_index": null,
    "highlights": null,
    "notes": null
  },
  {
    "id": 401404112,
    "season": 2022,
    "week": 11,
    "season_type": "regular",
    "start_date": "2022-11-12T05:00:00.000Z",
    "start_time_tbd": true,
    "neutral_site": false,
    "conference_game": true,
    "attendance": null,
    "venue_id": 3842,
    "venue": "Mountaineer Field at Milan Puskar Stadium",
    "home_id": 277,
    "home_team": "West Virginia",
    "home_conference": "Big 12",
    "home_division": "fbs",
    "home_points": null,
    "home_line_scores": null,
    "home_post_win_prob": null,
    "home_pregame_elo": 1496,
    "home_postgame_elo": null,
    "away_id": 201,
    "away_team": "Oklahoma",
    "away_conference": "Big 12",
    "away_division": "fbs",
    "away_points": null,
    "away_line_scores": null,
    "away_post_win_prob": null,
    "away_pregame_elo": 1858,
    "away_postgame_elo": null,
    "excitement_index": null,
    "highlights": null,
    "notes": null
  },
  {
    "id": 401404118,
    "season": 2022,
    "week": 12,
    "season_type": "regular",
    "start_date": "2022-11-19T05:00:00.000Z",
    "start_time_tbd": true,
    "neutral_site": false,
    "conference_game": true,
    "attendance": null,
    "venue_id": 3835,
    "venue": "Gaylord Family Oklahoma Memorial Stadium",
    "home_id": 201,
    "home_team": "Oklahoma",
    "home_conference": "Big 12",
    "home_division": "fbs",
    "home_points": null,
    "home_line_scores": null,
    "home_post_win_prob": null,
    "home_pregame_elo": 1858,
    "home_postgame_elo": null,
    "away_id": 197,
    "away_team": "Oklahoma State",
    "away_conference": "Big 12",
    "away_division": "fbs",
    "away_points": null,
    "away_line_scores": null,
    "away_post_win_prob": null,
    "away_pregame_elo": 1809,
    "away_postgame_elo": null,
    "excitement_index": null,
    "highlights": null,
    "notes": null
  },
  {
    "id": 401404122,
    "season": 2022,
    "week": 13,
    "season_type": "regular",
    "start_date": "2022-11-26T05:00:00.000Z",
    "start_time_tbd": true,
    "neutral_site": false,
    "conference_game": true,
    "attendance": null,
    "venue_id": 3784,
    "venue": "Jones AT&T Stadium",
    "home_id": 2641,
    "home_team": "Texas Tech",
    "home_conference": "Big 12",
    "home_division": "fbs",
    "home_points": null,
    "home_line_scores": null,
    "home_post_win_prob": null,
    "home_pregame_elo": 1529,
    "home_postgame_elo": null,
    "away_id": 201,
    "away_team": "Oklahoma",
    "away_conference": "Big 12",
    "away_division": "fbs",
    "away_points": null,
    "away_line_scores": null,
    "away_post_win_prob": null,
    "away_pregame_elo": 1858,
    "away_postgame_elo": null,
    "excitement_index": null,
    "highlights": null,
    "notes": null
  }
]