{
    "_type": "Images",
    "instrumentation": {
       "_type": "ResponseInstrumentation"
    },
    "readLink": "images/search?q=Quinn Ewers ESPN",
    "webSearchUrl": "https://www.bing.com/images/search?q=Quinn Ewers ESPN&FORM=OIIARP",
    "queryContext": {
       "originalQuery": "Quinn Ewers ESPN",
       "alterationDisplayQuery": "quinn ewer espn",
       "alterationOverrideQuery": "+Quinn Ewers ESPN",
       "alterationMethod": "AM_JustChangeIt",
       "alterationType": "CombinedAlterationsChained"
    },
    "totalEstimatedMatches": 795,
    "nextOffset": 70,
    "currentOffset": 0,
    "value": [
       {
          "webSearchUrl": "https://www.bing.com/images/search?view=detailv2&FORM=OIIRPO&q=Quinn+Ewers+ESPN&id=1D1108F1ED04601CC5201F57AB38DAB6FB800227&simid=249986048909",
          "name": "Texas QB Quinn Ewers out vs. West Virginia, focuses on return vs. rival ...",
          "thumbnailUrl": "https://tse3.mm.bing.net/th?id=OIF.8uPFF8rPooAY7FN1fRD5%2fw&pid=Api",
          "datePublished": "2022-10-01T14:55:00.0000000Z",
          "isFamilyFriendly": true,
          "contentUrl": "https://a4.espncdn.com/combiner/i?img=/photo/2022/0910/r1059940_1296x729_16-9.jpg",
          "hostPageUrl": "https://suntravel-syria.com/sports/texas-qb-quinn-ewers-out-vs-west-virginia-focuses-on-return-vs-rival-oklahoma-sources-say/",
          "contentSize": "97218 B",
          "encodingFormat": "jpeg",
          "hostPageDisplayUrl": "https://suntravel-syria.com/sports/texas-qb-quinn-ewers-out-vs-west-virginia-focuses-on...",
          "width": 1296,
          "height": 729,
          "thumbnail": {
             "width": 300,
             "height": 300
          },
          "imageInsightsToken": "ccid_MecBtBpO*cp_F2E3C517CACFA28018EC53757D10F9FF*mid_1D1108F1ED04601CC5201F57AB38DAB6FB800227*simid_249986048909*thid_OIF.8uPFF8rPooAY7FN1fRD5/w",
          "insightsMetadata": {
             "pagesIncludingCount": 1,
             "availableSizesCount": 1
          },
          "imageId": "1D1108F1ED04601CC5201F57AB38DAB6FB800227",
          "accentColor": "AF491C",
          "isFresh": true
       },
       {
          "webSearchUrl": "https://www.bing.com/images/search?view=detailv2&FORM=OIIRPO&q=Quinn+Ewers+ESPN&id=99CBAA928EAFCF385E6EFE644A33F05182C7097A&simid=249985901157",
          "name": "Quinn Ewers' Status Gets A Big Update For The WVU Game – OutKick",
          "thumbnailUrl": "https://tse2.mm.bing.net/th?id=OIF.fIPgGz2WMOLcLJ5jxnf2xA&pid=Api",
          "datePublished": "2022-10-01T14:50:00.0000000Z",
          "isFamilyFriendly": true,
          "contentUrl": "https://www.outkick.com/wp-content/uploads/Quinn_Ewers_2.jpg",
          "hostPageUrl": "https://www.outkick.com/quinn-ewers-texas-shoulder-injury-west-virginia-wont-play-report/",
          "contentSize": "164583 B",
          "encodingFormat": "jpeg",
          "hostPageDisplayUrl": "https://www.outkick.com/quinn-ewers-texas-shoulder-injury-west-virginia-wont-play-report",
          "width": 1024,
          "height": 708,
          "thumbnail": {
             "width": 300,
             "height": 300
          },
          "imageInsightsToken": "ccid_d53WR6r4*cp_7C83E01B3D9630E2DC2C9E63C677F6C4*mid_99CBAA928EAFCF385E6EFE644A33F05182C7097A*simid_249985901157*thid_OIF.fIPgGz2WMOLcLJ5jxnf2xA",
          "insightsMetadata": {
             "pagesIncludingCount": 1,
             "availableSizesCount": 1
          },
          "imageId": "99CBAA928EAFCF385E6EFE644A33F05182C7097A",
          "accentColor": "22408C",
          "isFresh": true
       },
       {
          "webSearchUrl": "https://www.bing.com/images/search?view=detailv2&FORM=OIIRPO&q=Quinn+Ewers+ESPN&id=99CBAA928EAFCF385E6E0656DEA86817F1ADFE26&simid=318721919132",
          "name": "Quinn Ewers' Status Gets A Big Update For The WVU Game – OutKick",
          "thumbnailUrl": "https://tse4.mm.bing.net/th?id=OIF.x4WRpIL2MiqQJg5mvV%2fAEw&pid=Api",
          "datePublished": "2022-10-01T14:50:00.0000000Z",
          "isFamilyFriendly": true,
          "contentUrl": "https://www.outkick.com/wp-content/uploads/Quinn_Ewers-1.jpg",
          "hostPageUrl": "https://www.outkick.com/quinn-ewers-texas-shoulder-injury-west-virginia-wont-play-report/",
          "contentSize": "138723 B",
          "encodingFormat": "jpeg",
          "hostPageDisplayUrl": "https://www.outkick.com/quinn-ewers-texas-shoulder-injury-west-virginia-wont-play-report",
          "width": 1024,
          "height": 682,
          "thumbnail": {
             "width": 300,
             "height": 300
          },
          "imageInsightsToken": "ccid_QXTBhTTa*cp_C78591A482F6322A90260E66BD5FC013*mid_99CBAA928EAFCF385E6E0656DEA86817F1ADFE26*simid_318721919132*thid_OIF.x4WRpIL2MiqQJg5mvV/AEw",
          "insightsMetadata": {
             "pagesIncludingCount": 1,
             "availableSizesCount": 1
          },
          "imageId": "99CBAA928EAFCF385E6E0656DEA86817F1ADFE26",
          "accentColor": "954F36",
          "isFresh": true
       },
       {
          "webSearchUrl": "https://www.bing.com/images/search?view=detailv2&FORM=OIIRPO&q=Quinn+Ewers+ESPN&id=3FAF28F43BD7888C68CB2E12FABFD5AE597BA7D9&simid=318712993495",
          "name": "NCAAF: Report: Texas QB Quinn Ewers eyes return vs. Oklahoma",
          "thumbnailUrl": "https://tse2.mm.bing.net/th?id=OIF.wOb4HgkubVm5INYmOwQ30g&pid=Api",
          "datePublished": "2022-10-01T16:36:00.0000000Z",
          "isFamilyFriendly": true,
          "contentUrl": "https://robinhoodnews.b-cdn.net/wp-content/uploads/2022/10/19020741.jpg",
          "hostPageUrl": "https://www.robinhoodnews.com/ncaaf-report-texas-qb-quinn-ewers-eyes-return-vs-oklahoma/",
          "contentSize": "117586 B",
          "encodingFormat": "jpeg",
          "hostPageDisplayUrl": "https://www.robinhoodnews.com/ncaaf-report-texas-qb-quinn-ewers-eyes-return-vs-oklahoma",
          "width": 1100,
          "height": 800,
          "thumbnail": {
             "width": 300,
             "height": 300
          },
          "imageInsightsToken": "ccid_8fWK8AVh*cp_C0E6F81E092E6D59B920D6263B0437D2*mid_3FAF28F43BD7888C68CB2E12FABFD5AE597BA7D9*simid_318712993495*thid_OIF.wOb4HgkubVm5INYmOwQ30g",
          "insightsMetadata": {
             "pagesIncludingCount": 1,
             "availableSizesCount": 1
          },
          "imageId": "3FAF28F43BD7888C68CB2E12FABFD5AE597BA7D9",
          "accentColor": "905E3B",
          "isFresh": true
       },
       {
          "webSearchUrl": "https://www.bing.com/images/search?view=detailv2&FORM=OIIRPO&q=Quinn+Ewers+ESPN&id=A6FDE6709F23A8B431DED755FC5558A3F2BA14E6&simid=249985339386",
          "name": "Quinn Ewers injury update: Update on Texas Longhorns QB for Week 5 ...",
          "thumbnailUrl": "https://tse4.mm.bing.net/th?id=OIF.AQ4v4EYCOeb0JPELW2GDTQ&pid=Api",
          "datePublished": "2022-10-01T10:09:00.0000000Z",
          "isFamilyFriendly": true,
          "contentUrl": "https://www.si.com/.image/t_share/MTkyMDk2ODgwNjkwMjEwMDQ4/texas-college-football-quinn-ewers-1.jpg",
          "hostPageUrl": "https://www.si.com/fannation/college/cfb-hq/ncaa-football/texas-longhorns-football-quinn-ewers-injury-update",
          "contentSize": "131777 B",
          "encodingFormat": "jpeg",
          "hostPageDisplayUrl": "https://www.si.com/fannation/college/cfb-hq/ncaa-football/texas-longhorns-football...",
          "width": 1200,
          "height": 619,
          "thumbnail": {
             "width": 300,
             "height": 300
          },
          "imageInsightsToken": "ccid_8nZ/xZDb*cp_010E2FE0460239E6F424F10B5B61834D*mid_A6FDE6709F23A8B431DED755FC5558A3F2BA14E6*simid_249985339386*thid_OIF.AQ4v4EYCOeb0JPELW2GDTQ",
          "insightsMetadata": {
             "pagesIncludingCount": 1,
             "availableSizesCount": 1
          },
          "imageId": "A6FDE6709F23A8B431DED755FC5558A3F2BA14E6",
          "accentColor": "A44627",
          "isFresh": true
       },
       {
          "webSearchUrl": "https://www.bing.com/images/search?view=detailv2&FORM=OIIRPO&q=Quinn+Ewers+ESPN&id=3EDA64AA0BDA07CD37474D4BB6CEEB8033CCF001&simid=181265121985",
          "name": "Quinn Ewers Targets Oklahoma Game for Return From Injury, per Report ...",
          "thumbnailUrl": "https://tse2.mm.bing.net/th?id=OIF.gNKNtc8W%2bZGGjpjz5JGdUw&pid=Api",
          "datePublished": "2022-10-01T15:15:00.0000000Z",
          "isFamilyFriendly": true,
          "contentUrl": "https://i0.wp.com/www.si.com/.image/c_limit%2Ccs_srgb%2Cfl_progressive%2Ch_1200%2Cq_auto:good%2Cw_1200/MTkyNzIyOTkxNjI3Mzc5NzQx/quinn-ewers.jpg?w=640&is-pending-load=1",
          "hostPageUrl": "https://sportsexclusive.co.uk/quinn-ewers-targets-oklahoma-game-for-return-from-injury-per-report/",
          "contentSize": "19722 B",
          "encodingFormat": "jpeg",
          "hostPageDisplayUrl": "https://sportsexclusive.co.uk/quinn-ewers-targets-oklahoma-game-for-return-from-injury...",
          "width": 640,
          "height": 356,
          "thumbnail": {
             "width": 300,
             "height": 300
          },
          "imageInsightsToken": "ccid_l/E9B1fV*cp_80D28DB5CF16F991868E98F3E4919D53*mid_3EDA64AA0BDA07CD37474D4BB6CEEB8033CCF001*simid_181265121985*thid_OIF.gNKNtc8W+ZGGjpjz5JGdUw",
          "insightsMetadata": {
             "pagesIncludingCount": 1,
             "availableSizesCount": 1
          },
          "imageId": "3EDA64AA0BDA07CD37474D4BB6CEEB8033CCF001",
          "accentColor": "3E415E",
          "isFresh": true
       },
       {
          "webSearchUrl": "https://www.bing.com/images/search?view=detailv2&FORM=OIIRPO&q=Quinn+Ewers+ESPN&id=CA955155866C9AB5E503E4AB904226B4A23ADA94&simid=112545070977",
          "name": "Report: Texas QB Quinn Ewers Targeting Oklahoma Game for Return from Injury",
          "thumbnailUrl": "https://tse3.mm.bing.net/th?id=OIF.jOhKF0cBKg5OgdeiKrblnQ&pid=Api",
          "datePublished": "2022-10-01T14:34:00.0000000Z",
          "isFamilyFriendly": true,
          "contentUrl": "https://s.yimg.com/ny/api/res/1.2/ItjEpU8hJhwC9WYG_IXvJw--/YXBwaWQ9aGlnaGxhbmRlcjt3PTk2MDtoPTcyMg--/https://s.yimg.com/uu/api/res/1.2/u0cqatO.oEYKHrs1SeUPMw--~B/aD0xMzU0O3c9MTgwMDthcHBpZD15dGFjaHlvbg--/https://media.zenfs.com/en/att_bleacher_report_articles_694/97da7491be046cfcc1c38c0f3af7bf93",
          "hostPageUrl": "https://currently.att.yahoo.com/att/report-texas-qb-quinn-ewers-142715918.html",
          "contentSize": "58468 B",
          "encodingFormat": "jpeg",
          "hostPageDisplayUrl": "https://currently.att.yahoo.com/att/report-texas-qb-quinn-ewers-142715918.html",
          "width": 960,
          "height": 722,
          "thumbnail": {
             "width": 300,
             "height": 300
          },
          "imageInsightsToken": "ccid_yEGHn3PN*cp_8CE84A1747012A0E4E81D7A22AB6E59D*mid_CA955155866C9AB5E503E4AB904226B4A23ADA94*simid_112545070977*thid_OIF.jOhKF0cBKg5OgdeiKrblnQ",
          "insightsMetadata": {
             "pagesIncludingCount": 1,
             "availableSizesCount": 1
          },
          "imageId": "CA955155866C9AB5E503E4AB904226B4A23ADA94",
          "accentColor": "8B4540",
          "isFresh": true
       },
       {
          "webSearchUrl": "https://www.bing.com/images/search?view=detailv2&FORM=OIIRPO&q=Quinn+Ewers+ESPN&id=DE1EFB2D4DDEB2756DBB2E83494E1E0A6CC9CFDD&simid=112544491609",
          "name": "Quinn Ewers eying return for Oklahoma game - ESPN Video",
          "thumbnailUrl": "https://tse2.mm.bing.net/th?id=OIF.vLDpkfQLP%2fyYbH%2bMGD4vnA&pid=Api",
          "datePublished": "2022-10-01T13:59:00.0000000Z",
          "isFamilyFriendly": true,
          "contentUrl": "https://a2.espncdn.com/combiner/i?img=%2Fmedia%2Fmotion%2F2022%2F1001%2Fdm_221001_CGD_Thamel_on_Ewers%2Fdm_221001_CGD_Thamel_on_Ewers.jpg",
          "hostPageUrl": "https://www.espn.in/video/clip/_/id/34701245",
          "contentSize": "239177 B",
          "encodingFormat": "jpeg",
          "hostPageDisplayUrl": "https://www.espn.in/video/clip/_/id/34701245",
          "width": 1920,
          "height": 1080,
          "thumbnail": {
             "width": 300,
             "height": 300
          },
          "imageInsightsToken": "ccid_MmqCiWy/*cp_BCB0E991F40B3FFC986C7F8C183E2F9C*mid_DE1EFB2D4DDEB2756DBB2E83494E1E0A6CC9CFDD*simid_112544491609*thid_OIF.vLDpkfQLP/yYbH+MGD4vnA",
          "insightsMetadata": {
             "pagesIncludingCount": 1,
             "availableSizesCount": 1
          },
          "imageId": "DE1EFB2D4DDEB2756DBB2E83494E1E0A6CC9CFDD",
          "accentColor": "465D84",
          "isFresh": true
       },
       {
          "webSearchUrl": "https://www.bing.com/images/search?view=detailv2&FORM=OIIRPO&q=Quinn+Ewers+ESPN&id=30C60D8022F47E0C172BFDA1A7BB23B41FF1D605&simid=318712684824",
          "name": "Quinn Ewers injury update: Texas QB out vs. West Virginia, eyeing ...",
          "thumbnailUrl": "https://tse1.mm.bing.net/th?id=OIF.sigmUAOgcuE9gbsLfILBlg&pid=Api",
          "datePublished": "2022-10-01T16:23:00.0000000Z",
          "isFamilyFriendly": true,
          "contentUrl": "https://sportshub.cbsistatic.com/i/r/2022/10/01/9db685bb-fb90-4ed2-9595-46dd7a3b2a3a/thumbnail/770x433/726c82a366d496d7d5142969c751f44f/ewers.jpg",
          "hostPageUrl": "https://freemc.0.golf.cbssports.com/college-football/news/quinn-ewers-injury-update-texas-qb-out-vs-west-virginia-eyeing-return-to-face-rival-oklahoma-per-report/",
          "contentSize": "72493 B",
          "encodingFormat": "jpeg",
          "hostPageDisplayUrl": "https://freemc.0.golf.cbssports.com/college-football/news/quinn-ewers-injury-update...",
          "width": 770,
          "height": 433,
          "thumbnail": {
             "width": 300,
             "height": 300
          },
          "imageInsightsToken": "ccid_QgEZbRoF*cp_B228265003A072E13D81BB0B7C82C196*mid_30C60D8022F47E0C172BFDA1A7BB23B41FF1D605*simid_318712684824*thid_OIF.sigmUAOgcuE9gbsLfILBlg",
          "insightsMetadata": {
             "pagesIncludingCount": 1,
             "availableSizesCount": 1
          },
          "imageId": "30C60D8022F47E0C172BFDA1A7BB23B41FF1D605",
          "accentColor": "A35D28",
          "isFresh": true
       },
       {
          "webSearchUrl": "https://www.bing.com/images/search?view=detailv2&FORM=OIIRPO&q=Quinn+Ewers+ESPN&id=45A1CCE9C9AEA180173FD74DEB2BD5E2ADECD193&simid=249985514215",
          "name": "Pete Thamel reveals Quinn Ewers status for Saturday against West ...",
          "thumbnailUrl": "https://tse1.mm.bing.net/th?id=OIF.dMRdkPEgnS%2bXqff7FT5IoA&pid=Api",
          "datePublished": "2022-10-01T13:50:00.0000000Z",
          "isFamilyFriendly": true,
          "contentUrl": "https://on3static.com/cdn-cgi/image/height=417,width=795,quality=95,fit=cover,gravity=0.5x0.5/uploads/dev/assets/cms/2022/09/12120608/Untitled-design-2022-09-12T120457.259.png",
          "hostPageUrl": "https://www.on3.com/college/texas-longhorns/news/pete-thamel-reveals-quinn-ewers-status-for-saturday-against-west-virginia-red-river-showdown-next-week-texas-longhorns-oklahoma-sooners-big-12-college-football/",
          "contentSize": "140843 B",
          "encodingFormat": "jpeg",
          "hostPageDisplayUrl": "https://www.on3.com/college/texas-longhorns/news/pete-thamel-reveals-quinn-ewers-status...",
          "width": 795,
          "height": 417,
          "thumbnail": {
             "width": 300,
             "height": 300
          },
          "imageInsightsToken": "ccid_LVdEsC5f*cp_74C45D90F1209D2F97A9F7FB153E48A0*mid_45A1CCE9C9AEA180173FD74DEB2BD5E2ADECD193*simid_249985514215*thid_OIF.dMRdkPEgnS+Xqff7FT5IoA",
          "insightsMetadata": {
             "pagesIncludingCount": 1,
             "availableSizesCount": 1
          },
          "imageId": "45A1CCE9C9AEA180173FD74DEB2BD5E2ADECD193",
          "accentColor": "281C1C",
          "isFresh": true
       },
       {
          "webSearchUrl": "https://www.bing.com/images/search?view=detailv2&FORM=OIIRPO&q=Quinn+Ewers+ESPN&id=31E3D505DD35952DC8159D2748E789FC49FCFAAA&simid=181125135243",
          "name": "College football games, Week 2: Quinn Ewers takes crack at Texas ...",
          "thumbnailUrl": "https://tse4.mm.bing.net/th?id=OIF.sR91ryyi%2bxUn3wjOuRMA0g&pid=Api",
          "datePublished": "2022-09-29T11:16:00.0000000Z",
          "isFamilyFriendly": true,
          "contentUrl": "https://sportshub.cbsistatic.com/i/r/2022/09/09/8c8faeff-5302-426e-82e2-827ca844131c/thumbnail/770x433/d8aa17b65fd8045465c64b6a575a027e/quinn-ewers-texas-orange-lifted.png",
          "hostPageUrl": "https://www.fuego.collegefb.cbssports.com/college-football/news/college-football-games-week-2-quinn-ewers-takes-crack-at-texas-turnaround-alabama-aims-to-wreck-freshman-qb/",
          "contentSize": "549477 B",
          "encodingFormat": "png",
          "hostPageDisplayUrl": "https://www.fuego.collegefb.cbssports.com/college-football/news/college-football-games...",
          "width": 770,
          "height": 433,
          "thumbnail": {
             "width": 300,
             "height": 300
          },
          "imageInsightsToken": "ccid_leFTi65z*cp_B11F75AF2CA2FB1527DF08CEB91300D2*mid_31E3D505DD35952DC8159D2748E789FC49FCFAAA*simid_181125135243*thid_OIF.sR91ryyi+xUn3wjOuRMA0g",
          "insightsMetadata": {
             "pagesIncludingCount": 1,
             "availableSizesCount": 1
          },
          "imageId": "31E3D505DD35952DC8159D2748E789FC49FCFAAA",
          "accentColor": "B54C08",
          "isFresh": true
       },
       {
          "webSearchUrl": "https://www.bing.com/images/search?view=detailv2&FORM=OIIRPO&q=Quinn+Ewers+ESPN&id=B225F954D0D2774B27C50DE81955A264C05C4E0E&simid=607992117766397993",
          "name": "Quinn Ewers harm: Texas' star QB out a number of weeks after exiting ...",
          "thumbnailUrl": "https://tse1.mm.bing.net/th?id=OIP.OmUKyPt_RCmC4ZIgP8nDiwHaEK&pid=Api",
          "datePublished": "2022-09-18T19:25:00.0000000Z",
          "isFamilyFriendly": true,
          "contentUrl": "https://wordpress-819854-2857483.cloudwaysapps.com/wp-content/uploads/2022/09/Quinn-Ewers-injury-Texas-star-QB-out-multiple-weeks-after.jpg",
          "hostPageUrl": "https://wordpress-819854-2857483.cloudwaysapps.com/quinn-ewers-injury-texas-star-qb-out-multiple-weeks-after-exiting-alabama-game-per-reports/",
          "contentSize": "123801 B",
          "encodingFormat": "jpeg",
          "hostPageDisplayUrl": "https://wordpress-819854-2857483.cloudwaysapps.com/quinn-ewers-injury-texas-star-qb-out...",
          "width": 1200,
          "height": 675,
          "hostPageDiscoveredDate": "2022-09-18T19:25:00.0000000Z",
          "thumbnail": {
             "width": 474,
             "height": 266
          },
          "imageInsightsToken": "ccid_OmUKyPt/*cp_C359EC9C0F3A76F03D376F752D04C727*mid_B225F954D0D2774B27C50DE81955A264C05C4E0E*simid_607992117766397993*thid_OIP.OmUKyPt!_RCmC4ZIgP8nDiwHaEK",
          "insightsMetadata": {
             "pagesIncludingCount": 1,
             "availableSizesCount": 1
          },
          "imageId": "B225F954D0D2774B27C50DE81955A264C05C4E0E",
          "accentColor": "A24229"
       },
       {
          "webSearchUrl": "https://www.bing.com/images/search?view=detailv2&FORM=OIIRPO&q=Quinn+Ewers+ESPN&id=A21022359D7F2A204BABC826129543004B7F495B&simid=112566874754",
          "name": "Texas QB Quinn Ewers Targeting Oklahoma Return | Yardbarker",
          "thumbnailUrl": "https://tse4.mm.bing.net/th?id=OIF.YiaxueCnqQbY%2flTq1VU5XA&pid=Api",
          "datePublished": "2022-10-01T21:43:00.0000000Z",
          "isFamilyFriendly": true,
          "contentUrl": "http://res.cloudinary.com/ybmedia/image/upload/c_crop,h_675,w_1200,x_0,y_36/c_fill,f_auto,h_900,q_auto,w_1600/v1/m/9/0/90e7f0b5ae61a4edd79be8508d0082eaf669e187/usatsi_18141239.jpg",
          "hostPageUrl": "https://www.yardbarker.com/college_football/articles/texas_qb_quinn_ewers_targeting_oklahoma_return/s1_16523_37945343",
          "contentSize": "95644 B",
          "encodingFormat": "jpeg",
          "hostPageDisplayUrl": "https://www.yardbarker.com/college_football/articles/texas_qb_quinn_ewers_targeting...",
          "width": 1600,
          "height": 900,
          "thumbnail": {
             "width": 300,
             "height": 300
          },
          "imageInsightsToken": "ccid_APFIJiMB*cp_6226B1B9E0A7A906D8FE54EAD555395C*mid_A21022359D7F2A204BABC826129543004B7F495B*simid_112566874754*thid_OIF.YiaxueCnqQbY/lTq1VU5XA",
          "insightsMetadata": {
             "pagesIncludingCount": 1,
             "availableSizesCount": 1
          },
          "imageId": "A21022359D7F2A204BABC826129543004B7F495B",
          "accentColor": "A63F25",
          "isFresh": true
       },
       {
          "webSearchUrl": "https://www.bing.com/images/search?view=detailv2&FORM=OIIRPO&q=Quinn+Ewers+ESPN&id=C1CAEF1EF59E4F89CA071EDE263628386B595231&simid=112552291599",
          "name": "College Football World Reacts To Saturday's Quinn Ewers News - The Spun ...",
          "thumbnailUrl": "https://tse2.explicit.bing.net/th?id=OIF.2ysxw5kDOR4SH9JiIjbdJQ&pid=Api",
          "datePublished": "2022-10-01T16:12:00.0000000Z",
          "isFamilyFriendly": false,
          "contentUrl": "https://thespun.com/.image/t_share/MTkyMDgzMzY5Nzk2ODM4NjU2/louisiana-monroe-v-texas.jpg",
          "hostPageUrl": "https://thespun.com/college-football/college-football-world-reacts-to-saturdays-quinn-ewers-news",
          "contentSize": "181509 B",
          "encodingFormat": "jpeg",
          "hostPageDisplayUrl": "https://thespun.com/college-football/college-football-world-reacts-to-saturdays-quinn...",
          "width": 1200,
          "height": 800,
          "thumbnail": {
             "width": 300,
             "height": 300
          },
          "imageInsightsToken": "ccid_Qd77PV91*cp_DB2B31C39903391E121FD2622236DD25*mid_C1CAEF1EF59E4F89CA071EDE263628386B595231*simid_112552291599*thid_OIF.2ysxw5kDOR4SH9JiIjbdJQ",
          "insightsMetadata": {
             "pagesIncludingCount": 1,
             "availableSizesCount": 1
          },
          "imageId": "C1CAEF1EF59E4F89CA071EDE263628386B595231",
          "accentColor": "AA4821",
          "isFresh": true
       },
       {
          "webSearchUrl": "https://www.bing.com/images/search?view=detailv2&FORM=OIIRPO&q=Quinn+Ewers+ESPN&id=F318834A2AED313EBA7C24E18923908B88D57478&simid=607992551546644245",
          "name": "Quinn Ewers injury update: Timeline for return after Texas Longhorns QB ...",
          "thumbnailUrl": "https://tse3.mm.bing.net/th?id=OIP._ZigUScORdO0CNw8BWjOTwHaEK&pid=Api",
          "datePublished": "2022-09-11T17:21:00.0000000Z",
          "isFamilyFriendly": true,
          "contentUrl": "https://library.sportingnews.com/styles/crop_style_16_9_mobile_2x/s3/2022-09/Quinn-Ewers-111022-GETTY-FTR.jpg?itok=QRAxa0AB",
          "hostPageUrl": "https://www.sportingnews.com/us/ncaa-football/news/quinn-ewers-injury-update-return-timeline-texas-longhorns-qb-clavicle-sprain/v1u0jfg9ex4lmedpcytq0ufu",
          "contentSize": "51568 B",
          "encodingFormat": "jpeg",
          "hostPageDisplayUrl": "https://www.sportingnews.com/us/ncaa-football/news/quinn-ewers-injury-update-return...",
          "width": 960,
          "height": 540,
          "hostPageDiscoveredDate": "2022-09-11T17:21:00.0000000Z",
          "thumbnail": {
             "width": 474,
             "height": 266
          },
          "imageInsightsToken": "ccid_/ZigUScO*cp_126008FB384AA171E94B20E98182D57E*mid_F318834A2AED313EBA7C24E18923908B88D57478*simid_607992551546644245*thid_OIP.!_ZigUScORdO0CNw8BWjOTwHaEK",
          "insightsMetadata": {
             "pagesIncludingCount": 1,
             "availableSizesCount": 1
          },
          "imageId": "F318834A2AED313EBA7C24E18923908B88D57478",
          "accentColor": "B34218"
       },
       {
          "webSearchUrl": "https://www.bing.com/images/search?view=detailv2&FORM=OIIRPO&q=Quinn+Ewers+ESPN&id=A30BBA01747B7A295E913ACAC2B2080656D005EA&simid=608013970545991066",
          "name": "Quinn Ewers ready to lead the Longhorns in 2022 - ESPN Video",
          "thumbnailUrl": "https://tse4.mm.bing.net/th?id=OIP.89Q5vuyf8w6kj9eXbbIQ8gHaEK&pid=Api",
          "datePublished": "2022-09-10T15:42:00.0000000Z",
          "isFamilyFriendly": true,
          "contentUrl": "https://a4.espncdn.com/combiner/i?img=%2Fmedia%2Fmotion%2F2022%2F0909%2Fdm_220909_ncf_ewers_convo%2Fdm_220909_ncf_ewers_convo.jpg",
          "hostPageUrl": "https://www.espn.com/video/clip/_/id/34559271",
          "contentSize": "52805 B",
          "encodingFormat": "jpeg",
          "hostPageDisplayUrl": "https://www.espn.com/video/clip/_/id/34559271",
          "width": 1063,
          "height": 598,
          "hostPageDiscoveredDate": "2022-09-10T15:42:00.0000000Z",
          "thumbnail": {
             "width": 474,
             "height": 266
          },
          "imageInsightsToken": "ccid_89Q5vuyf*cp_C497814D568F553CAB8D9B4C80269470*mid_A30BBA01747B7A295E913ACAC2B2080656D005EA*simid_608013970545991066*thid_OIP.89Q5vuyf8w6kj9eXbbIQ8gHaEK",
          "insightsMetadata": {
             "pagesIncludingCount": 1,
             "availableSizesCount": 1
          },
          "imageId": "A30BBA01747B7A295E913ACAC2B2080656D005EA",
          "accentColor": "506659"
       },
       {
          "webSearchUrl": "https://www.bing.com/images/search?view=detailv2&FORM=OIIRPO&q=Quinn+Ewers+ESPN&id=F0EEDE6C5B391A8F94D1379BA30E6D60DF7D23CF&simid=318530720630",
          "name": "Texas Longhorns' Quinn Ewers knocked out of game in loss to No. 1 ...",
          "thumbnailUrl": "https://tse2.mm.bing.net/th?id=OIF.1U6yMpS21sLmcpCU0kFRXA&pid=Api",
          "datePublished": "2022-09-28T22:09:00.0000000Z",
          "isFamilyFriendly": true,
          "contentUrl": "http://cdn.chatsports.com/thumbnails/6375-84784-original.jpeg",
          "hostPageUrl": "https://www.chatsports.com/rice-owls/a/source/texas-longhorns-quinn-ewers-knocked-out-of-game-in-loss-to-no-1-alabama-crimson-tide-in-first-quarter-17278730",
          "contentSize": "177045 B",
          "encodingFormat": "jpeg",
          "hostPageDisplayUrl": "https://www.chatsports.com/rice-owls/a/source/texas-longhorns-quinn-ewers-knocked-out...",
          "width": 1296,
          "height": 729,
          "thumbnail": {
             "width": 300,
             "height": 300
          },
          "imageInsightsToken": "ccid_Dib5unbU*cp_D54EB23294B6D6C2E6729094D241515C*mid_F0EEDE6C5B391A8F94D1379BA30E6D60DF7D23CF*simid_318530720630*thid_OIF.1U6yMpS21sLmcpCU0kFRXA",
          "insightsMetadata": {
             "pagesIncludingCount": 1,
             "availableSizesCount": 1
          },
          "imageId": "F0EEDE6C5B391A8F94D1379BA30E6D60DF7D23CF",
          "accentColor": "7A2718",
          "isFresh": true
       },
       {
          "webSearchUrl": "https://www.bing.com/images/search?view=detailv2&FORM=OIIRPO&q=Quinn+Ewers+ESPN&id=5BFB088BD79A9D1D7C14255B3423B6B72E1F2150&simid=318704748638",
          "name": "BREAKING: Decision Made on Status of Quinn Ewers • The Voice Of Motown",
          "thumbnailUrl": "https://tse4.mm.bing.net/th?id=OIF.K1cBTgbz9zavp8nK8JEmwQ&pid=Api",
          "datePublished": "2022-10-01T13:46:00.0000000Z",
          "isFamilyFriendly": true,
          "contentUrl": "https://voiceofmotown.com/wp-content/uploads/2022/10/BDE35449-FFF6-4C3A-A485-627EC58CAB15.jpeg",
          "hostPageUrl": "https://voiceofmotown.com/breaking-decision-made-on-status-of-quinn-ewers/",
          "contentSize": "239865 B",
          "encodingFormat": "jpeg",
          "hostPageDisplayUrl": "https://voiceofmotown.com/breaking-decision-made-on-status-of-quinn-ewers",
          "width": 1242,
          "height": 660,
          "thumbnail": {
             "width": 300,
             "height": 300
          },
          "imageInsightsToken": "ccid_FbnjczKN*cp_2B57014E06F3F736AFA7C9CAF09126C1*mid_5BFB088BD79A9D1D7C14255B3423B6B72E1F2150*simid_318704748638*thid_OIF.K1cBTgbz9zavp8nK8JEmwQ",
          "insightsMetadata": {
             "pagesIncludingCount": 1,
             "availableSizesCount": 1
          },
          "imageId": "5BFB088BD79A9D1D7C14255B3423B6B72E1F2150",
          "accentColor": "A0522B",
          "isFresh": true
       },
       {
          "webSearchUrl": "https://www.bing.com/images/search?view=detailv2&FORM=OIIRPO&q=Quinn+Ewers+ESPN&id=9DDB32B931A92FEC069695498521373E22C683FE&simid=607987986006368181",
          "name": "Report: Texas QB Quinn Ewers out 4-6 weeks - Field Level Media ...",
          "thumbnailUrl": "https://tse1.mm.bing.net/th?id=OIP.JyOyqd7rWtJ9idvD4ZiDsAHaE7&pid=Api",
          "datePublished": "2022-09-12T00:07:00.0000000Z",
          "isFamilyFriendly": true,
          "contentUrl": "https://fieldlevelmedia.com/wp-content/uploads/2022/09/19018506.jpg",
          "hostPageUrl": "https://fieldlevelmedia.com/latest-sports-news/report-texas-qb-quinn-ewers-out-4-6-weeks-2/",
          "contentSize": "153418 B",
          "encodingFormat": "jpeg",
          "hostPageDisplayUrl": "https://fieldlevelmedia.com/latest-sports-news/report-texas-qb-quinn-ewers-out-4-6-weeks-2",
          "width": 1100,
          "height": 733,
          "hostPageDiscoveredDate": "2022-09-12T00:07:00.0000000Z",
          "thumbnail": {
             "width": 474,
             "height": 315
          },
          "imageInsightsToken": "ccid_JyOyqd7r*cp_A41D14B1D516E1A140FBC26EA04820CF*mid_9DDB32B931A92FEC069695498521373E22C683FE*simid_607987986006368181*thid_OIP.JyOyqd7rWtJ9idvD4ZiDsAHaE7",
          "insightsMetadata": {
             "pagesIncludingCount": 1,
             "availableSizesCount": 1
          },
          "imageId": "9DDB32B931A92FEC069695498521373E22C683FE",
          "accentColor": "9D532E"
       },
       {
          "webSearchUrl": "https://www.bing.com/images/search?view=detailv2&FORM=OIIRPO&q=Quinn+Ewers+ESPN&id=8CBB059BF944F6928CEAFBB0CA9ADB2710E89685&simid=607997318960405861",
          "name": "ESPN’s ‘College GameDay’ predictions, including Alabama-Texas: ‘Give me ...",
          "thumbnailUrl": "https://tse4.mm.bing.net/th?id=OIP.zyM83YbM077Gs0BEfI5ligHaFj&pid=Api",
          "datePublished": "2022-09-10T11:49:00.0000000Z",
          "isFamilyFriendly": true,
          "contentUrl": "https://www.al.com/resizer/dYhGgyvhU6rjpsR9jpplU6WBRW8=/1280x0/smart/cloudfront-us-east-1.images.arcpublishing.com/advancelocal/TNJPJGCR75FMBALBTOBYGNLC3Y.jpeg",
          "hostPageUrl": "https://www.al.com/alabamafootball/2022/09/espns-college-gameday-on-alabama-texas-give-me-roll-damn-tide-by-a-hundred.html",
          "contentSize": "271996 B",
          "encodingFormat": "jpeg",
          "hostPageDisplayUrl": "https://www.al.com/alabamafootball/2022/09/espns-college-gameday-on-alabama-texas-give...",
          "width": 1280,
          "height": 961,
          "hostPageDiscoveredDate": "2022-09-10T11:49:00.0000000Z",
          "thumbnail": {
             "width": 474,
             "height": 355
          },
          "imageInsightsToken": "ccid_zyM83YbM*cp_7AA5DC8869D5F5D65CCF9DAAB5F8EE0C*mid_8CBB059BF944F6928CEAFBB0CA9ADB2710E89685*simid_607997318960405861*thid_OIP.zyM83YbM077Gs0BEfI5ligHaFj",
          "insightsMetadata": {
             "pagesIncludingCount": 1,
             "availableSizesCount": 1
          },
          "imageId": "8CBB059BF944F6928CEAFBB0CA9ADB2710E89685",
          "accentColor": "C53A06"
       },
       {
          "webSearchUrl": "https://www.bing.com/images/search?view=detailv2&FORM=OIIRPO&q=Quinn+Ewers+ESPN&id=312C191A920DDBB5BE544FA0D8C97A78B9C3F7DE&simid=607990451297539525",
          "name": "Report: Texas QB Quinn Ewers to Miss 4-6 Weeks With SC Sprain - Burnt ...",
          "thumbnailUrl": "https://tse1.mm.bing.net/th?id=OIP.9YzU3gim5xqMPpzb2VOdSAHaE7&pid=Api",
          "datePublished": "2022-09-11T16:48:00.0000000Z",
          "isFamilyFriendly": true,
          "contentUrl": "https://cdn.vox-cdn.com/thumbor/NupRUC45auFxX737DU9Y1CFTfd4=/0x0:4317x2878/1220x813/filters:focal(1814x1094:2504x1784)/cdn.vox-cdn.com/uploads/chorus_image/image/71352603/1422612967.0.jpg",
          "hostPageUrl": "https://www.burntorangenation.com/2022/9/11/23347469/report-texas-qb-quinn-ewers-to-miss-4-6-weeks-with-sc-sprain",
          "contentSize": "184239 B",
          "encodingFormat": "jpeg",
          "hostPageDisplayUrl": "https://www.burntorangenation.com/2022/9/11/23347469/report-texas-qb-quinn-ewers-to...",
          "width": 1220,
          "height": 813,
          "hostPageDiscoveredDate": "2022-09-11T16:48:00.0000000Z",
          "thumbnail": {
             "width": 474,
             "height": 315
          },
          "imageInsightsToken": "ccid_9YzU3gim*cp_824194CE440A9D9EF0B839E1D38721B2*mid_312C191A920DDBB5BE544FA0D8C97A78B9C3F7DE*simid_607990451297539525*thid_OIP.9YzU3gim5xqMPpzb2VOdSAHaE7",
          "insightsMetadata": {
             "pagesIncludingCount": 1,
             "availableSizesCount": 1
          },
          "imageId": "312C191A920DDBB5BE544FA0D8C97A78B9C3F7DE",
          "accentColor": "75352C"
       },
       {
          "webSearchUrl": "https://www.bing.com/images/search?view=detailv2&FORM=OIIRPO&q=Quinn+Ewers+ESPN&id=8CBB059BF944F6928CEA285F2CE5BFC1260066BE&simid=608024037955345904",
          "name": "ESPN’s ‘College GameDay’ predictions, including Alabama-Texas: ‘Give me ...",
          "thumbnailUrl": "https://tse1.mm.bing.net/th?id=OIP.AOqSVZFbNRfDNq9SfS_4CQHaFj&pid=Api",
          "datePublished": "2022-09-10T11:49:00.0000000Z",
          "isFamilyFriendly": true,
          "contentUrl": "https://www.al.com/resizer/8Q4wU9Y8Ua2gwbDWK_VpeX-mMUg=/800x0/smart/cloudfront-us-east-1.images.arcpublishing.com/advancelocal/TNJPJGCR75FMBALBTOBYGNLC3Y.jpeg",
          "hostPageUrl": "https://www.al.com/alabamafootball/2022/09/espns-college-gameday-on-alabama-texas-give-me-roll-damn-tide-by-a-hundred.html",
          "contentSize": "128491 B",
          "encodingFormat": "jpeg",
          "hostPageDisplayUrl": "https://www.al.com/alabamafootball/2022/09/espns-college-gameday-on-alabama-texas-give...",
          "width": 800,
          "height": 600,
          "hostPageDiscoveredDate": "2022-09-10T11:49:00.0000000Z",
          "thumbnail": {
             "width": 474,
             "height": 355
          },
          "imageInsightsToken": "ccid_AOqSVZFb*cp_4A2A92718F62D36D899695D8D51C7DA4*mid_8CBB059BF944F6928CEA285F2CE5BFC1260066BE*simid_608024037955345904*thid_OIP.AOqSVZFbNRfDNq9SfS!_4CQHaFj",
          "insightsMetadata": {
             "pagesIncludingCount": 1,
             "availableSizesCount": 1
          },
          "imageId": "8CBB059BF944F6928CEA285F2CE5BFC1260066BE",
          "accentColor": "C43A07"
       },
       {
          "webSearchUrl": "https://www.bing.com/images/search?view=detailv2&FORM=OIIRPO&q=Quinn+Ewers+ESPN&id=A29ADCD592619C9F7C980C52C8898FAF8FAA1059&simid=181273566572",
          "name": "College Football World Reacts To Saturday's Quinn Ewers News",
          "thumbnailUrl": "https://tse3.explicit.bing.net/th?id=OIF.h%2fQQhiCtIN%2f6eHnij49HGw&pid=Api",
          "datePublished": "2022-10-01T18:40:00.0000000Z",
          "isFamilyFriendly": false,
          "contentUrl": "https://img-s-msn-com.akamaized.net/tenant/amp/entityid/AA11rmYR.img",
          "hostPageUrl": "https://vnexplorer.net/college-football-world-reacts-to-saturdays-quinn-ewers-news-s4650652.html",
          "contentSize": "31203 B",
          "encodingFormat": "jpeg",
          "hostPageDisplayUrl": "https://vnexplorer.net/college-football-world-reacts-to-saturdays-quinn-ewers-news...",
          "width": 620,
          "height": 414,
          "thumbnail": {
             "width": 300,
             "height": 300
          },
          "imageInsightsToken": "ccid_x/4qDB3N*cp_87F4108620AD20DFFA7879E28F8F471B*mid_A29ADCD592619C9F7C980C52C8898FAF8FAA1059*simid_181273566572*thid_OIF.h/QQhiCtIN/6eHnij49HGw",
          "insightsMetadata": {
             "pagesIncludingCount": 1,
             "availableSizesCount": 1
          },
          "imageId": "A29ADCD592619C9F7C980C52C8898FAF8FAA1059",
          "accentColor": "AA4821",
          "isFresh": true
       },
       {
          "webSearchUrl": "https://www.bing.com/images/search?view=detailv2&FORM=OIIRPO&q=Quinn+Ewers+ESPN&id=779CEDC3270277AFC90F8088EE22B56913AD8DDA&simid=608055966747025285",
          "name": "Texas football QB Quinn Ewers returns to practice upon Big 12 opener ...",
          "thumbnailUrl": "https://tse1.mm.bing.net/th?id=OIP.53ouaeE9jf_CRAnHMcOD1AHaFk&pid=Api",
          "datePublished": "2022-09-19T21:08:00.0000000Z",
          "isFamilyFriendly": true,
          "contentUrl": "https://images2.minutemediacdn.com/image/fetch/w_2000,h_2000,c_fit/https:%2F%2Fhookemheadlines.com%2Fwp-content%2Fuploads%2Fimagn-images%2F2017%2F07%2F19068709.jpeg",
          "hostPageUrl": "https://flipboard.com/topic/westvirginiauniversity/texas-football-qb-quinn-ewers-returns-to-practice-upon-big-12-opener/a-I7tPtsMEQpqsg9xemKCLzw%3Aa%3A61877088-ec1e1ccbdd%2Fhookemheadlines.com",
          "contentSize": "223674 B",
          "encodingFormat": "jpeg",
          "hostPageDisplayUrl": "https://flipboard.com/topic/westvirginiauniversity/texas-football-qb-quinn-ewers...",
          "width": 2000,
          "height": 1503,
          "hostPageDiscoveredDate": "2022-09-19T21:08:00.0000000Z",
          "thumbnail": {
             "width": 474,
             "height": 356
          },
          "imageInsightsToken": "ccid_53ouaeE9*cp_E4FA17DC53439B3F39839094862CABF6*mid_779CEDC3270277AFC90F8088EE22B56913AD8DDA*simid_608055966747025285*thid_OIP.53ouaeE9jf!_CRAnHMcOD1AHaFk",
          "insightsMetadata": {
             "pagesIncludingCount": 1,
             "availableSizesCount": 1
          },
          "imageId": "779CEDC3270277AFC90F8088EE22B56913AD8DDA",
          "accentColor": "A35B28"
       },
       {
          "webSearchUrl": "https://www.bing.com/images/search?view=detailv2&FORM=OIIRPO&q=Quinn+Ewers+ESPN&id=41C4FF66AB1DC3B89C8E23D9CACD9A09E12CBC55&simid=607989128456665776",
          "name": "Texas football QB Quinn Ewers gets brutal update after leaving game vs ...",
          "thumbnailUrl": "https://tse1.mm.bing.net/th?id=OIP.4sgbgXTcE3IYypw4Rcdv6gHaEJ&pid=Api",
          "datePublished": "2022-09-10T11:45:00.0000000Z",
          "isFamilyFriendly": true,
          "contentUrl": "https://clutchpoints.com/wp-content/uploads/2022/09/Texas-football-Quinn-Ewers.jpeg",
          "hostPageUrl": "https://clutchpoints.com/texas-football-news-quinn-ewers-gets-brutal-update-after-leaving-game-vs-alabama/",
          "contentSize": "143214 B",
          "encodingFormat": "jpeg",
          "hostPageDisplayUrl": "https://clutchpoints.com/texas-football-news-quinn-ewers-gets-brutal-update-after...",
          "width": 1200,
          "height": 673,
          "hostPageDiscoveredDate": "2022-09-10T11:45:00.0000000Z",
          "thumbnail": {
             "width": 474,
             "height": 265
          },
          "imageInsightsToken": "ccid_4sgbgXTc*cp_482E08A53DBA005D6D8008B9A8146C0D*mid_41C4FF66AB1DC3B89C8E23D9CACD9A09E12CBC55*simid_607989128456665776*thid_OIP.4sgbgXTcE3IYypw4Rcdv6gHaEJ",
          "insightsMetadata": {
             "pagesIncludingCount": 1,
             "availableSizesCount": 1
          },
          "imageId": "41C4FF66AB1DC3B89C8E23D9CACD9A09E12CBC55",
          "accentColor": "925539"
       },
       {
          "webSearchUrl": "https://www.bing.com/images/search?view=detailv2&FORM=OIIRPO&q=Quinn+Ewers+ESPN&id=4BB59B8518AF9BE13FE18B2BD900AF9857FC8180&simid=181264627253",
          "name": "Sources: Texas QB Ewers targets return vs. OU - Sports Love Me",
          "thumbnailUrl": "https://tse4.mm.bing.net/th?id=OIF.P3mj3vVgV3Tc4HIvoesoeg&pid=Api",
          "datePublished": "2022-10-01T14:38:00.0000000Z",
          "isFamilyFriendly": true,
          "contentUrl": "https://sportsloveme.com/wp-content/uploads/2022/10/Sources-Texas-QB-Ewers-targets-return-vs.-OU-800x445.jpg",
          "hostPageUrl": "https://sportsloveme.com/nfl/sources-texas-qb-ewers-targets-return-vs-ou/",
          "contentSize": "44970 B",
          "encodingFormat": "jpeg",
          "hostPageDisplayUrl": "https://sportsloveme.com/nfl/sources-texas-qb-ewers-targets-return-vs-ou",
          "width": 800,
          "height": 445,
          "thumbnail": {
             "width": 300,
             "height": 300
          },
          "imageInsightsToken": "ccid_GNRxYItT*cp_3F79A3DEF5605774DCE0722FA1EB287A*mid_4BB59B8518AF9BE13FE18B2BD900AF9857FC8180*simid_181264627253*thid_OIF.P3mj3vVgV3Tc4HIvoesoeg",
          "insightsMetadata": {
             "pagesIncludingCount": 1,
             "availableSizesCount": 1
          },
          "imageId": "4BB59B8518AF9BE13FE18B2BD900AF9857FC8180",
          "accentColor": "B04A1B",
          "isFresh": true
       },
       {
          "webSearchUrl": "https://www.bing.com/images/search?view=detailv2&FORM=OIIRPO&q=Quinn+Ewers+ESPN&id=E78E4DF53E4210F289F15A66D63311CFD3594195&simid=608003340508019068",
          "name": "Texas football QB Quinn Ewers' timetable for return after suffering ...",
          "thumbnailUrl": "https://tse4.mm.bing.net/th?id=OIP.TZhpZEhWDl7XNWc7_fbRQwHaEJ&pid=Api",
          "datePublished": "2022-09-11T10:15:00.0000000Z",
          "isFamilyFriendly": true,
          "contentUrl": "https://clutchpoints.com/wp-content/uploads/2022/09/Texas-football-Quinn-Ewers-1.jpeg",
          "hostPageUrl": "https://clutchpoints.com/texas-football-news-quinn-ewers-timetable-for-return-after-suffering-injury-vs-alabama-revealed/",
          "contentSize": "160459 B",
          "encodingFormat": "jpeg",
          "hostPageDisplayUrl": "https://clutchpoints.com/texas-football-news-quinn-ewers-timetable-for-return-after...",
          "width": 1200,
          "height": 673,
          "hostPageDiscoveredDate": "2022-09-11T10:15:00.0000000Z",
          "thumbnail": {
             "width": 474,
             "height": 265
          },
          "imageInsightsToken": "ccid_TZhpZEhW*cp_12FDC0B650640EBCBE5F7F2A69FBC00C*mid_E78E4DF53E4210F289F15A66D63311CFD3594195*simid_608003340508019068*thid_OIP.TZhpZEhWDl7XNWc7!_fbRQwHaEJ",
          "insightsMetadata": {
             "pagesIncludingCount": 1,
             "availableSizesCount": 1
          },
          "imageId": "E78E4DF53E4210F289F15A66D63311CFD3594195",
          "accentColor": "B85B0D"
       },
       {
          "webSearchUrl": "https://www.bing.com/images/search?view=detailv2&FORM=OIIRPO&q=Quinn+Ewers+ESPN&id=9DAA8769C3B22748D212AC2C7FB5BE7580712E95&simid=608047797713832980",
          "name": "Quinn Ewers injury update: College football insider provides latest on ...",
          "thumbnailUrl": "https://tse3.mm.bing.net/th?id=OIP.6X3QMASIpjTBnYRUt1P-twHaD4&pid=Api",
          "datePublished": "2022-09-10T17:59:00.0000000Z",
          "isFamilyFriendly": true,
          "contentUrl": "https://www.saturdaydownsouth.com/wp-content/uploads/2022/07/USATSI_18695762-scaled.jpg?w=1200&h=628&crop=1",
          "hostPageUrl": "https://www.saturdaydownsouth.com/college-football/quinn-ewers-injury-update-college-football-insider-provides-latest-on-texas-qb/",
          "contentSize": "67495 B",
          "encodingFormat": "jpeg",
          "hostPageDisplayUrl": "https://www.saturdaydownsouth.com/college-football/quinn-ewers-injury-update-college...",
          "width": 1200,
          "height": 628,
          "hostPageDiscoveredDate": "2022-09-10T17:59:00.0000000Z",
          "thumbnail": {
             "width": 474,
             "height": 248
          },
          "imageInsightsToken": "ccid_6X3QMASI*cp_0A8473AE2BC8146C2478483E79DFD53F*mid_9DAA8769C3B22748D212AC2C7FB5BE7580712E95*simid_608047797713832980*thid_OIP.6X3QMASIpjTBnYRUt1P-twHaD4",
          "insightsMetadata": {
             "pagesIncludingCount": 1,
             "availableSizesCount": 1
          },
          "imageId": "9DAA8769C3B22748D212AC2C7FB5BE7580712E95",
          "accentColor": "2E246E"
       },
       {
          "webSearchUrl": "https://www.bing.com/images/search?view=detailv2&FORM=OIIRPO&q=Quinn+Ewers+ESPN&id=EE544907D6F60FF24D08886A7531FA8D236C4E81&simid=607998908099996064",
          "name": "Texas QB Quinn Ewers set to miss 4-6 weeks after MRI shows SC sprain ...",
          "thumbnailUrl": "https://tse3.mm.bing.net/th?id=OIP.Q79XYvUUpNKe42TAdehIAAHaEK&pid=Api",
          "datePublished": "2022-09-11T16:41:00.0000000Z",
          "isFamilyFriendly": true,
          "contentUrl": "https://a1.espncdn.com/combiner/i?img=%2Fphoto%2F2022%2F0910%2Fr1059947_1296x729_16-9.jpg",
          "hostPageUrl": "https://www.espn.com/college-football/story/_/id/34570867/texas-qb-quinn-ewers-set-miss-4-6-weeks-mri-shows-sc-sprain-sources-say?device=featurephone",
          "contentSize": "155047 B",
          "encodingFormat": "jpeg",
          "hostPageDisplayUrl": "https://www.espn.com/college-football/story/_/id/34570867/texas-qb-quinn-ewers-set-miss...",
          "width": 1296,
          "height": 729,
          "hostPageDiscoveredDate": "2022-09-11T16:41:00.0000000Z",
          "thumbnail": {
             "width": 474,
             "height": 266
          },
          "imageInsightsToken": "ccid_Q79XYvUU*cp_95BCD0FD45A36DBCE57AACB144E03E54*mid_EE544907D6F60FF24D08886A7531FA8D236C4E81*simid_607998908099996064*thid_OIP.Q79XYvUUpNKe42TAdehIAAHaEK",
          "insightsMetadata": {
             "pagesIncludingCount": 1,
             "availableSizesCount": 1
          },
          "imageId": "EE544907D6F60FF24D08886A7531FA8D236C4E81",
          "accentColor": "6C2C24"
       },
       {
          "webSearchUrl": "https://www.bing.com/images/search?view=detailv2&FORM=OIIRPO&q=Quinn+Ewers+ESPN&id=177E9D24813A2AFB48595360A62FEF77F99C3C1F&simid=608041926490137367",
          "name": "Texas QB Quinn Ewers set to miss 4-6 weeks after MRI shows SC sprain ...",
          "thumbnailUrl": "https://tse2.mm.bing.net/th?id=OIP.k2chQfybMZ6-fQ4LwCpsqwHaEK&pid=Api",
          "datePublished": "2022-09-11T17:48:00.0000000Z",
          "isFamilyFriendly": true,
          "contentUrl": "https://www.cnninternationalnews.com/wp-content/uploads/2022/09/Texas-QB-Quinn-Ewers-set-to-miss-4-6-weeks-after-768x432.jpg",
          "hostPageUrl": "https://www.cnninternationalnews.com/texas-qb-quinn-ewers-set-to-miss-4-6-weeks-after-mri-shows-sc-sprain-sources-say/",
          "contentSize": "70736 B",
          "encodingFormat": "jpeg",
          "hostPageDisplayUrl": "https://www.cnninternationalnews.com/texas-qb-quinn-ewers-set-to-miss-4-6-weeks-after...",
          "width": 768,
          "height": 432,
          "hostPageDiscoveredDate": "2022-09-11T17:48:00.0000000Z",
          "thumbnail": {
             "width": 474,
             "height": 266
          },
          "imageInsightsToken": "ccid_k2chQfyb*cp_962E8BBDDCE2D580A34FA09DD7330A98*mid_177E9D24813A2AFB48595360A62FEF77F99C3C1F*simid_608041926490137367*thid_OIP.k2chQfybMZ6-fQ4LwCpsqwHaEK",
          "insightsMetadata": {
             "pagesIncludingCount": 1,
             "availableSizesCount": 1
          },
          "imageId": "177E9D24813A2AFB48595360A62FEF77F99C3C1F",
          "accentColor": "6C2E24"
       },
       {
          "webSearchUrl": "https://www.bing.com/images/search?view=detailv2&FORM=OIIRPO&q=Quinn+Ewers+ESPN&id=A3A26F47491ACF8C90AC64555F2B61BC1B36B103&simid=608005320485440804",
          "name": "Quinn Ewers exits Texas-Alabama game with injury, Hudson Card in at QB",
          "thumbnailUrl": "https://tse2.mm.bing.net/th?id=OIP.jwOViXBlWKKk3upXpfKt4gHaE8&pid=Api",
          "datePublished": "2022-09-10T00:03:00.0000000Z",
          "isFamilyFriendly": true,
          "contentUrl": "https://www.gannett-cdn.com/presto/2022/09/10/NAAS/34a10ed9-ab78-4f20-b05b-0fc45ef646ca-AEM_Texas_vs_Alabama-10.jpg?width=1320&height=880&fit=crop&format=pjpg&auto=webp",
          "hostPageUrl": "https://www.indystar.com/story/sports/college/longhorns/football/2022/09/10/quinn-ewers-exits-texas-alabama-game-with-injury-hudson-card-in-at-quarterback/69443652007/",
          "contentSize": "100441 B",
          "encodingFormat": "jpeg",
          "hostPageDisplayUrl": "https://www.indystar.com/story/sports/college/longhorns/football/2022/09/10/quinn-ewers...",
          "width": 1320,
          "height": 880,
          "hostPageDiscoveredDate": "2022-09-10T00:03:00.0000000Z",
          "thumbnail": {
             "width": 474,
             "height": 316
          },
          "imageInsightsToken": "ccid_jwOViXBl*cp_E5194D856544CA324A45352DD3360110*mid_A3A26F47491ACF8C90AC64555F2B61BC1B36B103*simid_608005320485440804*thid_OIP.jwOViXBlWKKk3upXpfKt4gHaE8",
          "insightsMetadata": {
             "pagesIncludingCount": 1,
             "availableSizesCount": 1
          },
          "imageId": "A3A26F47491ACF8C90AC64555F2B61BC1B36B103",
          "accentColor": "5C646F"
       },
       {
          "webSearchUrl": "https://www.bing.com/images/search?view=detailv2&FORM=OIIRPO&q=Quinn+Ewers+ESPN&id=A86D9F05277D29DAFB1CE54FAF4137D53F8B4081&simid=249985737906",
          "name": "Report: Texas QB Quinn Ewers out vs. West Virginia - Burnt Orange Nation",
          "thumbnailUrl": "https://tse4.mm.bing.net/th?id=OIF.MRInUpGELAlzU2mXhAtT3g&pid=Api",
          "datePublished": "2022-10-01T14:43:00.0000000Z",
          "isFamilyFriendly": true,
          "contentUrl": "https://cdn.vox-cdn.com/thumbor/kiT0aEtZq3SfrKhzFSaO_8OPNUk=/0x0:3600x2704/320x213/filters:focal(1125x744:1701x1320)/cdn.vox-cdn.com/uploads/chorus_image/image/71439882/usa_today_19068709.0.jpg",
          "hostPageUrl": "https://www.burntorangenation.com/2022/10/1/23381891/quinn-ewers-out-injury-texas-longhorns-west-virginia-mountaineers",
          "contentSize": "13404 B",
          "encodingFormat": "jpeg",
          "hostPageDisplayUrl": "https://www.burntorangenation.com/2022/10/1/23381891/quinn-ewers-out-injury-texas...",
          "width": 320,
          "height": 213,
          "thumbnail": {
             "width": 300,
             "height": 300
          },
          "imageInsightsToken": "ccid_f3M6+bSG*cp_3112275291842C0973536997840B53DE*mid_A86D9F05277D29DAFB1CE54FAF4137D53F8B4081*simid_249985737906*thid_OIF.MRInUpGELAlzU2mXhAtT3g",
          "insightsMetadata": {
             "pagesIncludingCount": 1,
             "availableSizesCount": 1
          },
          "imageId": "A86D9F05277D29DAFB1CE54FAF4137D53F8B4081",
          "accentColor": "A35C28",
          "isFresh": true
       },
       {
          "webSearchUrl": "https://www.bing.com/images/search?view=detailv2&FORM=OIIRPO&q=Quinn+Ewers+ESPN&id=A3A26F47491ACF8C90AC3993494C345E03682945&simid=608020236905677687",
          "name": "Quinn Ewers exits Texas-Alabama game with injury, Hudson Card in at QB",
          "thumbnailUrl": "https://tse4.mm.bing.net/th?id=OIP.iteicHDFzqcuFqi84F7MhQHaEK&pid=Api",
          "datePublished": "2022-09-10T00:03:00.0000000Z",
          "isFamilyFriendly": true,
          "contentUrl": "https://www.gannett-cdn.com/presto/2022/09/10/NAAS/34a10ed9-ab78-4f20-b05b-0fc45ef646ca-AEM_Texas_vs_Alabama-10.jpg?crop=2879,1620,x0,y146&width=2879&height=1620&format=pjpg&auto=webp",
          "hostPageUrl": "https://www.indystar.com/story/sports/college/longhorns/football/2022/09/10/quinn-ewers-exits-texas-alabama-game-with-injury-hudson-card-in-at-quarterback/69443652007/",
          "contentSize": "321597 B",
          "encodingFormat": "jpeg",
          "hostPageDisplayUrl": "https://www.indystar.com/story/sports/college/longhorns/football/2022/09/10/quinn-ewers...",
          "width": 2879,
          "height": 1620,
          "hostPageDiscoveredDate": "2022-09-10T00:03:00.0000000Z",
          "thumbnail": {
             "width": 474,
             "height": 266
          },
          "imageInsightsToken": "ccid_iteicHDF*cp_F3F2F98327A988DAA8F1DD32E4C89F08*mid_A3A26F47491ACF8C90AC3993494C345E03682945*simid_608020236905677687*thid_OIP.iteicHDFzqcuFqi84F7MhQHaEK",
          "insightsMetadata": {
             "pagesIncludingCount": 1,
             "availableSizesCount": 1
          },
          "imageId": "A3A26F47491ACF8C90AC3993494C345E03682945",
          "accentColor": "3C425F"
       },
       {
          "webSearchUrl": "https://www.bing.com/images/search?view=detailv2&FORM=OIIRPO&q=Quinn+Ewers+ESPN&id=C57CF2C04E1EBEF0275850E84D8CFA9A871DC4E7&simid=249993740571",
          "name": "Report: Texas QB Quinn Ewers Targeting Oklahoma Game for Return from ...",
          "thumbnailUrl": "https://tse3.mm.bing.net/th?id=OIF.c1SKhNbcQegQTS50QiM%2ftA&pid=Api",
          "datePublished": "2022-10-01T16:47:00.0000000Z",
          "isFamilyFriendly": true,
          "contentUrl": "https://ic-cdn.flipboard.com/bleacherreport.com/6d69607f103de1a01b42453ea7469e99d9324748/_medium.jpeg",
          "hostPageUrl": "https://flipboard.com/topic/oklahoma/report-texas-qb-quinn-ewers-targeting-oklahoma-game-for-return-from-injury/a-AVOpsExsSbKY0omjlym2jg%3Aa%3A3199710-d63c436122%2Fbleacherreport.com",
          "contentSize": "23422 B",
          "encodingFormat": "jpeg",
          "hostPageDisplayUrl": "https://flipboard.com/topic/oklahoma/report-texas-qb-quinn-ewers-targeting-oklahoma...",
          "width": 500,
          "height": 263,
          "thumbnail": {
             "width": 300,
             "height": 300
          },
          "imageInsightsToken": "ccid_ynpbJLk0*cp_73548A84D6DC41E8104D2E7442233FB4*mid_C57CF2C04E1EBEF0275850E84D8CFA9A871DC4E7*simid_249993740571*thid_OIF.c1SKhNbcQegQTS50QiM/tA",
          "insightsMetadata": {
             "pagesIncludingCount": 1,
             "availableSizesCount": 1
          },
          "imageId": "C57CF2C04E1EBEF0275850E84D8CFA9A871DC4E7",
          "accentColor": "9F2C3D",
          "isFresh": true
       },
       {
          "webSearchUrl": "https://www.bing.com/images/search?view=detailv2&FORM=OIIRPO&q=Quinn+Ewers+ESPN&id=C7DACE319AFA9C46647BE11297F28560B7E54843&simid=608020168186945869",
          "name": "Texas QB Quinn Ewers expected to miss 4-6 weeks with shoulder sprain",
          "thumbnailUrl": "https://tse1.explicit.bing.net/th?id=OIP.MGYdduc7BTM4fsmANnRlUAHaE8&pid=Api",
          "datePublished": "2022-09-11T18:29:00.0000000Z",
          "isFamilyFriendly": false,
          "contentUrl": "https://s.yimg.com/ny/api/res/1.2/UWTpJBsmAiCraGQWd9.9nA--/YXBwaWQ9aGlnaGxhbmRlcjt3PTk2MDtoPTY0MA--/https://s.yimg.com/uu/api/res/1.2/54Tcn9Is2U1nRQ1e.r6p5g--~B/aD0xNzA3O3c9MjU2MDthcHBpZD15dGFjaHlvbg--/https://media.zenfs.com/en/longhorns_wire_usa_today_articles_557/28444d236a1bf6806bbdf0d45055d199",
          "hostPageUrl": "https://www.yahoo.com/entertainment/texas-qb-quinn-ewers-expected-165225460.html",
          "contentSize": "76060 B",
          "encodingFormat": "jpeg",
          "hostPageDisplayUrl": "https://www.yahoo.com/entertainment/texas-qb-quinn-ewers-expected-165225460.html",
          "width": 960,
          "height": 640,
          "hostPageDiscoveredDate": "2022-09-11T18:29:00.0000000Z",
          "thumbnail": {
             "width": 474,
             "height": 316
          },
          "imageInsightsToken": "ccid_MGYdduc7*cp_FFF1858A46B958C28386ED3E593224E0*mid_C7DACE319AFA9C46647BE11297F28560B7E54843*simid_608020168186945869*thid_OIP.MGYdduc7BTM4fsmANnRlUAHaE8",
          "insightsMetadata": {
             "pagesIncludingCount": 1,
             "availableSizesCount": 1
          },
          "imageId": "C7DACE319AFA9C46647BE11297F28560B7E54843",
          "accentColor": "AF491C"
       }
    ],
    "pivotSuggestions": [
       {
          "pivot": "Quinn",
          "suggestions": []
       },
       {
          "pivot": "Ewers",
          "suggestions": []
       },
       {
          "pivot": "ESPN",
          "suggestions": []
       }
    ],
    "relatedSearches": [
       {
          "text": "Ohio State QB",
          "displayText": "Ohio State QB",
          "webSearchUrl": "https://www.bing.com/images/search?q=Ohio+State+QB&FORM=IRPATC",
          "searchLink": "https://api.bing.microsoft.com/api/v7/images/search?q=Ohio+State+QB",
          "thumbnail": {
             "thumbnailUrl": "https://tse2.mm.bing.net/th?q=Ohio+State+QB&pid=Api&mkt=en-US&cc=US&setlang=en&adlt=moderate&t=1"
          }
       },
       {
          "text": "Quinn Ewers QB",
          "displayText": "Quinn Ewers QB",
          "webSearchUrl": "https://www.bing.com/images/search?q=Quinn+Ewers+QB&FORM=IRPATC",
          "searchLink": "https://api.bing.microsoft.com/api/v7/images/search?q=Quinn+Ewers+QB",
          "thumbnail": {
             "thumbnailUrl": "https://tse3.mm.bing.net/th?q=Quinn+Ewers+QB&pid=Api&mkt=en-US&cc=US&setlang=en&adlt=moderate&t=1"
          }
       },
       {
          "text": "Dollps Quinn",
          "displayText": "Dollps Quinn",
          "webSearchUrl": "https://www.bing.com/images/search?q=Dollps+Quinn&FORM=IRPATC",
          "searchLink": "https://api.bing.microsoft.com/api/v7/images/search?q=Dollps+Quinn",
          "thumbnail": {
             "thumbnailUrl": "https://tse4.mm.bing.net/th?q=Dollps+Quinn&pid=Api&mkt=en-US&cc=US&setlang=en&adlt=moderate&t=1"
          }
       },
       {
          "text": "Quinn Ewers Mullet",
          "displayText": "Quinn Ewers Mullet",
          "webSearchUrl": "https://www.bing.com/images/search?q=Quinn+Ewers+Mullet&FORM=IRPATC",
          "searchLink": "https://api.bing.microsoft.com/api/v7/images/search?q=Quinn+Ewers+Mullet",
          "thumbnail": {
             "thumbnailUrl": "https://tse3.mm.bing.net/th?q=Quinn+Ewers+Mullet&pid=Api&mkt=en-US&cc=US&setlang=en&adlt=moderate&t=1"
          }
       },
       {
          "text": "Texas High School Football",
          "displayText": "Texas High School Football",
          "webSearchUrl": "https://www.bing.com/images/search?q=Texas+High+School+Football&FORM=IRPATC",
          "searchLink": "https://api.bing.microsoft.com/api/v7/images/search?q=Texas+High+School+Football",
          "thumbnail": {
             "thumbnailUrl": "https://tse1.mm.bing.net/th?q=Texas+High+School+Football&pid=Api&mkt=en-US&cc=US&setlang=en&adlt=moderate&t=1"
          }
       },
       {
          "text": "Arch Manning",
          "displayText": "Arch Manning",
          "webSearchUrl": "https://www.bing.com/images/search?q=Arch+Manning&FORM=IRPATC",
          "searchLink": "https://api.bing.microsoft.com/api/v7/images/search?q=Arch+Manning",
          "thumbnail": {
             "thumbnailUrl": "https://tse1.mm.bing.net/th?q=Arch+Manning&pid=Api&mkt=en-US&cc=US&setlang=en&adlt=moderate&t=1"
          }
       },
       {
          "text": "Kyle Ewers",
          "displayText": "Kyle Ewers",
          "webSearchUrl": "https://www.bing.com/images/search?q=Kyle+Ewers&FORM=IRPATC",
          "searchLink": "https://api.bing.microsoft.com/api/v7/images/search?q=Kyle+Ewers",
          "thumbnail": {
             "thumbnailUrl": "https://tse4.mm.bing.net/th?q=Kyle+Ewers&pid=Api&mkt=en-US&cc=US&setlang=en&adlt=moderate&t=1"
          }
       },
       {
          "text": "CJ Stroud",
          "displayText": "CJ Stroud",
          "webSearchUrl": "https://www.bing.com/images/search?q=CJ+Stroud&FORM=IRPATC",
          "searchLink": "https://api.bing.microsoft.com/api/v7/images/search?q=CJ+Stroud",
          "thumbnail": {
             "thumbnailUrl": "https://tse1.mm.bing.net/th?q=CJ+Stroud&pid=Api&mkt=en-US&cc=US&setlang=en&adlt=moderate&t=1"
          }
       },
       {
          "text": "Quinn Ewers Football",
          "displayText": "Quinn Ewers Football",
          "webSearchUrl": "https://www.bing.com/images/search?q=Quinn+Ewers+Football&FORM=IRPATC",
          "searchLink": "https://api.bing.microsoft.com/api/v7/images/search?q=Quinn+Ewers+Football",
          "thumbnail": {
             "thumbnailUrl": "https://tse1.mm.bing.net/th?q=Quinn+Ewers+Football&pid=Api&mkt=en-US&cc=US&setlang=en&adlt=moderate&t=1"
          }
       },
       {
          "text": "Quinn Ewers Family",
          "displayText": "Quinn Ewers Family",
          "webSearchUrl": "https://www.bing.com/images/search?q=Quinn+Ewers+Family&FORM=IRPATC",
          "searchLink": "https://api.bing.microsoft.com/api/v7/images/search?q=Quinn+Ewers+Family",
          "thumbnail": {
             "thumbnailUrl": "https://tse4.mm.bing.net/th?q=Quinn+Ewers+Family&pid=Api&mkt=en-US&cc=US&setlang=en&adlt=moderate&t=1"
          }
       },
       {
          "text": "Quinn Ewers 247",
          "displayText": "Quinn Ewers 247",
          "webSearchUrl": "https://www.bing.com/images/search?q=Quinn+Ewers+247&FORM=IRPATC",
          "searchLink": "https://api.bing.microsoft.com/api/v7/images/search?q=Quinn+Ewers+247",
          "thumbnail": {
             "thumbnailUrl": "https://tse1.mm.bing.net/th?q=Quinn+Ewers+247&pid=Api&mkt=en-US&cc=US&setlang=en&adlt=moderate&t=1"
          }
       },
       {
          "text": "Terrence Brooks",
          "displayText": "Terrence Brooks",
          "webSearchUrl": "https://www.bing.com/images/search?q=Terrence+Brooks&FORM=IRPATC",
          "searchLink": "https://api.bing.microsoft.com/api/v7/images/search?q=Terrence+Brooks",
          "thumbnail": {
             "thumbnailUrl": "https://tse3.mm.bing.net/th?q=Terrence+Brooks&pid=Api&mkt=en-US&cc=US&setlang=en&adlt=moderate&t=1"
          }
       },
       {
          "text": "Quinn Ewers Sports",
          "displayText": "Quinn Ewers Sports",
          "webSearchUrl": "https://www.bing.com/images/search?q=Quinn+Ewers+Sports&FORM=IRPATC",
          "searchLink": "https://api.bing.microsoft.com/api/v7/images/search?q=Quinn+Ewers+Sports",
          "thumbnail": {
             "thumbnailUrl": "https://tse3.mm.bing.net/th?q=Quinn+Ewers+Sports&pid=Api&mkt=en-US&cc=US&setlang=en&adlt=moderate&t=1"
          }
       },
       {
          "text": "Steve Sarkisian",
          "displayText": "Steve Sarkisian",
          "webSearchUrl": "https://www.bing.com/images/search?q=Steve+Sarkisian&FORM=IRPATC",
          "searchLink": "https://api.bing.microsoft.com/api/v7/images/search?q=Steve+Sarkisian",
          "thumbnail": {
             "thumbnailUrl": "https://tse1.mm.bing.net/th?q=Steve+Sarkisian&pid=Api&mkt=en-US&cc=US&setlang=en&adlt=moderate&t=1"
          }
       },
       {
          "text": "HH Ewers",
          "displayText": "HH Ewers",
          "webSearchUrl": "https://www.bing.com/images/search?q=HH+Ewers&FORM=IRPATC",
          "searchLink": "https://api.bing.microsoft.com/api/v7/images/search?q=HH+Ewers",
          "thumbnail": {
             "thumbnailUrl": "https://tse3.mm.bing.net/th?q=HH+Ewers&pid=Api&mkt=en-US&cc=US&setlang=en&adlt=moderate&t=1"
          }
       },
       {
          "text": "Justin Fields Chicago Bears Jersey",
          "displayText": "Justin Fields Chicago Bears Jersey",
          "webSearchUrl": "https://www.bing.com/images/search?q=Justin+Fields+Chicago+Bears+Jersey&FORM=IRPATC",
          "searchLink": "https://api.bing.microsoft.com/api/v7/images/search?q=Justin+Fields+Chicago+Bears+Jersey",
          "thumbnail": {
             "thumbnailUrl": "https://tse4.mm.bing.net/th?q=Justin+Fields+Chicago+Bears+Jersey&pid=Api&mkt=en-US&cc=US&setlang=en&adlt=moderate&t=1"
          }
       },
       {
          "text": "Quinn Ewers Quarterback",
          "displayText": "Quinn Ewers Quarterback",
          "webSearchUrl": "https://www.bing.com/images/search?q=Quinn+Ewers+Quarterback&FORM=IRPATC",
          "searchLink": "https://api.bing.microsoft.com/api/v7/images/search?q=Quinn+Ewers+Quarterback",
          "thumbnail": {
             "thumbnailUrl": "https://tse1.mm.bing.net/th?q=Quinn+Ewers+Quarterback&pid=Api&mkt=en-US&cc=US&setlang=en&adlt=moderate&t=1"
          }
       },
       {
          "text": "Longhorn Football",
          "displayText": "Longhorn Football",
          "webSearchUrl": "https://www.bing.com/images/search?q=Longhorn+Football&FORM=IRPATC",
          "searchLink": "https://api.bing.microsoft.com/api/v7/images/search?q=Longhorn+Football",
          "thumbnail": {
             "thumbnailUrl": "https://tse3.mm.bing.net/th?q=Longhorn+Football&pid=Api&mkt=en-US&cc=US&setlang=en&adlt=moderate&t=1"
          }
       },
       {
          "text": "Quinn Ewers Mother",
          "displayText": "Quinn Ewers Mother",
          "webSearchUrl": "https://www.bing.com/images/search?q=Quinn+Ewers+Mother&FORM=IRPATC",
          "searchLink": "https://api.bing.microsoft.com/api/v7/images/search?q=Quinn+Ewers+Mother",
          "thumbnail": {
             "thumbnailUrl": "https://tse3.mm.bing.net/th?q=Quinn+Ewers+Mother&pid=Api&mkt=en-US&cc=US&setlang=en&adlt=moderate&t=1"
          }
       },
       {
          "text": "Curtis Ewers",
          "displayText": "Curtis Ewers",
          "webSearchUrl": "https://www.bing.com/images/search?q=Curtis+Ewers&FORM=IRPATC",
          "searchLink": "https://api.bing.microsoft.com/api/v7/images/search?q=Curtis+Ewers",
          "thumbnail": {
             "thumbnailUrl": "https://tse1.mm.bing.net/th?q=Curtis+Ewers&pid=Api&mkt=en-US&cc=US&setlang=en&adlt=moderate&t=1"
          }
       },
       {
          "text": "Ohio State Buckeyes Players",
          "displayText": "Ohio State Buckeyes Players",
          "webSearchUrl": "https://www.bing.com/images/search?q=Ohio+State+Buckeyes+Players&FORM=IRPATC",
          "searchLink": "https://api.bing.microsoft.com/api/v7/images/search?q=Ohio+State+Buckeyes+Players",
          "thumbnail": {
             "thumbnailUrl": "https://tse4.mm.bing.net/th?q=Ohio+State+Buckeyes+Players&pid=Api&mkt=en-US&cc=US&setlang=en&adlt=moderate&t=1"
          }
       },
       {
          "text": "Quinn Ewers Sistem",
          "displayText": "Quinn Ewers Sistem",
          "webSearchUrl": "https://www.bing.com/images/search?q=Quinn+Ewers+Sistem&FORM=IRPATC",
          "searchLink": "https://api.bing.microsoft.com/api/v7/images/search?q=Quinn+Ewers+Sistem",
          "thumbnail": {
             "thumbnailUrl": "https://tse1.mm.bing.net/th?q=Quinn+Ewers+Sistem&pid=Api&mkt=en-US&cc=US&setlang=en&adlt=moderate&t=1"
          }
       },
       {
          "text": "Ohio State Buckeye Fans",
          "displayText": "Ohio State Buckeye Fans",
          "webSearchUrl": "https://www.bing.com/images/search?q=Ohio+State+Buckeye+Fans&FORM=IRPATC",
          "searchLink": "https://api.bing.microsoft.com/api/v7/images/search?q=Ohio+State+Buckeye+Fans",
          "thumbnail": {
             "thumbnailUrl": "https://tse3.mm.bing.net/th?q=Ohio+State+Buckeye+Fans&pid=Api&mkt=en-US&cc=US&setlang=en&adlt=moderate&t=1"
          }
       },
       {
          "text": "Quinn Ewers vs Behren Morton",
          "displayText": "Quinn Ewers vs Behren Morton",
          "webSearchUrl": "https://www.bing.com/images/search?q=Quinn+Ewers+vs+Behren+Morton&FORM=IRPATC",
          "searchLink": "https://api.bing.microsoft.com/api/v7/images/search?q=Quinn+Ewers+vs+Behren+Morton",
          "thumbnail": {
             "thumbnailUrl": "https://tse4.mm.bing.net/th?q=Quinn+Ewers+vs+Behren+Morton&pid=Api&mkt=en-US&cc=US&setlang=en&adlt=moderate&t=1"
          }
       },
       {
          "text": "LTC Ewers Large",
          "displayText": "LTC Ewers Large",
          "webSearchUrl": "https://www.bing.com/images/search?q=LTC+Ewers+Large&FORM=IRPATC",
          "searchLink": "https://api.bing.microsoft.com/api/v7/images/search?q=LTC+Ewers+Large",
          "thumbnail": {
             "thumbnailUrl": "https://tse1.mm.bing.net/th?q=LTC+Ewers+Large&pid=Api&mkt=en-US&cc=US&setlang=en&adlt=moderate&t=1"
          }
       },
       {
          "text": "Darren Rizzi Saints",
          "displayText": "Darren Rizzi Saints",
          "webSearchUrl": "https://www.bing.com/images/search?q=Darren+Rizzi+Saints&FORM=IRPATC",
          "searchLink": "https://api.bing.microsoft.com/api/v7/images/search?q=Darren+Rizzi+Saints",
          "thumbnail": {
             "thumbnailUrl": "https://tse1.mm.bing.net/th?q=Darren+Rizzi+Saints&pid=Api&mkt=en-US&cc=US&setlang=en&adlt=moderate&t=1"
          }
       },
       {
          "text": "Southlake Carroll QB Quinn Ewers",
          "displayText": "Southlake Carroll QB Quinn Ewers",
          "webSearchUrl": "https://www.bing.com/images/search?q=Southlake+Carroll+QB+Quinn+Ewers&FORM=IRPATC",
          "searchLink": "https://api.bing.microsoft.com/api/v7/images/search?q=Southlake+Carroll+QB+Quinn+Ewers",
          "thumbnail": {
             "thumbnailUrl": "https://tse4.mm.bing.net/th?q=Southlake+Carroll+QB+Quinn+Ewers&pid=Api&mkt=en-US&cc=US&setlang=en&adlt=moderate&t=1"
          }
       },
       {
          "text": "Akron Stadium",
          "displayText": "Akron Stadium",
          "webSearchUrl": "https://www.bing.com/images/search?q=Akron+Stadium&FORM=IRPATC",
          "searchLink": "https://api.bing.microsoft.com/api/v7/images/search?q=Akron+Stadium",
          "thumbnail": {
             "thumbnailUrl": "https://tse3.mm.bing.net/th?q=Akron+Stadium&pid=Api&mkt=en-US&cc=US&setlang=en&adlt=moderate&t=1"
          }
       },
       {
          "text": "Ewers in Ohio",
          "displayText": "Ewers in Ohio",
          "webSearchUrl": "https://www.bing.com/images/search?q=Ewers+in+Ohio&FORM=IRPATC",
          "searchLink": "https://api.bing.microsoft.com/api/v7/images/search?q=Ewers+in+Ohio",
          "thumbnail": {
             "thumbnailUrl": "https://tse1.mm.bing.net/th?q=Ewers+in+Ohio&pid=Api&mkt=en-US&cc=US&setlang=en&adlt=moderate&t=1"
          }
       },
       {
          "text": "Christopher James Quinn",
          "displayText": "Christopher James Quinn",
          "webSearchUrl": "https://www.bing.com/images/search?q=Christopher+James+Quinn&FORM=IRPATC",
          "searchLink": "https://api.bing.microsoft.com/api/v7/images/search?q=Christopher+James+Quinn",
          "thumbnail": {
             "thumbnailUrl": "https://tse3.mm.bing.net/th?q=Christopher+James+Quinn&pid=Api&mkt=en-US&cc=US&setlang=en&adlt=moderate&t=1"
          }
       },
       {
          "text": "Quinn R Valentine Texas",
          "displayText": "Quinn R Valentine Texas",
          "webSearchUrl": "https://www.bing.com/images/search?q=Quinn+R+Valentine+Texas&FORM=IRPATC",
          "searchLink": "https://api.bing.microsoft.com/api/v7/images/search?q=Quinn+R+Valentine+Texas",
          "thumbnail": {
             "thumbnailUrl": "https://tse3.mm.bing.net/th?q=Quinn+R+Valentine+Texas&pid=Api&mkt=en-US&cc=US&setlang=en&adlt=moderate&t=1"
          }
       },
       {
          "text": "Southlake Dragons Quarterback Quinn Euers",
          "displayText": "Southlake Dragons Quarterback Quinn Euers",
          "webSearchUrl": "https://www.bing.com/images/search?q=Southlake+Dragons+Quarterback+Quinn+Euers&FORM=IRPATC",
          "searchLink": "https://api.bing.microsoft.com/api/v7/images/search?q=Southlake+Dragons+Quarterback+Quinn+Euers",
          "thumbnail": {
             "thumbnailUrl": "https://tse1.mm.bing.net/th?q=Southlake+Dragons+Quarterback+Quinn+Euers&pid=Api&mkt=en-US&cc=US&setlang=en&adlt=moderate&t=1"
          }
       },
       {
          "text": "Thayer Munford OSU",
          "displayText": "Thayer Munford OSU",
          "webSearchUrl": "https://www.bing.com/images/search?q=Thayer+Munford+OSU&FORM=IRPATC",
          "searchLink": "https://api.bing.microsoft.com/api/v7/images/search?q=Thayer+Munford+OSU",
          "thumbnail": {
             "thumbnailUrl": "https://tse4.mm.bing.net/th?q=Thayer+Munford+OSU&pid=Api&mkt=en-US&cc=US&setlang=en&adlt=moderate&t=1"
          }
       },
       {
          "text": "Quinn Ewerrs Commitment Graphic",
          "displayText": "Quinn Ewerrs Commitment Graphic",
          "webSearchUrl": "https://www.bing.com/images/search?q=Quinn+Ewerrs+Commitment+Graphic&FORM=IRPATC",
          "searchLink": "https://api.bing.microsoft.com/api/v7/images/search?q=Quinn+Ewerrs+Commitment+Graphic",
          "thumbnail": {
             "thumbnailUrl": "https://tse3.mm.bing.net/th?q=Quinn+Ewerrs+Commitment+Graphic&pid=Api&mkt=en-US&cc=US&setlang=en&adlt=moderate&t=1"
          }
       },
       {
          "text": "Who Is the Quarterback for the Southlake Carroll Dragons",
          "displayText": "Who Is the Quarterback for the Southlake Carroll Dragons",
          "webSearchUrl": "https://www.bing.com/images/search?q=Who+Is+the+Quarterback+for+the+Southlake+Carroll+Dragons&FORM=IRPATC",
          "searchLink": "https://api.bing.microsoft.com/api/v7/images/search?q=Who+Is+the+Quarterback+for+the+Southlake+Carroll+Dragons",
          "thumbnail": {
             "thumbnailUrl": "https://tse2.mm.bing.net/th?q=Who+Is+the+Quarterback+for+the+Southlake+Carroll+Dragons&pid=Api&mkt=en-US&cc=US&setlang=en&adlt=moderate&t=1"
          }
       },
       {
          "text": "South Lake Carroll 2022 Quarterback",
          "displayText": "South Lake Carroll 2022 Quarterback",
          "webSearchUrl": "https://www.bing.com/images/search?q=South+Lake+Carroll+2022+Quarterback&FORM=IRPATC",
          "searchLink": "https://api.bing.microsoft.com/api/v7/images/search?q=South+Lake+Carroll+2022+Quarterback",
          "thumbnail": {
             "thumbnailUrl": "https://tse1.mm.bing.net/th?q=South+Lake+Carroll+2022+Quarterback&pid=Api&mkt=en-US&cc=US&setlang=en&adlt=moderate&t=1"
          }
       },
       {
          "text": "Quin Evers South Lake",
          "displayText": "Quin Evers South Lake",
          "webSearchUrl": "https://www.bing.com/images/search?q=Quin+Evers+South+Lake&FORM=IRPATC",
          "searchLink": "https://api.bing.microsoft.com/api/v7/images/search?q=Quin+Evers+South+Lake",
          "thumbnail": {
             "thumbnailUrl": "https://tse3.mm.bing.net/th?q=Quin+Evers+South+Lake&pid=Api&mkt=en-US&cc=US&setlang=en&adlt=moderate&t=1"
          }
       }
    ]
 }