{
    "players": [
      {
        "player_id": 196,
        "player_first_name": "Hudson",
        "player_last_name": "Card",
        "team_name": "Texas",
        "position": "QB",
        "player_weight": 201,
        "player_height": 74,
        "player_jersey": 1
      },
      {
        "player_id": 4362,
        "player_first_name": "Casey",
        "player_last_name": "Thompson",
        "team_name": "Texas",
        "position": "QB",
        "player_weight": 195,
        "player_height": 72,
        "player_jersey": 11
      },
      {
        "player_id": 196,
        "player_first_name": "Colt",
        "player_last_name": "McCoy",
        "team_name": "Texas",
        "position": "QB",
        "player_weight": "N/A",
        "player_height": 74,
        "player_jersey": 12
      }
    ]
  }
